{
  "tourism/zoo": {
    "name": "حديقة حيوانات",
    "fields": [
      {
        "key": "operator",
        "label": "المُشغل",
        "type": "text"
      },
      {
        "key": "fee",
        "label": "رسوم",
        "type": "check"
      },
      {
        "key": "charge_fee",
        "label": "مبلغ الرسوم",
        "type": "text"
      }
    ]
  },
  "tourism/wilderness_hut": {
    "name": "Wilderness Hut",
    "fields": [
      {
        "key": "operator",
        "label": "المُشغل",
        "type": "text"
      },
      {
        "key": "building_area_yes",
        "label": null,
        "type": "combo"
      },
      {
        "key": "access_simple",
        "label": "الوصول المسموح به",
        "type": "combo"
      },
      {
        "key": "fee",
        "label": "رسوم",
        "type": "check"
      },
      {
        "key": "payment_multi_fee",
        "label": null,
        "type": "multiCombo"
      },
      {
        "key": "charge_fee",
        "label": "مبلغ الرسوم",
        "type": "text"
      },
      {
        "key": "fireplace",
        "label": "المستوقد/مدفأة نار",
        "type": "check"
      }
    ]
  },
  "tourism/trail_riding_station": {
    "name": "Trail Riding Station",
    "fields": [
      {
        "key": "horse_stables",
        "label": "ركوب مستقر",
        "type": "check"
      },
      {
        "key": "horse_riding",
        "label": "ركوب الخيل",
        "type": "check"
      },
      {
        "key": "horse_dressage",
        "label": "ترويض الخيول",
        "type": "check"
      }
    ]
  },
  "tourism/theme_park": {
    "name": "حديقة ترفيه",
    "fields": [
      {
        "key": "operator",
        "label": "المُشغل",
        "type": "text"
      }
    ]
  },
  "tourism/museum": {
    "name": "متحف",
    "fields": [
      {
        "key": "operator",
        "label": "المُشغل",
        "type": "text"
      },
      {
        "key": "operator/type",
        "label": "التشغيل يتم عبر",
        "type": "combo"
      },
      {
        "key": "museum",
        "label": "النوع",
        "type": "combo"
      },
      {
        "key": "building_area_yes",
        "label": null,
        "type": "combo"
      }
    ]
  },
  "tourism/motel": {
    "name": "فندق صغير",
    "fields": [
      {
        "key": "brand",
        "label": "العلامة التجارية",
        "type": "text"
      },
      {
        "key": "email",
        "label": "البريد الإلكتروني",
        "type": "email"
      },
      {
        "key": "building_area_yes",
        "label": null,
        "type": "combo"
      },
      {
        "key": "rooms",
        "label": "الغرف",
        "type": "number"
      },
      {
        "key": "internet_access",
        "label": "اتصال انترنت",
        "type": "combo"
      },
      {
        "key": "internet_access/fee",
        "label": "الوصول للانترنت",
        "type": "combo"
      }
    ]
  },
  "tourism/hotel": {
    "name": "فندق",
    "fields": [
      {
        "key": "{tourism/motel}",
        "label": null,
        "type": ""
      }
    ]
  },
  "tourism/hostel": {
    "name": "نزل / شقة مفروشة",
    "fields": [
      {
        "key": "{tourism/guest_house}",
        "label": null,
        "type": ""
      }
    ]
  },
  "tourism/guest_house": {
    "name": "دار الضيافة",
    "fields": [
      {
        "key": "operator",
        "label": "المُشغل",
        "type": "text"
      },
      {
        "key": "guest_house",
        "label": "النوع",
        "type": "combo"
      },
      {
        "key": "email",
        "label": "البريد الإلكتروني",
        "type": "email"
      },
      {
        "key": "building_area_yes",
        "label": null,
        "type": "combo"
      },
      {
        "key": "rooms",
        "label": "الغرف",
        "type": "number"
      },
      {
        "key": "internet_access",
        "label": "اتصال انترنت",
        "type": "combo"
      },
      {
        "key": "internet_access/fee",
        "label": "الوصول للانترنت",
        "type": "combo"
      }
    ]
  },
  "tourism/gallery": {
    "name": "رواق الفنون",
    "fields": [
      {
        "key": "operator",
        "label": "المُشغل",
        "type": "text"
      },
      {
        "key": "building_area_yes",
        "label": null,
        "type": "combo"
      }
    ]
  },
  "tourism/chalet": {
    "name": "منتجع - شاليه",
    "fields": [
      {
        "key": "operator",
        "label": "المُشغل",
        "type": "text"
      },
      {
        "key": "email",
        "label": "البريد الإلكتروني",
        "type": "email"
      },
      {
        "key": "building_area_yes",
        "label": null,
        "type": "combo"
      },
      {
        "key": "internet_access",
        "label": "اتصال انترنت",
        "type": "combo"
      },
      {
        "key": "internet_access/fee",
        "label": "الوصول للانترنت",
        "type": "combo"
      }
    ]
  },
  "tourism/caravan_site": {
    "name": "موقف عربات كبيرة",
    "fields": [
      {
        "key": "capacity/caravans",
        "label": null,
        "type": "number"
      },
      {
        "key": "sanitary_dump_station",
        "label": "محطة تصريف خزانات مراحيض السيارات",
        "type": "check"
      },
      {
        "key": "power_supply",
        "label": "مولد طاقة",
        "type": "check"
      },
      {
        "key": "internet_access",
        "label": "اتصال انترنت",
        "type": "combo"
      },
      {
        "key": "internet_access/fee",
        "label": "الوصول للانترنت",
        "type": "combo"
      }
    ]
  },
  "tourism/camp_site": {
    "name": "مكان التخييم",
    "fields": [
      {
        "key": "operator",
        "label": "المُشغل",
        "type": "text"
      },
      {
        "key": "access_simple",
        "label": "الوصول المسموح به",
        "type": "combo"
      },
      {
        "key": "capacity/persons",
        "label": "السعة (بالأشخاص)",
        "type": "number"
      },
      {
        "key": "tents",
        "label": null,
        "type": "check"
      },
      {
        "key": "capacity/tents",
        "label": "السعة (للخيام)",
        "type": "number"
      },
      {
        "key": "caravans",
        "label": null,
        "type": "check"
      },
      {
        "key": "capacity/caravans",
        "label": null,
        "type": "number"
      },
      {
        "key": "static_caravans",
        "label": null,
        "type": "check"
      },
      {
        "key": "fee",
        "label": "رسوم",
        "type": "check"
      },
      {
        "key": "payment_multi_fee",
        "label": null,
        "type": "multiCombo"
      },
      {
        "key": "charge_fee",
        "label": "مبلغ الرسوم",
        "type": "text"
      }
    ]
  },
  "tourism/camp_pitch": {
    "name": "Camp Pitch",
    "fields": [
      {
        "key": "ref",
        "label": "الرمز المرجعي",
        "type": "text"
      }
    ]
  },
  "tourism/attraction": {
    "name": "معلم سياحي",
    "fields": [
      {
        "key": "operator",
        "label": "المُشغل",
        "type": "text"
      }
    ]
  },
  "tourism/aquarium": {
    "name": "حوض سمك",
    "fields": [
      {
        "key": "operator",
        "label": "المُشغل",
        "type": "text"
      },
      {
        "key": "building_area_yes",
        "label": null,
        "type": "combo"
      }
    ]
  },
  "tourism/apartment": {
    "name": "شقة سياحية",
    "fields": [
      {
        "key": "operator",
        "label": "المُشغل",
        "type": "text"
      },
      {
        "key": "email",
        "label": "البريد الإلكتروني",
        "type": "email"
      },
      {
        "key": "building_area_yes",
        "label": null,
        "type": "combo"
      },
      {
        "key": "rooms",
        "label": "الغرف",
        "type": "number"
      },
      {
        "key": "internet_access",
        "label": "اتصال انترنت",
        "type": "combo"
      },
      {
        "key": "internet_access/fee",
        "label": "الوصول للانترنت",
        "type": "combo"
      }
    ]
  },
  "tourism/alpine_hut": {
    "name": "كوخ جبلي",
    "fields": [
      {
        "key": "operator",
        "label": "المُشغل",
        "type": "text"
      },
      {
        "key": "building_area_yes",
        "label": null,
        "type": "combo"
      },
      {
        "key": "internet_access",
        "label": "اتصال انترنت",
        "type": "combo"
      },
      {
        "key": "internet_access/fee",
        "label": "الوصول للانترنت",
        "type": "combo"
      },
      {
        "key": "fee",
        "label": "رسوم",
        "type": "check"
      },
      {
        "key": "payment_multi_fee",
        "label": null,
        "type": "multiCombo"
      },
      {
        "key": "charge_fee",
        "label": "مبلغ الرسوم",
        "type": "text"
      }
    ]
  },
  "shop/wine": {
    "name": "متجر نبيذ",
    "fields": []
  },
  "shop/window_blind": {
    "name": "محل لبيع ستائر النوافذ",
    "fields": []
  },
  "shop/wigs": {
    "name": "متجر بيع الباروكات",
    "fields": []
  },
  "shop/wholesale": {
    "name": "متجر بيع بالجملة",
    "fields": [
      {
        "key": "{shop}",
        "label": null,
        "type": ""
      },
      {
        "key": "wholesale",
        "label": "بيع بالجملة",
        "type": "typeCombo"
      }
    ]
  },
  "shop/weapons": {
    "name": "متجر أسلحة",
    "fields": []
  },
  "shop/water_sports": {
    "name": "متجر رياضة مائية/سباحة",
    "fields": []
  },
  "shop/water": {
    "name": "متجر مياه شرب",
    "fields": []
  },
  "shop/watches": {
    "name": "متجر الساعات اليدوية",
    "fields": []
  },
  "shop/video_games": {
    "name": "متجر العاب الفيديو",
    "fields": []
  },
  "shop/video": {
    "name": "محل بيع وتأجير الأفلام",
    "fields": []
  },
  "shop/variety_store": {
    "name": "متجر التخفيضات",
    "fields": []
  },
  "shop/vacuum_cleaner": {
    "name": "متجر المكنسات الكهربائية",
    "fields": []
  },
  "shop/tyres": {
    "name": "محل بيع إطارات",
    "fields": []
  },
  "shop/trophy": {
    "name": "محل بيع جوائز ودروع ولوحات تذكارية",
    "fields": []
  },
  "shop/travel_agency": {
    "name": "وكالة سفر",
    "fields": []
  },
  "shop/trade": {
    "name": "محلات بيع مواد بالجملة",
    "fields": [
      {
        "key": "trade",
        "label": "النوع",
        "type": "typeCombo"
      },
      {
        "key": "{shop}",
        "label": null,
        "type": ""
      }
    ]
  },
  "shop/toys": {
    "name": "متجر ألعاب",
    "fields": []
  },
  "shop/tool_hire": {
    "name": "محل تأجير معدات",
    "fields": []
  },
  "shop/tobacco": {
    "name": "محل بيع التبغ",
    "fields": []
  },
  "shop/tiles": {
    "name": "متجر بلاط",
    "fields": []
  },
  "shop/ticket": {
    "name": "بائع تذاكر",
    "fields": []
  },
  "shop/telecommunication": {
    "name": "متجر بيع بالتجزئة لشركة اتصالات",
    "fields": []
  },
  "shop/tea": {
    "name": "متجر شاي",
    "fields": []
  },
  "shop/tattoo": {
    "name": "صالون الوشم",
    "fields": []
  },
  "shop/tailor": {
    "name": "خياط",
    "fields": []
  },
  "shop/swimming_pool": {
    "name": "متجر مستلزمات حمامات السباحة",
    "fields": []
  },
  "shop/supermarket": {
    "name": "سوبر ماركت",
    "fields": []
  },
  "shop/storage_rental": {
    "name": "محل تأجير أماكن التخزين",
    "fields": []
  },
  "shop/stationery": {
    "name": "متجر قرطاسية و أدوات مكتبية",
    "fields": []
  },
  "shop/sports": {
    "name": "متجر بيع أدوات رياضية",
    "fields": [
      {
        "key": "operator",
        "label": "المُشغل",
        "type": "text"
      },
      {
        "key": "sport",
        "label": "الرياضات",
        "type": "semiCombo"
      },
      {
        "key": "{shop}",
        "label": null,
        "type": ""
      }
    ]
  },
  "shop/spices": {
    "name": "محل بيع بهارات",
    "fields": []
  },
  "shop/shoes": {
    "name": "متجر أحذية",
    "fields": [
      {
        "key": "shoes",
        "label": "أحذية",
        "type": "semiCombo"
      },
      {
        "key": "{shop}",
        "label": null,
        "type": ""
      }
    ]
  },
  "shop/shoe_repair": {
    "name": "محل تصليح الأحذية",
    "fields": []
  },
  "shop/sewing": {
    "name": "متجر مستلزمات خياطة",
    "fields": []
  },
  "shop/second_hand": {
    "name": "متجر التوفير",
    "fields": [
      {
        "key": "{shop}",
        "label": null,
        "type": ""
      },
      {
        "key": "second_hand",
        "label": "بيع المستعمل",
        "type": "combo"
      }
    ]
  },
  "shop/seafood": {
    "name": "متجر مأكولات بحرية",
    "fields": []
  },
  "shop/scuba_diving": {
    "name": "متجر معدات الغوص تحت الماء",
    "fields": [
      {
        "key": "{shop}",
        "label": null,
        "type": ""
      },
      {
        "key": "scuba_diving",
        "label": "الخدمات",
        "type": "multiCombo"
      }
    ]
  },
  "shop/repair": {
    "name": "محل تصليح",
    "fields": []
  },
  "shop/rental": {
    "name": "محل تأجير",
    "fields": []
  },
  "shop/religion": {
    "name": "متجر ديني",
    "fields": [
      {
        "key": "{shop}",
        "label": null,
        "type": ""
      },
      {
        "key": "religion",
        "label": "الديانة",
        "type": "combo"
      },
      {
        "key": "denomination",
        "label": "المذهب/الطائفة",
        "type": "combo"
      }
    ]
  },
  "shop/radiotechnics": {
    "name": "متجر بيع قطع الراديو / الإلكترونية",
    "fields": []
  },
  "shop/pyrotechnics": {
    "name": "متجر ألعاب نارية",
    "fields": []
  },
  "shop/psychic": {
    "name": "Psychic",
    "fields": []
  },
  "shop/printer_ink": {
    "name": "متجر أحبار طابعة",
    "fields": []
  },
  "shop/pottery": {
    "name": "متجر فخار",
    "fields": []
  },
  "shop/photo": {
    "name": "محل تصوير",
    "fields": []
  },
  "shop/pet": {
    "name": "محل بيع حيوانات أليفة",
    "fields": []
  },
  "shop/perfumery": {
    "name": "متجر عطور",
    "fields": []
  },
  "shop/pawnbroker": {
    "name": "متجر رهن",
    "fields": []
  },
  "shop/pastry": {
    "name": "متجر حلويات",
    "fields": []
  },
  "shop/party": {
    "name": "متجر مستلزمات حفلات",
    "fields": []
  },
  "shop/paint": {
    "name": "متجر دهانات وطلاء",
    "fields": []
  },
  "shop/outpost": {
    "name": "محل استلام شحنات مطلوبة من الانترنت",
    "fields": []
  },
  "shop/outdoor": {
    "name": "متجر معدات الرحلات والتسلق والتخييم",
    "fields": [
      {
        "key": "{shop}",
        "label": null,
        "type": ""
      }
    ]
  },
  "shop/optician": {
    "name": "متجر نظارات",
    "fields": []
  },
  "shop/nutrition_supplements": {
    "name": "متجر المكملات الغذائية",
    "fields": []
  },
  "shop/newsagent": {
    "name": "كشك",
    "fields": []
  },
  "shop/musical_instrument": {
    "name": "متجر آلات موسيقية",
    "fields": []
  },
  "shop/music": {
    "name": "متجر بيع موسيقى",
    "fields": []
  },
  "shop/motorcycle_repair": {
    "name": "ورشة تصليح الدراجات النارية",
    "fields": [
      {
        "key": "{shop}",
        "label": null,
        "type": ""
      },
      {
        "key": "service/vehicle",
        "label": "الخدمات",
        "type": "multiCombo"
      }
    ]
  },
  "shop/motorcycle": {
    "name": "بائع دراجات نارية",
    "fields": [
      {
        "key": "brand",
        "label": "العلامة التجارية",
        "type": "text"
      },
      {
        "key": "{shop}",
        "label": null,
        "type": ""
      }
    ]
  },
  "shop/money_lender": {
    "name": "مُقرض المال",
    "fields": [
      {
        "key": "{shop}",
        "label": null,
        "type": ""
      },
      {
        "key": "currency_multi",
        "label": "أنواع العملات",
        "type": "multiCombo"
      }
    ]
  },
  "shop/model": {
    "name": "متجر بيع النماذج المصغرة للأشياء",
    "fields": []
  },
  "shop/mobile_phone": {
    "name": "محل بيع هواتف",
    "fields": []
  },
  "shop/military_surplus": {
    "name": "متجر بيع المعدات والمستلزمات العسكرية المستعملة",
    "fields": []
  },
  "shop/medical_supply": {
    "name": "متجر مستلزمات وأجهزة طبية",
    "fields": []
  },
  "shop/massage": {
    "name": "صالون التدليك",
    "fields": []
  },
  "shop/mall": {
    "name": "مركز تسوق تجاري (مول)",
    "fields": []
  },
  "shop/lottery": {
    "name": "متجر اليانصيب",
    "fields": []
  },
  "shop/locksmith": {
    "name": "محل بيع أقفال ونسخ مفاتيح",
    "fields": []
  },
  "shop/lighting": {
    "name": "متجر إنارة ولمبات",
    "fields": []
  },
  "shop/leather": {
    "name": "متجر المنتجات الجلدية",
    "fields": []
  },
  "shop/laundry": {
    "name": "محل غسيل ملابس",
    "fields": [
      {
        "key": "{shop}",
        "label": null,
        "type": ""
      },
      {
        "key": "self_service",
        "label": "خدمة ذاتية",
        "type": "check"
      }
    ]
  },
  "shop/kitchen": {
    "name": "متجر ديكور وتصميم المطابخ",
    "fields": []
  },
  "shop/kiosk": {
    "name": "كشك",
    "fields": []
  },
  "shop/jewelry": {
    "name": "محل بيع مجوهرات",
    "fields": []
  },
  "shop/interior_decoration": {
    "name": "متجر الديكور الداخلي",
    "fields": []
  },
  "shop/hunting": {
    "name": "متجر بيع أسلحة ومعدات الصيد",
    "fields": []
  },
  "shop/houseware": {
    "name": "متجر بيع الأدوات المنزلية الصغيرة",
    "fields": []
  },
  "shop/household_linen": {
    "name": "محل المفروشات والأغطية المنزلية",
    "fields": []
  },
  "shop/hifi": {
    "name": "محل بيع أجهزة عالية الدقة",
    "fields": []
  },
  "shop/herbalist": {
    "name": "محل بيع الأعشاب الطبية / عطار",
    "fields": []
  },
  "shop/hearing_aids": {
    "name": "متجر سماعات الأذن الطبية",
    "fields": []
  },
  "shop/health_food": {
    "name": "متجر أغذية صحية",
    "fields": []
  },
  "shop/hardware": {
    "name": "محل مواد بناء",
    "fields": []
  },
  "shop/hairdresser_supply": {
    "name": "متجر مستلزمات حلاقين",
    "fields": []
  },
  "shop/hairdresser": {
    "name": "حلاق",
    "fields": [
      {
        "key": "operator",
        "label": "المُشغل",
        "type": "text"
      },
      {
        "key": "building_area_yes",
        "label": null,
        "type": "combo"
      },
      {
        "key": "payment_multi",
        "label": "طرق الدفع",
        "type": "multiCombo"
      },
      {
        "key": "gender",
        "label": "نوع الجنس",
        "type": "radio"
      }
    ]
  },
  "shop/greengrocer": {
    "name": "متجر خضروات",
    "fields": [
      {
        "key": "{shop}",
        "label": null,
        "type": ""
      },
      {
        "key": "organic",
        "label": "منتجات عضوية",
        "type": "combo"
      }
    ]
  },
  "shop/gift": {
    "name": "محل بيع هدايا",
    "fields": []
  },
  "shop/general": {
    "name": "متجر عام",
    "fields": []
  },
  "shop/gas": {
    "name": "محل بيع الغاز المعبأ",
    "fields": []
  },
  "shop/garden_centre": {
    "name": "مشتل",
    "fields": []
  },
  "shop/games": {
    "name": "متجر ألعاب الطاولة",
    "fields": []
  },
  "shop/furniture": {
    "name": "محل بيع أثاث",
    "fields": []
  },
  "shop/funeral_directors": {
    "name": "محل بيع أكفان ومستلزمات الجنائز",
    "fields": [
      {
        "key": "{shop}",
        "label": null,
        "type": ""
      },
      {
        "key": "religion",
        "label": "الديانة",
        "type": "combo"
      },
      {
        "key": "denomination",
        "label": "المذهب/الطائفة",
        "type": "combo"
      }
    ]
  },
  "shop/fuel": {
    "name": "متجر بيع الوقود",
    "fields": [
      {
        "key": "{shop}",
        "label": null,
        "type": ""
      },
      {
        "key": "fuel/fuel_multi",
        "label": "أنواع الوقود",
        "type": "multiCombo"
      }
    ]
  },
  "shop/frozen_food": {
    "name": "متجر أغذية مجمدة",
    "fields": []
  },
  "shop/frame": {
    "name": "محل تأطير (بيع إطارات صور)",
    "fields": []
  },
  "shop/florist": {
    "name": "محل بيع الورود",
    "fields": []
  },
  "shop/flooring": {
    "name": "محل بيع أرضيات",
    "fields": []
  },
  "shop/fishing": {
    "name": "محل معدات الصيد البحري",
    "fields": []
  },
  "shop/fireplace": {
    "name": "متجر بيع المواقد والدفايات",
    "fields": []
  },
  "shop/fashion_accessories": {
    "name": "محل اكسسوارات الموضة",
    "fields": [
      {
        "key": "clothes",
        "label": "ملابس",
        "type": "semiCombo"
      },
      {
        "key": "{shop}",
        "label": null,
        "type": ""
      }
    ]
  },
  "shop/farm": {
    "name": "متجر مزرعة ليبيع منتجاتها",
    "fields": [
      {
        "key": "{shop}",
        "label": null,
        "type": ""
      },
      {
        "key": "organic",
        "label": "منتجات عضوية",
        "type": "combo"
      }
    ]
  },
  "shop/fabric": {
    "name": "محل بيع الأقمشة",
    "fields": []
  },
  "shop/erotic": {
    "name": "Erotic Store",
    "fields": [
      {
        "key": "{shop}",
        "label": null,
        "type": ""
      },
      {
        "key": "min_age",
        "label": "الحد الأدنى للعمر",
        "type": "number"
      }
    ]
  },
  "shop/electronics": {
    "name": "محل إلكترونيات",
    "fields": []
  },
  "shop/electrical": {
    "name": "متجر المستلزمات الإلكترونية",
    "fields": []
  },
  "shop/e-cigarette": {
    "name": "متجر سجائر إلكترونية",
    "fields": []
  },
  "shop/dry_cleaning": {
    "name": "مغسلة ملابس بالبخار",
    "fields": []
  },
  "shop/doors": {
    "name": "متجر بيع أبواب",
    "fields": []
  },
  "shop/doityourself": {
    "name": "محل عدد وأدوات وأجهزة صيانة وتحسين المنزل",
    "fields": []
  },
  "shop/department_store": {
    "name": "محل متعدد الأقسام",
    "fields": []
  },
  "shop/deli": {
    "name": "محل أطعمة لذيذة",
    "fields": []
  },
  "shop/dairy": {
    "name": "متجر الألبان",
    "fields": []
  },
  "shop/curtain": {
    "name": "محل بيع الستائر",
    "fields": []
  },
  "shop/craft": {
    "name": "متجر الفنون والحرف",
    "fields": []
  },
  "shop/cosmetics": {
    "name": "متجر مستحضرات التجميل",
    "fields": []
  },
  "shop/copyshop": {
    "name": "متجر نسخ وتصوير",
    "fields": []
  },
  "shop/convenience": {
    "name": "بقالة - متجر صغير",
    "fields": []
  },
  "shop/confectionery": {
    "name": "متجر حلويات",
    "fields": []
  },
  "shop/computer": {
    "name": "محل حاسب آلي",
    "fields": []
  },
  "shop/collector": {
    "name": "متجر المقتنيات والتجميعات",
    "fields": [
      {
        "key": "collector",
        "label": "العناصر",
        "type": "semiCombo"
      },
      {
        "key": "{shop}",
        "label": null,
        "type": ""
      }
    ]
  },
  "shop/coffee": {
    "name": "متجر القهوة",
    "fields": []
  },
  "shop/clothes": {
    "name": "محل ملابس",
    "fields": [
      {
        "key": "clothes",
        "label": "ملابس",
        "type": "semiCombo"
      },
      {
        "key": "{shop}",
        "label": null,
        "type": ""
      }
    ]
  },
  "shop/chocolate": {
    "name": "متجر شوكولاتة",
    "fields": []
  },
  "shop/chemist": {
    "name": "متجر أدوات النظافة الشخصية والتجميل",
    "fields": []
  },
  "shop/cheese": {
    "name": "متجر أجبان",
    "fields": []
  },
  "shop/charity": {
    "name": "متجر خيري",
    "fields": [
      {
        "key": "{shop}",
        "label": null,
        "type": ""
      },
      {
        "key": "second_hand",
        "label": "بيع المستعمل",
        "type": "combo"
      }
    ]
  },
  "shop/catalogue": {
    "name": "Catalog Shop",
    "fields": []
  },
  "shop/carpet": {
    "name": "متجر سجاد ومفروشات",
    "fields": []
  },
  "shop/caravan": {
    "name": "متجر بيع كرفانات ومنازل متنقلة",
    "fields": [
      {
        "key": "brand",
        "label": "العلامة التجارية",
        "type": "text"
      },
      {
        "key": "{shop}",
        "label": null,
        "type": ""
      },
      {
        "key": "second_hand",
        "label": "بيع المستعمل",
        "type": "combo"
      },
      {
        "key": "service/vehicle",
        "label": "الخدمات",
        "type": "multiCombo"
      }
    ]
  },
  "shop/car_repair": {
    "name": "ورشة إصلاح سيارات",
    "fields": [
      {
        "key": "{shop}",
        "label": null,
        "type": ""
      },
      {
        "key": "service/vehicle",
        "label": "الخدمات",
        "type": "multiCombo"
      }
    ]
  },
  "shop/car_parts": {
    "name": "محل قطع غيار السيارة",
    "fields": []
  },
  "shop/car": {
    "name": "وكالة/معرض سيارات",
    "fields": [
      {
        "key": "brand",
        "label": "العلامة التجارية",
        "type": "text"
      },
      {
        "key": "{shop}",
        "label": null,
        "type": ""
      },
      {
        "key": "second_hand",
        "label": "بيع المستعمل",
        "type": "combo"
      },
      {
        "key": "service/vehicle",
        "label": "الخدمات",
        "type": "multiCombo"
      }
    ]
  },
  "shop/cannabis": {
    "name": "Cannabis Shop",
    "fields": []
  },
  "shop/candles": {
    "name": "متجر الشموع",
    "fields": []
  },
  "shop/camera": {
    "name": "Camera Equipment Store",
    "fields": []
  },
  "shop/butcher": {
    "name": "جزار",
    "fields": []
  },
  "shop/brewing_supplies": {
    "name": "Brewing Supply Store",
    "fields": []
  },
  "shop/books": {
    "name": "بائع كتب",
    "fields": [
      {
        "key": "{shop}",
        "label": null,
        "type": ""
      },
      {
        "key": "internet_access",
        "label": "اتصال انترنت",
        "type": "combo"
      }
    ]
  },
  "shop/bookmaker": {
    "name": "مكتب رهانات",
    "fields": []
  },
  "shop/boat": {
    "name": "متجر بيع قوارب ومستلزماتها",
    "fields": []
  },
  "shop/bicycle": {
    "name": "متجر دراجات هوائية",
    "fields": [
      {
        "key": "{shop}",
        "label": null,
        "type": ""
      },
      {
        "key": "service/bicycle",
        "label": "خدمات الدراجات",
        "type": "multiCombo"
      }
    ]
  },
  "shop/beverages": {
    "name": "محل بيع مشروبات ومرطبات",
    "fields": []
  },
  "shop/bed": {
    "name": "متجر مراتب ولوازم الفراش",
    "fields": []
  },
  "shop/beauty": {
    "name": "محل تجميل",
    "fields": [
      {
        "key": "{shop}",
        "label": null,
        "type": ""
      },
      {
        "key": "beauty",
        "label": "خدمات",
        "type": "semiCombo"
      }
    ]
  },
  "shop/bathroom_furnishing": {
    "name": "متجر أثاث واكسسوارات الحمامات",
    "fields": []
  },
  "shop/bakery": {
    "name": "مخبز",
    "fields": []
  },
  "shop/bag": {
    "name": "متجر حقائب وأمتعة",
    "fields": []
  },
  "shop/baby_goods": {
    "name": "متجر مستلزمات الأطفال",
    "fields": []
  },
  "shop/art": {
    "name": "متجر الفنون",
    "fields": []
  },
  "shop/appliance": {
    "name": "متجر الأجهزة المنزلية",
    "fields": []
  },
  "shop/antiques": {
    "name": "متجر تحف",
    "fields": []
  },
  "shop/anime": {
    "name": "متجر أنيمي / مانغا",
    "fields": []
  },
  "shop/alcohol": {
    "name": "متجر خمور",
    "fields": [
      {
        "key": "{shop}",
        "label": null,
        "type": ""
      },
      {
        "key": "drive_through",
        "label": "ممر الطلب بالسيارة",
        "type": "check"
      }
    ]
  },
  "shop/agrarian": {
    "name": "متجر المنتجات والمستلزمات الزراعية",
    "fields": [
      {
        "key": "{shop}",
        "label": null,
        "type": ""
      },
      {
        "key": "agrarian",
        "label": "المنتجات",
        "type": "semiCombo"
      }
    ]
  },
  "shop/yes": {
    "name": "متجر (نوع غير محدد)",
    "fields": [
      {
        "key": "shop",
        "label": "النوع",
        "type": "typeCombo"
      },
      {
        "key": "{shop}",
        "label": null,
        "type": ""
      }
    ]
  },
  "shop/hobby": {
    "name": "متاجر الهوايات",
    "fields": []
  },
  "shop/fashion": {
    "name": "متجر موضة",
    "fields": [
      {
        "key": "clothes",
        "label": "ملابس",
        "type": "semiCombo"
      },
      {
        "key": "{shop}",
        "label": null,
        "type": ""
      }
    ]
  },
  "shop/boutique": {
    "name": "بوتيك",
    "fields": [
      {
        "key": "clothes",
        "label": "ملابس",
        "type": "semiCombo"
      },
      {
        "key": "{shop}",
        "label": null,
        "type": ""
      }
    ]
  },
  "office/water_utility": {
    "name": "مكتب شركة مياه",
    "fields": [
      {
        "key": "{office}",
        "label": null,
        "type": ""
      },
      {
        "key": "operator",
        "label": "المُشغل",
        "type": "text"
      }
    ]
  },
  "office/therapist": {
    "name": "المعالج",
    "fields": [
      {
        "key": "healthcare_therapist",
        "label": null,
        "type": "typeCombo"
      },
      {
        "key": "healthcare/speciality",
        "label": "التخصصات",
        "type": "semiCombo"
      },
      {
        "key": "{office}",
        "label": null,
        "type": ""
      }
    ]
  },
  "office/telecommunication": {
    "name": "مكتب شركات اتصالات",
    "fields": []
  },
  "office/tax_advisor": {
    "name": "مستشار الضرائب",
    "fields": []
  },
  "office/surveyor": {
    "name": "مكتب مساح أرضي",
    "fields": []
  },
  "office/security": {
    "name": "مكتب مؤسسات الحراسات الأمنية",
    "fields": []
  },
  "office/research": {
    "name": "مكتب بحوث",
    "fields": []
  },
  "office/religion": {
    "name": "مكتب ديني",
    "fields": [
      {
        "key": "{office}",
        "label": null,
        "type": ""
      },
      {
        "key": "religion",
        "label": "الديانة",
        "type": "combo"
      },
      {
        "key": "denomination",
        "label": "المذهب/الطائفة",
        "type": "combo"
      }
    ]
  },
  "office/quango": {
    "name": "مكتب منظمة غير حكومية شبه مستقلة",
    "fields": []
  },
  "office/private_investigator": {
    "name": "مكتب محقق خاص",
    "fields": []
  },
  "office/political_party": {
    "name": "مكتب الحزب السياسي",
    "fields": []
  },
  "office/notary": {
    "name": "مكتب كتابة عدل / موثق",
    "fields": []
  },
  "office/ngo": {
    "name": "مكتب المنظمات العامة الغير حكومية",
    "fields": []
  },
  "office/newspaper": {
    "name": "صحيفة",
    "fields": []
  },
  "office/moving_company": {
    "name": "مكتب شركة نقل",
    "fields": []
  },
  "office/lawyer": {
    "name": "مكتب قانوني",
    "fields": []
  },
  "office/it": {
    "name": "مكتب متخصصي تكنولوجيا المعلومات",
    "fields": []
  },
  "office/insurance": {
    "name": "مكتب تأمينات",
    "fields": []
  },
  "office/guide": {
    "name": "مكتب الدليل السياحي",
    "fields": []
  },
  "office/government": {
    "name": "مكتب/دائرة حكومية",
    "fields": [
      {
        "key": "government",
        "label": "النوع",
        "type": "typeCombo"
      },
      {
        "key": "{office}",
        "label": null,
        "type": ""
      }
    ]
  },
  "office/foundation": {
    "name": "مكتب مؤسسة",
    "fields": []
  },
  "office/forestry": {
    "name": "مكتب إدارة الغابات",
    "fields": []
  },
  "office/financial_advisor": {
    "name": "المستشار المالي",
    "fields": []
  },
  "office/financial": {
    "name": "مكتب مالي",
    "fields": []
  },
  "office/estate_agent": {
    "name": "مكتب عقاري",
    "fields": []
  },
  "office/energy_supplier": {
    "name": "مكتب شركة مرافق الكهرباء",
    "fields": []
  },
  "office/employment_agency": {
    "name": "مكتب وكالة توظيف",
    "fields": []
  },
  "office/educational_institution": {
    "name": "مكتب مؤسسة تعليمية",
    "fields": []
  },
  "office/diplomatic": {
    "name": "مكتب دبلوماسي",
    "fields": [
      {
        "key": "diplomatic",
        "label": "النوع",
        "type": "combo"
      },
      {
        "key": "country",
        "label": "الدولة",
        "type": "combo"
      },
      {
        "key": "target",
        "label": "Target",
        "type": "combo"
      },
      {
        "key": "diplomatic/services",
        "label": "الخدمات",
        "type": "multiCombo"
      },
      {
        "key": "{office}",
        "label": null,
        "type": ""
      }
    ]
  },
  "office/consulting": {
    "name": "مكتب شركة استشارية",
    "fields": [
      {
        "key": "consulting",
        "label": "خبرات/استشارات",
        "type": "semiCombo"
      },
      {
        "key": "{office}",
        "label": null,
        "type": ""
      }
    ]
  },
  "office/charity": {
    "name": "مكتب منظمة خيرية",
    "fields": []
  },
  "office/bail_bond_agent-US-PH": {
    "name": "مكتب وكيل سند الكفالة",
    "fields": []
  },
  "office/association": {
    "name": "مكتب منظمة غير ربحية",
    "fields": []
  },
  "office/architect": {
    "name": "مكتب مهندس معماري",
    "fields": []
  },
  "office/advertising_agency": {
    "name": "وكالة إعلانية",
    "fields": []
  },
  "office/adoption_agency": {
    "name": "Adoption Agency",
    "fields": []
  },
  "office/accountant": {
    "name": "مكتب محاسب",
    "fields": []
  },
  "office/yes": {
    "name": "مكتب (نوع غير محدد)",
    "fields": [
      {
        "key": "office",
        "label": "النوع",
        "type": "typeCombo"
      },
      {
        "key": "{office}",
        "label": null,
        "type": ""
      }
    ]
  },
  "office/travel_agent": {
    "name": "وكالة السفر",
    "fields": []
  },
  "office/physician": {
    "name": "طبيب",
    "fields": []
  },
  "office/administrative": {
    "name": "مكتب إداري",
    "fields": []
  },
  "leisure/water_park": {
    "name": "ملاهي مائية",
    "fields": [
      {
        "key": "{tourism/theme_park}",
        "label": null,
        "type": ""
      },
      {
        "key": "sport",
        "label": "الرياضات",
        "type": "semiCombo"
      }
    ]
  },
  "leisure/trampoline_park": {
    "name": "منتزه النُطيطة (الترامبولين)",
    "fields": [
      {
        "key": "building_area_yes",
        "label": null,
        "type": "combo"
      }
    ]
  },
  "leisure/swimming_area": {
    "name": "منطقة سباحة طبيعية",
    "fields": [
      {
        "key": "access_simple",
        "label": "الوصول المسموح به",
        "type": "combo"
      },
      {
        "key": "supervised",
        "label": "يشرف عليها",
        "type": "check"
      },
      {
        "key": "fee",
        "label": "رسوم",
        "type": "check"
      },
      {
        "key": "payment_multi_fee",
        "label": null,
        "type": "multiCombo"
      },
      {
        "key": "charge_fee",
        "label": "مبلغ الرسوم",
        "type": "text"
      },
      {
        "key": "lit",
        "label": "مضاء",
        "type": "check"
      }
    ]
  },
  "leisure/stadium": {
    "name": "استاد رياضي",
    "fields": [
      {
        "key": "operator",
        "label": "المُشغل",
        "type": "text"
      },
      {
        "key": "sport",
        "label": "الرياضات",
        "type": "semiCombo"
      }
    ]
  },
  "leisure/sports_hall": {
    "name": "قاعة رياضية",
    "fields": [
      {
        "key": "operator",
        "label": "المُشغل",
        "type": "text"
      },
      {
        "key": "sport",
        "label": "الرياضات",
        "type": "semiCombo"
      },
      {
        "key": "building_area_yes",
        "label": null,
        "type": "combo"
      },
      {
        "key": "access_simple",
        "label": "الوصول المسموح به",
        "type": "combo"
      }
    ]
  },
  "leisure/sports_centre": {
    "name": "مركز/مجمع رياضي",
    "fields": [
      {
        "key": "operator",
        "label": "المُشغل",
        "type": "text"
      },
      {
        "key": "operator/type",
        "label": "التشغيل يتم عبر",
        "type": "combo"
      },
      {
        "key": "sport",
        "label": "الرياضات",
        "type": "semiCombo"
      },
      {
        "key": "fee",
        "label": "رسوم",
        "type": "check"
      },
      {
        "key": "payment_multi_fee",
        "label": null,
        "type": "multiCombo"
      },
      {
        "key": "charge_fee",
        "label": "مبلغ الرسوم",
        "type": "text"
      }
    ]
  },
  "leisure/slipway_drivable": {
    "name": "منزلق سفن وقوارب (قابل للقيادة)",
    "fields": [
      {
        "key": "{leisure/slipway}",
        "label": null,
        "type": ""
      },
      {
        "key": "lanes",
        "label": "المسارات المرورية",
        "type": "number"
      }
    ]
  },
  "leisure/sauna": {
    "name": "سونا",
    "fields": [
      {
        "key": "operator",
        "label": "المُشغل",
        "type": "text"
      },
      {
        "key": "access_simple",
        "label": "الوصول المسموح به",
        "type": "combo"
      },
      {
        "key": "fee",
        "label": "رسوم",
        "type": "check"
      },
      {
        "key": "payment_multi_fee",
        "label": null,
        "type": "multiCombo"
      },
      {
        "key": "charge_fee",
        "label": "مبلغ الرسوم",
        "type": "text"
      }
    ]
  },
  "leisure/resort": {
    "name": "منتجع",
    "fields": [
      {
        "key": "operator",
        "label": "المُشغل",
        "type": "text"
      },
      {
        "key": "resort",
        "label": "النوع",
        "type": "combo"
      }
    ]
  },
  "leisure/outdoor_seating": {
    "name": "منطقة جلوس خارجية",
    "fields": [
      {
        "key": "operator",
        "label": "المُشغل",
        "type": "text"
      },
      {
        "key": "capacity",
        "label": "السعة",
        "type": "number"
      },
      {
        "key": "lit",
        "label": "مضاء",
        "type": "check"
      },
      {
        "key": "seasonal",
        "label": "موسمي",
        "type": "check"
      },
      {
        "key": "heating",
        "label": "تدفئة",
        "type": "check"
      }
    ]
  },
  "leisure/miniature_golf": {
    "name": "ملعب الجولف المصغرة",
    "fields": [
      {
        "key": "operator",
        "label": "المُشغل",
        "type": "text"
      },
      {
        "key": "fee",
        "label": "رسوم",
        "type": "check"
      },
      {
        "key": "payment_multi_fee",
        "label": null,
        "type": "multiCombo"
      },
      {
        "key": "charge_fee",
        "label": "مبلغ الرسوم",
        "type": "text"
      }
    ]
  },
  "leisure/marina": {
    "name": "مرسى لليخوت والقوارب الصغيرة",
    "fields": [
      {
        "key": "operator",
        "label": "المُشغل",
        "type": "text"
      },
      {
        "key": "capacity",
        "label": "السعة",
        "type": "number"
      },
      {
        "key": "fee",
        "label": "رسوم",
        "type": "check"
      },
      {
        "key": "payment_multi_fee",
        "label": null,
        "type": "multiCombo"
      },
      {
        "key": "charge_fee",
        "label": "مبلغ الرسوم",
        "type": "text"
      },
      {
        "key": "sanitary_dump_station",
        "label": "محطة تصريف خزانات مراحيض السيارات",
        "type": "check"
      },
      {
        "key": "power_supply",
        "label": "مولد طاقة",
        "type": "check"
      }
    ]
  },
  "leisure/indoor_play": {
    "name": "Indoor Play Center",
    "fields": [
      {
        "key": "building_area_yes",
        "label": null,
        "type": "combo"
      }
    ]
  },
  "leisure/ice_rink": {
    "name": "حلبة تزلج",
    "fields": [
      {
        "key": "seasonal",
        "label": "موسمي",
        "type": "check"
      },
      {
        "key": "sport_ice",
        "label": "الرياضات",
        "type": "semiCombo"
      },
      {
        "key": "operator",
        "label": "المُشغل",
        "type": "text"
      },
      {
        "key": "building",
        "label": "المبنى",
        "type": "combo"
      }
    ]
  },
  "leisure/horse_riding": {
    "name": "مركز ركوب الخيل",
    "fields": [
      {
        "key": "access_simple",
        "label": "الوصول المسموح به",
        "type": "combo"
      },
      {
        "key": "operator",
        "label": "المُشغل",
        "type": "text"
      }
    ]
  },
  "leisure/hackerspace": {
    "name": "معمل هاكر",
    "fields": [
      {
        "key": "building_area_yes",
        "label": null,
        "type": "combo"
      },
      {
        "key": "fee",
        "label": "رسوم",
        "type": "check"
      },
      {
        "key": "payment_multi_fee",
        "label": null,
        "type": "multiCombo"
      },
      {
        "key": "charge_fee",
        "label": "مبلغ الرسوم",
        "type": "text"
      },
      {
        "key": "internet_access",
        "label": "اتصال انترنت",
        "type": "combo"
      },
      {
        "key": "internet_access/fee",
        "label": "الوصول للانترنت",
        "type": "combo"
      },
      {
        "key": "internet_access/ssid",
        "label": "اسم شبكة الواي فاي",
        "type": "text"
      }
    ]
  },
  "leisure/golf_course": {
    "name": "معلب جولف",
    "fields": [
      {
        "key": "operator",
        "label": "المُشغل",
        "type": "text"
      }
    ]
  },
  "leisure/fitness_centre": {
    "name": "مركز لياقة بدنية",
    "fields": [
      {
        "key": "sport",
        "label": "الرياضات",
        "type": "semiCombo"
      },
      {
        "key": "building_area_yes",
        "label": null,
        "type": "combo"
      }
    ]
  },
  "leisure/fishing": {
    "name": "منطقة صيد سمك",
    "fields": [
      {
        "key": "access_simple",
        "label": "الوصول المسموح به",
        "type": "combo"
      },
      {
        "key": "fishing",
        "label": "صيد الأسماك",
        "type": "combo"
      }
    ]
  },
  "leisure/escape_game": {
    "name": "غرفة الهروب",
    "fields": [
      {
        "key": "building_area_yes",
        "label": null,
        "type": "combo"
      },
      {
        "key": "fee",
        "label": "رسوم",
        "type": "check"
      },
      {
        "key": "payment_multi_fee",
        "label": null,
        "type": "multiCombo"
      },
      {
        "key": "charge_fee",
        "label": "مبلغ الرسوم",
        "type": "text"
      },
      {
        "key": "internet_access",
        "label": "اتصال انترنت",
        "type": "combo"
      },
      {
        "key": "internet_access/fee",
        "label": "الوصول للانترنت",
        "type": "combo"
      },
      {
        "key": "internet_access/ssid",
        "label": "اسم شبكة الواي فاي",
        "type": "text"
      }
    ]
  },
  "leisure/disc_golf_course": {
    "name": "مكان للعب قرص الجولف",
    "fields": [
      {
        "key": "operator",
        "label": "المُشغل",
        "type": "text"
      },
      {
        "key": "access_simple",
        "label": "الوصول المسموح به",
        "type": "combo"
      },
      {
        "key": "fee",
        "label": "رسوم",
        "type": "check"
      },
      {
        "key": "payment_multi_fee",
        "label": null,
        "type": "multiCombo"
      },
      {
        "key": "charge_fee",
        "label": "مبلغ الرسوم",
        "type": "text"
      }
    ]
  },
  "leisure/dancing_school": {
    "name": "مدرسة رقص",
    "fields": [
      {
        "key": "operator",
        "label": "المُشغل",
        "type": "text"
      },
      {
        "key": "building_area_yes",
        "label": null,
        "type": "combo"
      },
      {
        "key": "dance/style",
        "label": "أساليب الرقص",
        "type": "semiCombo"
      }
    ]
  },
  "leisure/dance": {
    "name": "قاعة الرقص",
    "fields": [
      {
        "key": "operator",
        "label": "المُشغل",
        "type": "text"
      },
      {
        "key": "building_area_yes",
        "label": null,
        "type": "combo"
      },
      {
        "key": "dance/style",
        "label": "أساليب الرقص",
        "type": "semiCombo"
      },
      {
        "key": "dance/teaching",
        "label": null,
        "type": "check"
      }
    ]
  },
  "leisure/bowling_alley": {
    "name": "بولينغ",
    "fields": [
      {
        "key": "operator",
        "label": "المُشغل",
        "type": "text"
      },
      {
        "key": "building_area_yes",
        "label": null,
        "type": "combo"
      }
    ]
  },
  "leisure/bleachers": {
    "name": "Bleachers",
    "fields": []
  },
  "leisure/beach_resort": {
    "name": "منتجع الشاطئ",
    "fields": [
      {
        "key": "fee",
        "label": "رسوم",
        "type": "check"
      },
      {
        "key": "payment_multi_fee",
        "label": null,
        "type": "multiCombo"
      },
      {
        "key": "charge_fee",
        "label": "مبلغ الرسوم",
        "type": "text"
      }
    ]
  },
  "leisure/bandstand": {
    "name": "Bandstand",
    "fields": [
      {
        "key": "building_area_yes",
        "label": null,
        "type": "combo"
      },
      {
        "key": "operator",
        "label": "المُشغل",
        "type": "text"
      }
    ]
  },
  "leisure/amusement_arcade": {
    "name": "Amusement Arcade",
    "fields": [
      {
        "key": "operator",
        "label": "المُشغل",
        "type": "text"
      },
      {
        "key": "building_area_yes",
        "label": null,
        "type": "combo"
      }
    ]
  },
  "leisure/adult_gaming_centre": {
    "name": "Adult Gaming Center",
    "fields": [
      {
        "key": "{amenity/casino}",
        "label": null,
        "type": ""
      }
    ]
  },
  "amenity/weighbridge": {
    "name": "ميزان شاحانات",
    "fields": [
      {
        "key": "ref",
        "label": "الرمز المرجعي",
        "type": "text"
      },
      {
        "key": "operator",
        "label": "المُشغل",
        "type": "text"
      },
      {
        "key": "access_simple",
        "label": "الوصول المسموح به",
        "type": "combo"
      },
      {
        "key": "maxweight",
        "label": "أقصى وزن",
        "type": "combo"
      }
    ]
  },
  "amenity/veterinary": {
    "name": "عيادة بيطرية",
    "fields": [
      {
        "key": "operator",
        "label": "المُشغل",
        "type": "text"
      },
      {
        "key": "building_area_yes",
        "label": null,
        "type": "combo"
      }
    ]
  },
  "amenity/vehicle_inspection": {
    "name": "الفحص الدوري",
    "fields": [
      {
        "key": "operator",
        "label": "المُشغل",
        "type": "text"
      },
      {
        "key": "building_area_yes",
        "label": null,
        "type": "combo"
      }
    ]
  },
  "amenity/vacuum_cleaner": {
    "name": "محطة مكنسة سيارات",
    "fields": [
      {
        "key": "operator",
        "label": "المُشغل",
        "type": "text"
      },
      {
        "key": "access_simple",
        "label": "الوصول المسموح به",
        "type": "combo"
      },
      {
        "key": "fee",
        "label": "رسوم",
        "type": "check"
      },
      {
        "key": "payment_multi_fee",
        "label": null,
        "type": "multiCombo"
      },
      {
        "key": "charge_fee",
        "label": "مبلغ الرسوم",
        "type": "text"
      },
      {
        "key": "covered",
        "label": "مغطى",
        "type": "check"
      },
      {
        "key": "lit",
        "label": "مضاء",
        "type": "check"
      }
    ]
  },
  "amenity/university": {
    "name": "أرض الجامعة",
    "fields": [
      {
        "key": "{amenity/college}",
        "label": null,
        "type": ""
      }
    ]
  },
  "amenity/trolley_bay": {
    "name": "عربة كورال",
    "fields": [
      {
        "key": "capacity",
        "label": "السعة",
        "type": "number"
      },
      {
        "key": "deposit/trolley",
        "label": "إيداع",
        "type": "check"
      },
      {
        "key": "payment_multi_fee",
        "label": null,
        "type": "multiCombo"
      }
    ]
  },
  "amenity/toy_library": {
    "name": "Toy Library",
    "fields": [
      {
        "key": "operator",
        "label": "المُشغل",
        "type": "text"
      },
      {
        "key": "building_area_yes",
        "label": null,
        "type": "combo"
      }
    ]
  },
  "amenity/townhall": {
    "name": "مبنى البلدية/المركز الإداري",
    "fields": [
      {
        "key": "operator",
        "label": "المُشغل",
        "type": "text"
      },
      {
        "key": "townhall/type",
        "label": "النوع",
        "type": "combo"
      },
      {
        "key": "building_area_yes",
        "label": null,
        "type": "combo"
      }
    ]
  },
  "amenity/ticket_validator": {
    "name": "مدقق التذاكر",
    "fields": [
      {
        "key": "ref",
        "label": "الرمز المرجعي",
        "type": "text"
      },
      {
        "key": "operator",
        "label": "المُشغل",
        "type": "text"
      }
    ]
  },
  "amenity/theatre": {
    "name": "مسرح",
    "fields": [
      {
        "key": "operator",
        "label": "المُشغل",
        "type": "text"
      },
      {
        "key": "building_area_yes",
        "label": null,
        "type": "combo"
      }
    ]
  },
  "amenity/taxi": {
    "name": "موقف تاكسي",
    "fields": [
      {
        "key": "operator",
        "label": "المُشغل",
        "type": "text"
      },
      {
        "key": "capacity",
        "label": "السعة",
        "type": "number"
      }
    ]
  },
  "amenity/studio": {
    "name": "أستوديو",
    "fields": [
      {
        "key": "studio",
        "label": "النوع",
        "type": "combo"
      },
      {
        "key": "building_area_yes",
        "label": null,
        "type": "combo"
      }
    ]
  },
  "amenity/social_centre": {
    "name": "مركز اجتماعي",
    "fields": [
      {
        "key": "brand",
        "label": "العلامة التجارية",
        "type": "text"
      },
      {
        "key": "operator",
        "label": "المُشغل",
        "type": "text"
      },
      {
        "key": "operator/type",
        "label": "التشغيل يتم عبر",
        "type": "combo"
      },
      {
        "key": "building_area_yes",
        "label": null,
        "type": "combo"
      }
    ]
  },
  "amenity/smoking_area": {
    "name": "منطقة مخصصة للتدخين",
    "fields": [
      {
        "key": "shelter",
        "label": "مرأب",
        "type": "check"
      },
      {
        "key": "bin",
        "label": "سلة النفايات",
        "type": "check"
      },
      {
        "key": "bench",
        "label": "مقعد",
        "type": "check"
      }
    ]
  },
  "amenity/school": {
    "name": "أرض مدرسة",
    "fields": [
      {
        "key": "operator",
        "label": "المُشغل",
        "type": "text"
      },
      {
        "key": "operator/type",
        "label": "التشغيل يتم عبر",
        "type": "combo"
      },
      {
        "key": "grades",
        "label": "مستوى المراحل التعليمية",
        "type": "combo"
      },
      {
        "key": "religion",
        "label": "الديانة",
        "type": "combo"
      },
      {
        "key": "denomination",
        "label": "المذهب/الطائفة",
        "type": "combo"
      }
    ]
  },
  "amenity/restaurant": {
    "name": "مطعم",
    "fields": [
      {
        "key": "cuisine",
        "label": "المأكولات",
        "type": "semiCombo"
      },
      {
        "key": "diet_multi",
        "label": "النمط الغذائي",
        "type": "multiCombo"
      },
      {
        "key": "building_area_yes",
        "label": null,
        "type": "combo"
      }
    ]
  },
  "amenity/research_institute": {
    "name": "أراضي معهد بحوث",
    "fields": [
      {
        "key": "operator",
        "label": "المُشغل",
        "type": "text"
      },
      {
        "key": "operator/type",
        "label": "التشغيل يتم عبر",
        "type": "combo"
      },
      {
        "key": "internet_access",
        "label": "اتصال انترنت",
        "type": "combo"
      },
      {
        "key": "internet_access/fee",
        "label": "الوصول للانترنت",
        "type": "combo"
      }
    ]
  },
  "amenity/refugee_site": {
    "name": "مخيم لاجئين",
    "fields": [
      {
        "key": "operator",
        "label": "المُشغل",
        "type": "text"
      },
      {
        "key": "operator/type",
        "label": "التشغيل يتم عبر",
        "type": "combo"
      },
      {
        "key": "informal",
        "label": "غير رسمي",
        "type": "check"
      },
      {
        "key": "start_date",
        "label": "تاريخ البدء",
        "type": "date"
      },
      {
        "key": "capacity",
        "label": "السعة",
        "type": "number"
      },
      {
        "key": "population",
        "label": "عدد السكان",
        "type": "number"
      },
      {
        "key": "population/date",
        "label": null,
        "type": "text"
      },
      {
        "key": "source/population",
        "label": null,
        "type": "combo"
      }
    ]
  },
  "amenity/recycling_container": {
    "name": "حاوية إعادة التدوير",
    "fields": [
      {
        "key": "operator",
        "label": "المُشغل",
        "type": "text"
      },
      {
        "key": "recycling_accepts",
        "label": "المواد التي تقبلها المنشأة",
        "type": "multiCombo"
      },
      {
        "key": "collection_times",
        "label": "وقت الاستلام",
        "type": "text"
      }
    ]
  },
  "amenity/recycling_centre": {
    "name": "مركز إعادة تدوير",
    "fields": [
      {
        "key": "operator",
        "label": "المُشغل",
        "type": "text"
      },
      {
        "key": "operator/type",
        "label": "التشغيل يتم عبر",
        "type": "combo"
      },
      {
        "key": "building",
        "label": "المبنى",
        "type": "combo"
      },
      {
        "key": "recycling_accepts",
        "label": "المواد التي تقبلها المنشأة",
        "type": "multiCombo"
      }
    ]
  },
  "amenity/ranger_station": {
    "name": "محطة الحراسة",
    "fields": [
      {
        "key": "operator",
        "label": "المُشغل",
        "type": "text"
      },
      {
        "key": "building_area_yes",
        "label": null,
        "type": "combo"
      }
    ]
  },
  "amenity/pub": {
    "name": "حانة",
    "fields": [
      {
        "key": "building_area_yes",
        "label": null,
        "type": "combo"
      },
      {
        "key": "smoking",
        "label": "التدخين",
        "type": "combo"
      },
      {
        "key": "brewery",
        "label": "بيرة برميل",
        "type": "semiCombo"
      }
    ]
  },
  "amenity/prison": {
    "name": "مرافق/أراضي سجن",
    "fields": [
      {
        "key": "operator",
        "label": "المُشغل",
        "type": "text"
      },
      {
        "key": "operator/type",
        "label": "التشغيل يتم عبر",
        "type": "combo"
      }
    ]
  },
  "amenity/prep_school": {
    "name": "مدرسة إعداد للاختبارات/دروس خصوصية",
    "fields": [
      {
        "key": "operator",
        "label": "المُشغل",
        "type": "text"
      },
      {
        "key": "building_area_yes",
        "label": null,
        "type": "combo"
      }
    ]
  },
  "amenity/post_office": {
    "name": "مكتب البريد",
    "fields": [
      {
        "key": "operator",
        "label": "المُشغل",
        "type": "text"
      },
      {
        "key": "building_area_yes",
        "label": null,
        "type": "combo"
      }
    ]
  },
  "amenity/post_depot": {
    "name": "مكتب الفرز البريدي",
    "fields": [
      {
        "key": "operator",
        "label": "المُشغل",
        "type": "text"
      }
    ]
  },
  "amenity/polling_station": {
    "name": "Permanent Polling Place",
    "fields": [
      {
        "key": "ref",
        "label": "الرمز المرجعي",
        "type": "text"
      },
      {
        "key": "operator",
        "label": "المُشغل",
        "type": "text"
      },
      {
        "key": "building_area_yes",
        "label": null,
        "type": "combo"
      }
    ]
  },
  "amenity/police": {
    "name": "شرطة",
    "fields": [
      {
        "key": "operator",
        "label": "المُشغل",
        "type": "text"
      },
      {
        "key": "building_area_yes",
        "label": null,
        "type": "combo"
      }
    ]
  },
  "amenity/planetarium": {
    "name": "قبة فلكية",
    "fields": [
      {
        "key": "operator",
        "label": "المُشغل",
        "type": "text"
      },
      {
        "key": "building_area_yes",
        "label": null,
        "type": "combo"
      }
    ]
  },
  "amenity/photo_booth": {
    "name": "Photo Booth",
    "fields": [
      {
        "key": "operator",
        "label": "المُشغل",
        "type": "text"
      },
      {
        "key": "payment_multi",
        "label": "طرق الدفع",
        "type": "multiCombo"
      }
    ]
  },
  "amenity/pharmacy": {
    "name": "صيدلية",
    "fields": [
      {
        "key": "operator",
        "label": "المُشغل",
        "type": "text"
      },
      {
        "key": "building_area_yes",
        "label": null,
        "type": "combo"
      },
      {
        "key": "dispensing",
        "label": "يصرف أدوية بوصفة طبية",
        "type": "check"
      },
      {
        "key": "drive_through",
        "label": "ممر الطلب بالسيارة",
        "type": "check"
      }
    ]
  },
  "amenity/payment_terminal": {
    "name": "محطة دفع نقود",
    "fields": [
      {
        "key": "brand",
        "label": "العلامة التجارية",
        "type": "text"
      },
      {
        "key": "payment_multi",
        "label": "طرق الدفع",
        "type": "multiCombo"
      }
    ]
  },
  "amenity/payment_centre": {
    "name": "مركز دفع نقود",
    "fields": [
      {
        "key": "brand",
        "label": "العلامة التجارية",
        "type": "text"
      },
      {
        "key": "building_area_yes",
        "label": null,
        "type": "combo"
      },
      {
        "key": "payment_multi",
        "label": "طرق الدفع",
        "type": "multiCombo"
      }
    ]
  },
  "amenity/parcel_locker": {
    "name": "صناديق استلام الشحنات البريدية",
    "fields": [
      {
        "key": "operator",
        "label": "المُشغل",
        "type": "text"
      },
      {
        "key": "parcel_pickup",
        "label": "استلام الطرود",
        "type": "check"
      },
      {
        "key": "parcel_dropoff",
        "label": "تسليم الطرود",
        "type": "check"
      },
      {
        "key": "payment_multi",
        "label": "طرق الدفع",
        "type": "multiCombo"
      },
      {
        "key": "ref",
        "label": "الرمز المرجعي",
        "type": "text"
      }
    ]
  },
  "amenity/nightclub": {
    "name": "ملهى ليلي",
    "fields": [
      {
        "key": "operator",
        "label": "المُشغل",
        "type": "text"
      },
      {
        "key": "building_area_yes",
        "label": null,
        "type": "combo"
      },
      {
        "key": "min_age",
        "label": "الحد الأدنى للعمر",
        "type": "number"
      },
      {
        "key": "smoking",
        "label": "التدخين",
        "type": "combo"
      }
    ]
  },
  "amenity/music_school": {
    "name": "مدرسة موسيقى",
    "fields": [
      {
        "key": "operator",
        "label": "المُشغل",
        "type": "text"
      },
      {
        "key": "building_area_yes",
        "label": null,
        "type": "combo"
      }
    ]
  },
  "amenity/motorcycle_rental": {
    "name": "إيجار دراجات نارية",
    "fields": [
      {
        "key": "operator",
        "label": "المُشغل",
        "type": "text"
      },
      {
        "key": "payment_multi",
        "label": "طرق الدفع",
        "type": "multiCombo"
      }
    ]
  },
  "amenity/mortuary": {
    "name": "المشرحة",
    "fields": [
      {
        "key": "operator",
        "label": "المُشغل",
        "type": "text"
      }
    ]
  },
  "amenity/money_transfer": {
    "name": "محل لتحويل الأموال",
    "fields": [
      {
        "key": "brand",
        "label": "العلامة التجارية",
        "type": "text"
      },
      {
        "key": "building_area_yes",
        "label": null,
        "type": "combo"
      },
      {
        "key": "payment_multi",
        "label": "طرق الدفع",
        "type": "multiCombo"
      },
      {
        "key": "currency_multi",
        "label": "أنواع العملات",
        "type": "multiCombo"
      }
    ]
  },
  "amenity/monastery": {
    "name": "Monastery Grounds",
    "fields": [
      {
        "key": "religion",
        "label": "الديانة",
        "type": "combo"
      },
      {
        "key": "denomination",
        "label": "المذهب/الطائفة",
        "type": "combo"
      }
    ]
  },
  "amenity/marketplace": {
    "name": "محل تسوق",
    "fields": [
      {
        "key": "operator",
        "label": "المُشغل",
        "type": "text"
      },
      {
        "key": "building",
        "label": "المبنى",
        "type": "combo"
      }
    ]
  },
  "amenity/love_hotel": {
    "name": "Love Hotel",
    "fields": [
      {
        "key": "operator",
        "label": "المُشغل",
        "type": "text"
      },
      {
        "key": "building_area_yes",
        "label": null,
        "type": "combo"
      },
      {
        "key": "rooms",
        "label": "الغرف",
        "type": "number"
      },
      {
        "key": "internet_access",
        "label": "اتصال انترنت",
        "type": "combo"
      },
      {
        "key": "internet_access/fee",
        "label": "الوصول للانترنت",
        "type": "combo"
      },
      {
        "key": "internet_access/ssid",
        "label": "اسم شبكة الواي فاي",
        "type": "text"
      }
    ]
  },
  "amenity/lounger": {
    "name": "Lounger",
    "fields": [
      {
        "key": "material",
        "label": "المادة",
        "type": "combo"
      },
      {
        "key": "colour",
        "label": "اللون",
        "type": "colour"
      },
      {
        "key": "access_simple",
        "label": "الوصول المسموح به",
        "type": "combo"
      },
      {
        "key": "lit",
        "label": "مضاء",
        "type": "check"
      }
    ]
  },
  "amenity/loading_dock": {
    "name": "رصيف التحميل",
    "fields": [
      {
        "key": "ref",
        "label": "الرمز المرجعي",
        "type": "text"
      },
      {
        "key": "operator",
        "label": "المُشغل",
        "type": "text"
      },
      {
        "key": "access_simple",
        "label": "الوصول المسموح به",
        "type": "combo"
      },
      {
        "key": "door",
        "label": "باب",
        "type": "combo"
      },
      {
        "key": "width",
        "label": "العرض (بالمتر)",
        "type": "number"
      },
      {
        "key": "height",
        "label": "الارتفاع (بالأمتار)",
        "type": "number"
      }
    ]
  },
  "amenity/library": {
    "name": "مكتبة عامة",
    "fields": [
      {
        "key": "operator",
        "label": "المُشغل",
        "type": "text"
      },
      {
        "key": "operator/type",
        "label": "التشغيل يتم عبر",
        "type": "combo"
      },
      {
        "key": "building_area_yes",
        "label": null,
        "type": "combo"
      },
      {
        "key": "ref/isil",
        "label": "رمز ISIL",
        "type": "text"
      },
      {
        "key": "internet_access",
        "label": "اتصال انترنت",
        "type": "combo"
      },
      {
        "key": "internet_access/fee",
        "label": "الوصول للانترنت",
        "type": "combo"
      },
      {
        "key": "internet_access/ssid",
        "label": "اسم شبكة الواي فاي",
        "type": "text"
      }
    ]
  },
  "amenity/letter_box": {
    "name": "صندوق البريد",
    "fields": [
      {
        "key": "post",
        "label": "عنوان التوصيل/الاستلام",
        "type": "address"
      },
      {
        "key": "access_simple",
        "label": "الوصول المسموح به",
        "type": "combo"
      },
      {
        "key": "height",
        "label": "الارتفاع (بالأمتار)",
        "type": "number"
      }
    ]
  },
  "amenity/lavoir": {
    "name": "مكان غسيل الملابس يدوياً",
    "fields": [
      {
        "key": "operator",
        "label": "المُشغل",
        "type": "text"
      },
      {
        "key": "operator/type",
        "label": "التشغيل يتم عبر",
        "type": "combo"
      },
      {
        "key": "access_simple",
        "label": "الوصول المسموح به",
        "type": "combo"
      }
    ]
  },
  "amenity/language_school": {
    "name": "مدرسة لغات",
    "fields": [
      {
        "key": "operator",
        "label": "المُشغل",
        "type": "text"
      },
      {
        "key": "operator/type",
        "label": "التشغيل يتم عبر",
        "type": "combo"
      },
      {
        "key": "building_area_yes",
        "label": null,
        "type": "combo"
      },
      {
        "key": "language_multi",
        "label": "اللغات",
        "type": "multiCombo"
      }
    ]
  },
  "amenity/kneipp_water_cure": {
    "name": "بركة علاج القدم بالماء",
    "fields": [
      {
        "key": "kneipp_water_cure_multi",
        "label": "نوع الحوض",
        "type": "multiCombo"
      },
      {
        "key": "fee",
        "label": "رسوم",
        "type": "check"
      }
    ]
  },
  "amenity/kindergarten": {
    "name": "أرض حضانة / روض",
    "fields": [
      {
        "key": "operator",
        "label": "المُشغل",
        "type": "text"
      },
      {
        "key": "operator/type",
        "label": "التشغيل يتم عبر",
        "type": "combo"
      },
      {
        "key": "preschool",
        "label": "حضانة",
        "type": "check"
      }
    ]
  },
  "amenity/karaoke_box": {
    "name": "Karaoke Box",
    "fields": [
      {
        "key": "operator",
        "label": "المُشغل",
        "type": "text"
      },
      {
        "key": "building_area_yes",
        "label": null,
        "type": "combo"
      }
    ]
  },
  "amenity/internet_cafe": {
    "name": "مقهى إنترنت",
    "fields": [
      {
        "key": "operator",
        "label": "المُشغل",
        "type": "text"
      },
      {
        "key": "operator/type",
        "label": "التشغيل يتم عبر",
        "type": "combo"
      },
      {
        "key": "building_area_yes",
        "label": null,
        "type": "combo"
      },
      {
        "key": "internet_access",
        "label": "اتصال انترنت",
        "type": "combo"
      },
      {
        "key": "internet_access/fee",
        "label": "الوصول للانترنت",
        "type": "combo"
      },
      {
        "key": "internet_access/ssid",
        "label": "اسم شبكة الواي فاي",
        "type": "text"
      }
    ]
  },
  "amenity/ice_cream": {
    "name": "محل بيع المثلجات",
    "fields": [
      {
        "key": "building_area_yes",
        "label": null,
        "type": "combo"
      },
      {
        "key": "outdoor_seating",
        "label": "مقاعد في الهواء الطلق",
        "type": "check"
      }
    ]
  },
  "amenity/hospital": {
    "name": "أرض مستشفى",
    "fields": [
      {
        "key": "operator",
        "label": "المُشغل",
        "type": "text"
      },
      {
        "key": "operator/type",
        "label": "التشغيل يتم عبر",
        "type": "combo"
      },
      {
        "key": "healthcare/speciality",
        "label": "التخصصات",
        "type": "semiCombo"
      },
      {
        "key": "emergency",
        "label": "طوارئ",
        "type": "check"
      }
    ]
  },
  "amenity/give_box": {
    "name": "صندوق مشاركة الأشياء المجانية",
    "fields": [
      {
        "key": "operator",
        "label": "المُشغل",
        "type": "text"
      },
      {
        "key": "access_simple",
        "label": "الوصول المسموح به",
        "type": "combo"
      }
    ]
  },
  "amenity/gambling": {
    "name": "Gambling Hall",
    "fields": [
      {
        "key": "{amenity/casino}",
        "label": null,
        "type": ""
      }
    ]
  },
  "amenity/fuel": {
    "name": "محطة وقود",
    "fields": [
      {
        "key": "brand",
        "label": "العلامة التجارية",
        "type": "text"
      },
      {
        "key": "operator",
        "label": "المُشغل",
        "type": "text"
      },
      {
        "key": "fuel/fuel_multi",
        "label": "أنواع الوقود",
        "type": "multiCombo"
      },
      {
        "key": "fuel/fuel_multi-RU",
        "label": null,
        "type": "multiCombo"
      },
      {
        "key": "self_service",
        "label": "خدمة ذاتية",
        "type": "check"
      }
    ]
  },
  "amenity/food_court": {
    "name": "قاعة طعام",
    "fields": [
      {
        "key": "operator",
        "label": "المُشغل",
        "type": "text"
      },
      {
        "key": "building_area_yes",
        "label": null,
        "type": "combo"
      },
      {
        "key": "internet_access",
        "label": "اتصال انترنت",
        "type": "combo"
      },
      {
        "key": "internet_access/fee",
        "label": "الوصول للانترنت",
        "type": "combo"
      },
      {
        "key": "internet_access/ssid",
        "label": "اسم شبكة الواي فاي",
        "type": "text"
      }
    ]
  },
  "amenity/fire_station": {
    "name": "محطة إطفاء حريق",
    "fields": [
      {
        "key": "operator",
        "label": "المُشغل",
        "type": "text"
      }
    ]
  },
  "amenity/fast_food": {
    "name": "وجبات سريعة",
    "fields": [
      {
        "key": "cuisine",
        "label": "المأكولات",
        "type": "semiCombo"
      },
      {
        "key": "diet_multi",
        "label": "النمط الغذائي",
        "type": "multiCombo"
      },
      {
        "key": "operator",
        "label": "المُشغل",
        "type": "text"
      },
      {
        "key": "building_area_yes",
        "label": null,
        "type": "combo"
      },
      {
        "key": "drive_through",
        "label": "ممر الطلب بالسيارة",
        "type": "check"
      }
    ]
  },
  "amenity/exhibition_centre": {
    "name": "Exposition Center",
    "fields": [
      {
        "key": "operator",
        "label": "المُشغل",
        "type": "text"
      },
      {
        "key": "operator/type",
        "label": "التشغيل يتم عبر",
        "type": "combo"
      },
      {
        "key": "building_area_yes",
        "label": null,
        "type": "combo"
      },
      {
        "key": "internet_access",
        "label": "اتصال انترنت",
        "type": "combo"
      },
      {
        "key": "internet_access/fee",
        "label": "الوصول للانترنت",
        "type": "combo"
      },
      {
        "key": "internet_access/ssid",
        "label": "اسم شبكة الواي فاي",
        "type": "text"
      }
    ]
  },
  "amenity/events_venue": {
    "name": "صالة مناسبات / قصر أفراح",
    "fields": [
      {
        "key": "operator",
        "label": "المُشغل",
        "type": "text"
      },
      {
        "key": "building_area_yes",
        "label": null,
        "type": "combo"
      },
      {
        "key": "internet_access",
        "label": "اتصال انترنت",
        "type": "combo"
      },
      {
        "key": "internet_access/fee",
        "label": "الوصول للانترنت",
        "type": "combo"
      },
      {
        "key": "internet_access/ssid",
        "label": "اسم شبكة الواي فاي",
        "type": "text"
      }
    ]
  },
  "amenity/driving_school": {
    "name": "مدرسة تعليم القيادة",
    "fields": [
      {
        "key": "operator",
        "label": "المُشغل",
        "type": "text"
      },
      {
        "key": "operator/type",
        "label": "التشغيل يتم عبر",
        "type": "combo"
      }
    ]
  },
  "amenity/driver_training": {
    "name": "أراضي تعليم السيلقة",
    "fields": [
      {
        "key": "operator",
        "label": "المُشغل",
        "type": "text"
      },
      {
        "key": "operator/type",
        "label": "التشغيل يتم عبر",
        "type": "combo"
      }
    ]
  },
  "amenity/dressing_room": {
    "name": "غرفة التبديل",
    "fields": [
      {
        "key": "operator",
        "label": "المُشغل",
        "type": "text"
      },
      {
        "key": "access_simple",
        "label": "الوصول المسموح به",
        "type": "combo"
      },
      {
        "key": "gender",
        "label": "نوع الجنس",
        "type": "radio"
      }
    ]
  },
  "amenity/dojo": {
    "name": "دوجو /  أكاديمية الفنون القتالية",
    "fields": [
      {
        "key": "sport",
        "label": "الرياضات",
        "type": "semiCombo"
      },
      {
        "key": "building_area_yes",
        "label": null,
        "type": "combo"
      }
    ]
  },
  "amenity/doctors": {
    "name": "طبيب",
    "fields": [
      {
        "key": "operator",
        "label": "المُشغل",
        "type": "text"
      },
      {
        "key": "healthcare/speciality",
        "label": "التخصصات",
        "type": "semiCombo"
      },
      {
        "key": "building_area_yes",
        "label": null,
        "type": "combo"
      }
    ]
  },
  "amenity/dive_centre": {
    "name": "مركز للغوص",
    "fields": [
      {
        "key": "operator",
        "label": "المُشغل",
        "type": "text"
      },
      {
        "key": "building_area_yes",
        "label": null,
        "type": "combo"
      },
      {
        "key": "scuba_diving",
        "label": "الخدمات",
        "type": "multiCombo"
      }
    ]
  },
  "amenity/dentist": {
    "name": "طبيب أسنان",
    "fields": [
      {
        "key": "operator",
        "label": "المُشغل",
        "type": "text"
      },
      {
        "key": "healthcare/speciality",
        "label": "التخصصات",
        "type": "semiCombo"
      },
      {
        "key": "building_area_yes",
        "label": null,
        "type": "combo"
      }
    ]
  },
  "amenity/crematorium": {
    "name": "محرقة موتى",
    "fields": []
  },
  "amenity/courthouse": {
    "name": "محكمة",
    "fields": [
      {
        "key": "operator",
        "label": "المُشغل",
        "type": "text"
      },
      {
        "key": "building_area_yes",
        "label": null,
        "type": "combo"
      }
    ]
  },
  "amenity/conference_centre": {
    "name": "مركز مؤتمرات",
    "fields": [
      {
        "key": "operator",
        "label": "المُشغل",
        "type": "text"
      },
      {
        "key": "operator/type",
        "label": "التشغيل يتم عبر",
        "type": "combo"
      },
      {
        "key": "building_area_yes",
        "label": null,
        "type": "combo"
      },
      {
        "key": "internet_access",
        "label": "اتصال انترنت",
        "type": "combo"
      },
      {
        "key": "internet_access/fee",
        "label": "الوصول للانترنت",
        "type": "combo"
      },
      {
        "key": "internet_access/ssid",
        "label": "اسم شبكة الواي فاي",
        "type": "text"
      }
    ]
  },
  "amenity/community_centre": {
    "name": "مركز اجتماعي",
    "fields": [
      {
        "key": "operator",
        "label": "المُشغل",
        "type": "text"
      },
      {
        "key": "operator/type",
        "label": "التشغيل يتم عبر",
        "type": "combo"
      },
      {
        "key": "building_area_yes",
        "label": null,
        "type": "combo"
      }
    ]
  },
  "amenity/college": {
    "name": "أرض كلية",
    "fields": [
      {
        "key": "operator",
        "label": "المُشغل",
        "type": "text"
      },
      {
        "key": "operator/type",
        "label": "التشغيل يتم عبر",
        "type": "combo"
      },
      {
        "key": "internet_access",
        "label": "اتصال انترنت",
        "type": "combo"
      },
      {
        "key": "internet_access/fee",
        "label": "الوصول للانترنت",
        "type": "combo"
      },
      {
        "key": "internet_access/ssid",
        "label": "اسم شبكة الواي فاي",
        "type": "text"
      }
    ]
  },
  "amenity/clinic": {
    "name": "عيادة",
    "fields": [
      {
        "key": "operator",
        "label": "المُشغل",
        "type": "text"
      },
      {
        "key": "operator/type",
        "label": "التشغيل يتم عبر",
        "type": "combo"
      },
      {
        "key": "healthcare/speciality",
        "label": "التخصصات",
        "type": "semiCombo"
      },
      {
        "key": "building_area_yes",
        "label": null,
        "type": "combo"
      }
    ]
  },
  "amenity/cinema": {
    "name": "سينما",
    "fields": [
      {
        "key": "screen",
        "label": "الشاشات",
        "type": "number"
      },
      {
        "key": "building_area_yes",
        "label": null,
        "type": "combo"
      },
      {
        "key": "payment_multi",
        "label": "طرق الدفع",
        "type": "multiCombo"
      }
    ]
  },
  "amenity/childcare": {
    "name": "رعاية الأطفال",
    "fields": [
      {
        "key": "operator",
        "label": "المُشغل",
        "type": "text"
      },
      {
        "key": "operator/type",
        "label": "التشغيل يتم عبر",
        "type": "combo"
      },
      {
        "key": "building_area_yes",
        "label": null,
        "type": "combo"
      }
    ]
  },
  "amenity/casino": {
    "name": "كازينو",
    "fields": [
      {
        "key": "operator",
        "label": "المُشغل",
        "type": "text"
      },
      {
        "key": "building_area_yes",
        "label": null,
        "type": "combo"
      },
      {
        "key": "gambling",
        "label": "ألعاب",
        "type": "semiCombo"
      },
      {
        "key": "smoking",
        "label": "التدخين",
        "type": "combo"
      }
    ]
  },
  "amenity/car_wash": {
    "name": "غسيل سيارات",
    "fields": [
      {
        "key": "operator",
        "label": "المُشغل",
        "type": "text"
      },
      {
        "key": "building_area_yes",
        "label": null,
        "type": "combo"
      },
      {
        "key": "payment_multi",
        "label": "طرق الدفع",
        "type": "multiCombo"
      },
      {
        "key": "self_service",
        "label": "خدمة ذاتية",
        "type": "check"
      },
      {
        "key": "automated",
        "label": "آلي",
        "type": "check"
      }
    ]
  },
  "amenity/car_sharing": {
    "name": "محطة مشاركة السيارات",
    "fields": [
      {
        "key": "operator",
        "label": "المُشغل",
        "type": "text"
      },
      {
        "key": "operator/type",
        "label": "التشغيل يتم عبر",
        "type": "combo"
      },
      {
        "key": "capacity",
        "label": "السعة",
        "type": "number"
      },
      {
        "key": "payment_multi",
        "label": "طرق الدفع",
        "type": "multiCombo"
      },
      {
        "key": "supervised",
        "label": "يشرف عليها",
        "type": "check"
      }
    ]
  },
  "amenity/car_rental": {
    "name": "محل إيجار سيارات",
    "fields": [
      {
        "key": "operator",
        "label": "المُشغل",
        "type": "text"
      },
      {
        "key": "payment_multi",
        "label": "طرق الدفع",
        "type": "multiCombo"
      }
    ]
  },
  "amenity/car_pooling": {
    "name": "محطة تجميع السيارات",
    "fields": [
      {
        "key": "operator",
        "label": "المُشغل",
        "type": "text"
      },
      {
        "key": "operator/type",
        "label": "التشغيل يتم عبر",
        "type": "combo"
      },
      {
        "key": "capacity",
        "label": "السعة",
        "type": "number"
      },
      {
        "key": "lit",
        "label": "مضاء",
        "type": "check"
      }
    ]
  },
  "amenity/cafe": {
    "name": "مقهى",
    "fields": [
      {
        "key": "cuisine",
        "label": "المأكولات",
        "type": "semiCombo"
      },
      {
        "key": "building_area_yes",
        "label": null,
        "type": "combo"
      },
      {
        "key": "outdoor_seating",
        "label": "مقاعد في الهواء الطلق",
        "type": "check"
      },
      {
        "key": "internet_access",
        "label": "اتصال انترنت",
        "type": "combo"
      },
      {
        "key": "internet_access/fee",
        "label": "الوصول للانترنت",
        "type": "combo"
      },
      {
        "key": "internet_access/ssid",
        "label": "اسم شبكة الواي فاي",
        "type": "text"
      }
    ]
  },
  "amenity/bureau_de_change": {
    "name": "تحويل أموال",
    "fields": [
      {
        "key": "operator",
        "label": "المُشغل",
        "type": "text"
      },
      {
        "key": "payment_multi",
        "label": "طرق الدفع",
        "type": "multiCombo"
      },
      {
        "key": "currency_multi",
        "label": "أنواع العملات",
        "type": "multiCombo"
      }
    ]
  },
  "amenity/boat_storage": {
    "name": "مخزن القوارب",
    "fields": [
      {
        "key": "operator",
        "label": "المُشغل",
        "type": "text"
      },
      {
        "key": "access_simple",
        "label": "الوصول المسموح به",
        "type": "combo"
      },
      {
        "key": "capacity",
        "label": "السعة",
        "type": "number"
      }
    ]
  },
  "amenity/boat_rental": {
    "name": "محل استئجار قوارب",
    "fields": [
      {
        "key": "operator",
        "label": "المُشغل",
        "type": "text"
      },
      {
        "key": "operator/type",
        "label": "التشغيل يتم عبر",
        "type": "combo"
      },
      {
        "key": "fee",
        "label": "رسوم",
        "type": "check"
      },
      {
        "key": "payment_multi_fee",
        "label": null,
        "type": "multiCombo"
      },
      {
        "key": "charge_fee",
        "label": "مبلغ الرسوم",
        "type": "text"
      }
    ]
  },
  "amenity/binoculars": {
    "name": "مناظير مثبتة",
    "fields": [
      {
        "key": "operator",
        "label": "المُشغل",
        "type": "text"
      },
      {
        "key": "access_simple",
        "label": "الوصول المسموح به",
        "type": "combo"
      },
      {
        "key": "fee",
        "label": "رسوم",
        "type": "check"
      },
      {
        "key": "payment_multi_fee",
        "label": null,
        "type": "multiCombo"
      },
      {
        "key": "charge_fee",
        "label": "مبلغ الرسوم",
        "type": "text"
      },
      {
        "key": "direction",
        "label": "الاتجاه (بالدرجات في اتجاه عقارب الساعة)",
        "type": "number"
      },
      {
        "key": "height",
        "label": "الارتفاع (بالأمتار)",
        "type": "number"
      },
      {
        "key": "ele_node",
        "label": null,
        "type": "number"
      }
    ]
  },
  "amenity/biergarten": {
    "name": "Biergarten",
    "fields": [
      {
        "key": "outdoor_seating",
        "label": "مقاعد في الهواء الطلق",
        "type": "check"
      },
      {
        "key": "brewery",
        "label": "بيرة برميل",
        "type": "semiCombo"
      }
    ]
  },
  "amenity/bicycle_rental": {
    "name": "تأجير دراجات",
    "fields": [
      {
        "key": "capacity",
        "label": "السعة",
        "type": "number"
      },
      {
        "key": "network",
        "label": "الشبكة",
        "type": "text"
      },
      {
        "key": "operator",
        "label": "المُشغل",
        "type": "text"
      },
      {
        "key": "operator/type",
        "label": "التشغيل يتم عبر",
        "type": "combo"
      },
      {
        "key": "fee",
        "label": "رسوم",
        "type": "check"
      },
      {
        "key": "payment_multi_fee",
        "label": null,
        "type": "multiCombo"
      }
    ]
  },
  "amenity/bar": {
    "name": "حانة",
    "fields": [
      {
        "key": "building_area_yes",
        "label": null,
        "type": "combo"
      },
      {
        "key": "min_age",
        "label": "الحد الأدنى للعمر",
        "type": "number"
      },
      {
        "key": "brewery",
        "label": "بيرة برميل",
        "type": "semiCombo"
      }
    ]
  },
  "amenity/bank": {
    "name": "بنك",
    "fields": [
      {
        "key": "operator",
        "label": "المُشغل",
        "type": "text"
      },
      {
        "key": "building_area_yes",
        "label": null,
        "type": "combo"
      },
      {
        "key": "atm",
        "label": "ماكينة صرافة آلية",
        "type": "check"
      },
      {
        "key": "drive_through",
        "label": "ممر الطلب بالسيارة",
        "type": "check"
      }
    ]
  },
  "amenity/arts_centre": {
    "name": "مركز فنون",
    "fields": [
      {
        "key": "building_area_yes",
        "label": null,
        "type": "combo"
      }
    ]
  },
  "amenity/animal_shelter": {
    "name": "مأوى حيوانات",
    "fields": [
      {
        "key": "operator",
        "label": "المُشغل",
        "type": "text"
      },
      {
        "key": "animal_shelter",
        "label": "للحيوانات",
        "type": "semiCombo"
      }
    ]
  },
  "amenity/animal_breeding": {
    "name": "منشأة تربية وبيع حيوانات",
    "fields": [
      {
        "key": "operator",
        "label": "المُشغل",
        "type": "text"
      },
      {
        "key": "animal_breeding",
        "label": "للحيوانات",
        "type": "semiCombo"
      }
    ]
  },
  "amenity/animal_boarding": {
    "name": "منشأة رعاية حيوانات",
    "fields": [
      {
        "key": "operator",
        "label": "المُشغل",
        "type": "text"
      },
      {
        "key": "animal_boarding",
        "label": "للحيوانات",
        "type": "semiCombo"
      }
    ]
  },
  "amenity/nursing_home": {
    "name": "دار التمريض",
    "fields": [
      {
        "key": "{amenity/social_facility}",
        "label": null,
        "type": ""
      }
    ]
  },
  "amenity/ferry_terminal": {
    "name": "محطة الركاب",
    "fields": [
      {
        "key": "network",
        "label": "الشبكة",
        "type": "text"
      },
      {
        "key": "operator",
        "label": "المُشغل",
        "type": "text"
      }
    ]
  },
  "amenity/embassy": {
    "name": "سفارة",
    "fields": [
      {
        "key": "country",
        "label": "الدولة",
        "type": "combo"
      },
      {
        "key": "building_area_yes",
        "label": null,
        "type": "combo"
      }
    ]
  },
  "amenity/bus_station": {
    "name": "محطة حافلات",
    "fields": [
      {
        "key": "operator",
        "label": "المُشغل",
        "type": "text"
      },
      {
        "key": "internet_access",
        "label": "اتصال انترنت",
        "type": "combo"
      },
      {
        "key": "internet_access/fee",
        "label": "الوصول للانترنت",
        "type": "combo"
      },
      {
        "key": "internet_access/ssid",
        "label": "اسم شبكة الواي فاي",
        "type": "text"
      }
    ]
  }
}