{
  "tourism/zoo": {
    "name": "Zoológico",
    "fields": [
      {
        "key": "operator",
        "label": "Operador",
        "type": "text"
      },
      {
        "key": "fee",
        "label": "Tarifado",
        "type": "check"
      },
      {
        "key": "charge_fee",
        "label": "Importe de la tarifa",
        "type": "text"
      }
    ]
  },
  "tourism/wilderness_hut": {
    "name": "Refugio de paraje natural",
    "fields": [
      {
        "key": "operator",
        "label": "Operador",
        "type": "text"
      },
      {
        "key": "building_area_yes",
        "label": null,
        "type": "combo"
      },
      {
        "key": "access_simple",
        "label": "Acceso permitido",
        "type": "combo"
      },
      {
        "key": "fee",
        "label": "Tarifado",
        "type": "check"
      },
      {
        "key": "payment_multi_fee",
        "label": null,
        "type": "multiCombo"
      },
      {
        "key": "charge_fee",
        "label": "Importe de la tarifa",
        "type": "text"
      },
      {
        "key": "fireplace",
        "label": "Chimenea",
        "type": "check"
      }
    ]
  },
  "tourism/trail_riding_station": {
    "name": "Estación de equitación",
    "fields": [
      {
        "key": "horse_stables",
        "label": "Establo para equitación",
        "type": "check"
      },
      {
        "key": "horse_riding",
        "label": "Equitación",
        "type": "check"
      },
      {
        "key": "horse_dressage",
        "label": "Doma de equinos",
        "type": "check"
      }
    ]
  },
  "tourism/theme_park": {
    "name": "Parque de atracciones",
    "fields": [
      {
        "key": "operator",
        "label": "Operador",
        "type": "text"
      }
    ]
  },
  "tourism/museum": {
    "name": "Museo",
    "fields": [
      {
        "key": "operator",
        "label": "Operador",
        "type": "text"
      },
      {
        "key": "operator/type",
        "label": "Tipo de operador",
        "type": "combo"
      },
      {
        "key": "museum",
        "label": "Tipo",
        "type": "combo"
      },
      {
        "key": "building_area_yes",
        "label": null,
        "type": "combo"
      }
    ]
  },
  "tourism/motel": {
    "name": "Motel",
    "fields": [
      {
        "key": "brand",
        "label": "Marca",
        "type": "text"
      },
      {
        "key": "email",
        "label": "Correo electrónico",
        "type": "email"
      },
      {
        "key": "building_area_yes",
        "label": null,
        "type": "combo"
      },
      {
        "key": "rooms",
        "label": "Habitaciones",
        "type": "number"
      },
      {
        "key": "internet_access",
        "label": "Conexión a Internet",
        "type": "combo"
      },
      {
        "key": "internet_access/fee",
        "label": "Acceso a Internet",
        "type": "combo"
      }
    ]
  },
  "tourism/hotel": {
    "name": "Hotel",
    "fields": [
      {
        "key": "{tourism/motel}",
        "label": null,
        "type": ""
      }
    ]
  },
  "tourism/hostel": {
    "name": "Albergue",
    "fields": [
      {
        "key": "{tourism/guest_house}",
        "label": null,
        "type": ""
      }
    ]
  },
  "tourism/guest_house": {
    "name": "Casa de huéspedes / B&B",
    "fields": [
      {
        "key": "operator",
        "label": "Operador",
        "type": "text"
      },
      {
        "key": "guest_house",
        "label": "Tipo",
        "type": "combo"
      },
      {
        "key": "email",
        "label": "Correo electrónico",
        "type": "email"
      },
      {
        "key": "building_area_yes",
        "label": null,
        "type": "combo"
      },
      {
        "key": "rooms",
        "label": "Habitaciones",
        "type": "number"
      },
      {
        "key": "internet_access",
        "label": "Conexión a Internet",
        "type": "combo"
      },
      {
        "key": "internet_access/fee",
        "label": "Acceso a Internet",
        "type": "combo"
      }
    ]
  },
  "tourism/gallery": {
    "name": "Galería de arte",
    "fields": [
      {
        "key": "operator",
        "label": "Operador",
        "type": "text"
      },
      {
        "key": "building_area_yes",
        "label": null,
        "type": "combo"
      }
    ]
  },
  "tourism/chalet": {
    "name": "Cabaña vacacional / Bungaló",
    "fields": [
      {
        "key": "operator",
        "label": "Operador",
        "type": "text"
      },
      {
        "key": "email",
        "label": "Correo electrónico",
        "type": "email"
      },
      {
        "key": "building_area_yes",
        "label": null,
        "type": "combo"
      },
      {
        "key": "internet_access",
        "label": "Conexión a Internet",
        "type": "combo"
      },
      {
        "key": "internet_access/fee",
        "label": "Acceso a Internet",
        "type": "combo"
      }
    ]
  },
  "tourism/caravan_site": {
    "name": "Parque de autocaravanas",
    "fields": [
      {
        "key": "capacity/caravans",
        "label": "Capacidad (Autocaravana / Remolque de camping)",
        "type": "number"
      },
      {
        "key": "sanitary_dump_station",
        "label": "Desecho del inodoro",
        "type": "check"
      },
      {
        "key": "power_supply",
        "label": "Fuente de alimentación",
        "type": "check"
      },
      {
        "key": "internet_access",
        "label": "Conexión a Internet",
        "type": "combo"
      },
      {
        "key": "internet_access/fee",
        "label": "Acceso a Internet",
        "type": "combo"
      }
    ]
  },
  "tourism/camp_site": {
    "name": "Campamento",
    "fields": [
      {
        "key": "operator",
        "label": "Operador",
        "type": "text"
      },
      {
        "key": "access_simple",
        "label": "Acceso permitido",
        "type": "combo"
      },
      {
        "key": "capacity/persons",
        "label": "Capacidad (Personas)",
        "type": "number"
      },
      {
        "key": "tents",
        "label": "Carpas",
        "type": "check"
      },
      {
        "key": "capacity/tents",
        "label": "Capacidad (Carpas)",
        "type": "number"
      },
      {
        "key": "caravans",
        "label": "Autocaravana / Remolque de camping",
        "type": "check"
      },
      {
        "key": "capacity/caravans",
        "label": "Capacidad (Autocaravana / Remolque de camping)",
        "type": "number"
      },
      {
        "key": "static_caravans",
        "label": "Casas móviles",
        "type": "check"
      },
      {
        "key": "fee",
        "label": "Tarifado",
        "type": "check"
      },
      {
        "key": "payment_multi_fee",
        "label": null,
        "type": "multiCombo"
      },
      {
        "key": "charge_fee",
        "label": "Importe de la tarifa",
        "type": "text"
      }
    ]
  },
  "tourism/camp_pitch": {
    "name": "Lugar para acampar",
    "fields": [
      {
        "key": "ref",
        "label": "Código de referencia",
        "type": "text"
      }
    ]
  },
  "tourism/attraction": {
    "name": "Atracción turística",
    "fields": [
      {
        "key": "operator",
        "label": "Operador",
        "type": "text"
      }
    ]
  },
  "tourism/aquarium": {
    "name": "Acuario",
    "fields": [
      {
        "key": "operator",
        "label": "Operador",
        "type": "text"
      },
      {
        "key": "building_area_yes",
        "label": null,
        "type": "combo"
      }
    ]
  },
  "tourism/apartment": {
    "name": "Apartamento de huéspedes",
    "fields": [
      {
        "key": "operator",
        "label": "Operador",
        "type": "text"
      },
      {
        "key": "email",
        "label": "Correo electrónico",
        "type": "email"
      },
      {
        "key": "building_area_yes",
        "label": null,
        "type": "combo"
      },
      {
        "key": "rooms",
        "label": "Habitaciones",
        "type": "number"
      },
      {
        "key": "internet_access",
        "label": "Conexión a Internet",
        "type": "combo"
      },
      {
        "key": "internet_access/fee",
        "label": "Acceso a Internet",
        "type": "combo"
      }
    ]
  },
  "tourism/alpine_hut": {
    "name": "Refugio de montaña",
    "fields": [
      {
        "key": "operator",
        "label": "Operador",
        "type": "text"
      },
      {
        "key": "building_area_yes",
        "label": null,
        "type": "combo"
      },
      {
        "key": "internet_access",
        "label": "Conexión a Internet",
        "type": "combo"
      },
      {
        "key": "internet_access/fee",
        "label": "Acceso a Internet",
        "type": "combo"
      },
      {
        "key": "fee",
        "label": "Tarifado",
        "type": "check"
      },
      {
        "key": "payment_multi_fee",
        "label": null,
        "type": "multiCombo"
      },
      {
        "key": "charge_fee",
        "label": "Importe de la tarifa",
        "type": "text"
      }
    ]
  },
  "shop/wine": {
    "name": "Tienda de vinos",
    "fields": []
  },
  "shop/window_blind": {
    "name": "Tienda de persianas",
    "fields": []
  },
  "shop/wigs": {
    "name": "Tienda de pelucas",
    "fields": []
  },
  "shop/wholesale": {
    "name": "Almacén al por mayor",
    "fields": [
      {
        "key": "{shop}",
        "label": null,
        "type": ""
      },
      {
        "key": "wholesale",
        "label": "Venta al por mayor",
        "type": "typeCombo"
      }
    ]
  },
  "shop/weapons": {
    "name": "Armería",
    "fields": []
  },
  "shop/water_sports": {
    "name": "Tienda de deporte acuático / natación",
    "fields": []
  },
  "shop/water": {
    "name": "Tienda de agua potable",
    "fields": []
  },
  "shop/watches": {
    "name": "Relojería",
    "fields": []
  },
  "shop/video_games": {
    "name": "Tienda de videojuegos",
    "fields": []
  },
  "shop/video": {
    "name": "Videoclub",
    "fields": []
  },
  "shop/variety_store": {
    "name": "Tienda de saldos / variedades",
    "fields": []
  },
  "shop/vacuum_cleaner": {
    "name": "Tienda de aspiradoras",
    "fields": []
  },
  "shop/tyres": {
    "name": "Tienda de neumáticos",
    "fields": []
  },
  "shop/trophy": {
    "name": "Tienda de trofeos",
    "fields": []
  },
  "shop/travel_agency": {
    "name": "Agencia de viajes",
    "fields": []
  },
  "shop/trade": {
    "name": "Tienda comercial / Corralón",
    "fields": [
      {
        "key": "trade",
        "label": "Tipo",
        "type": "typeCombo"
      },
      {
        "key": "{shop}",
        "label": null,
        "type": ""
      }
    ]
  },
  "shop/toys": {
    "name": "Juguetería",
    "fields": []
  },
  "shop/tool_hire": {
    "name": "Alquiler de herramientas",
    "fields": []
  },
  "shop/tobacco": {
    "name": "Tienda de tabaco",
    "fields": []
  },
  "shop/tiles": {
    "name": "Tienda de azulejos",
    "fields": []
  },
  "shop/ticket": {
    "name": "Venta de boletos",
    "fields": []
  },
  "shop/telecommunication": {
    "name": "Tienda minorista de telecomunicaciones",
    "fields": []
  },
  "shop/tea": {
    "name": "Tienda de té",
    "fields": []
  },
  "shop/tattoo": {
    "name": "Salón de tatuajes",
    "fields": []
  },
  "shop/tailor": {
    "name": "Sastrería",
    "fields": []
  },
  "shop/swimming_pool": {
    "name": "Tienda de suministros para piscinas",
    "fields": []
  },
  "shop/supermarket": {
    "name": "Supermercado",
    "fields": []
  },
  "shop/storage_rental": {
    "name": "Alquiler de espacios para almacenaje",
    "fields": []
  },
  "shop/stationery": {
    "name": "Artículos de papelería y oficina",
    "fields": []
  },
  "shop/sports": {
    "name": "Tienda de artículos deportivos",
    "fields": [
      {
        "key": "operator",
        "label": "Operador",
        "type": "text"
      },
      {
        "key": "sport",
        "label": "Deportes",
        "type": "semiCombo"
      },
      {
        "key": "{shop}",
        "label": null,
        "type": ""
      }
    ]
  },
  "shop/spices": {
    "name": "Tienda de especias",
    "fields": []
  },
  "shop/shoes": {
    "name": "Zapatería",
    "fields": [
      {
        "key": "shoes",
        "label": "Zapatos",
        "type": "semiCombo"
      },
      {
        "key": "{shop}",
        "label": null,
        "type": ""
      }
    ]
  },
  "shop/shoe_repair": {
    "name": "Taller de reparación de calzado",
    "fields": []
  },
  "shop/sewing": {
    "name": "Tienda de suministros de costura",
    "fields": []
  },
  "shop/second_hand": {
    "name": "Tienda de segunda mano",
    "fields": [
      {
        "key": "{shop}",
        "label": null,
        "type": ""
      },
      {
        "key": "second_hand",
        "label": "Vende usados",
        "type": "combo"
      }
    ]
  },
  "shop/seafood": {
    "name": "Tienda de pescados y mariscos",
    "fields": []
  },
  "shop/scuba_diving": {
    "name": "Tienda de buceo",
    "fields": [
      {
        "key": "{shop}",
        "label": null,
        "type": ""
      },
      {
        "key": "scuba_diving",
        "label": "Servicios",
        "type": "multiCombo"
      }
    ]
  },
  "shop/repair": {
    "name": "Taller de reparaciones",
    "fields": []
  },
  "shop/rental": {
    "name": "Tienda de alquiler",
    "fields": []
  },
  "shop/religion": {
    "name": "Tienda religiosa",
    "fields": [
      {
        "key": "{shop}",
        "label": null,
        "type": ""
      },
      {
        "key": "religion",
        "label": "Religión",
        "type": "combo"
      },
      {
        "key": "denomination",
        "label": "Denominación",
        "type": "combo"
      }
    ]
  },
  "shop/radiotechnics": {
    "name": "Tienda de componentes radio electrónicos",
    "fields": []
  },
  "shop/pyrotechnics": {
    "name": "Tienda de fuegos artificiales",
    "fields": []
  },
  "shop/psychic": {
    "name": "Vidente",
    "fields": []
  },
  "shop/printer_ink": {
    "name": "Tienda de tinta para impresora",
    "fields": []
  },
  "shop/pottery": {
    "name": "Tienda de alfarería",
    "fields": []
  },
  "shop/photo": {
    "name": "Tienda de fotografía",
    "fields": []
  },
  "shop/pet_grooming": {
    "name": "Peluquería de mascotas",
    "fields": []
  },
  "shop/pet": {
    "name": "Tienda de mascotas",
    "fields": []
  },
  "shop/perfumery": {
    "name": "Perfumería",
    "fields": []
  },
  "shop/pawnbroker": {
    "name": "Casa de empeños",
    "fields": []
  },
  "shop/pastry": {
    "name": "Pastelería",
    "fields": []
  },
  "shop/party": {
    "name": "Tienda de artículos para fiestas",
    "fields": []
  },
  "shop/paint": {
    "name": "Tienda de pinturas",
    "fields": []
  },
  "shop/outpost": {
    "name": "Puesto de venta minorista online",
    "fields": []
  },
  "shop/outdoor": {
    "name": "Tienda de actividades al aire libre",
    "fields": [
      {
        "key": "{shop}",
        "label": null,
        "type": ""
      }
    ]
  },
  "shop/optician": {
    "name": "Óptica",
    "fields": []
  },
  "shop/nuts": {
    "name": "Tienda de frutos secos",
    "fields": []
  },
  "shop/nutrition_supplements": {
    "name": "Tienda de suplementos nutricionales",
    "fields": []
  },
  "shop/newsagent": {
    "name": "Puesto de periódicos y revistas",
    "fields": []
  },
  "shop/musical_instrument": {
    "name": "Tienda de instrumentos musicales",
    "fields": []
  },
  "shop/music": {
    "name": "Tienda de música",
    "fields": []
  },
  "shop/motorcycle_repair": {
    "name": "Taller de reparación de motos",
    "fields": [
      {
        "key": "{shop}",
        "label": null,
        "type": ""
      },
      {
        "key": "service/vehicle",
        "label": "Servicios",
        "type": "multiCombo"
      }
    ]
  },
  "shop/motorcycle": {
    "name": "Concesionario de motos",
    "fields": [
      {
        "key": "brand",
        "label": "Marca",
        "type": "text"
      },
      {
        "key": "{shop}",
        "label": null,
        "type": ""
      }
    ]
  },
  "shop/money_lender": {
    "name": "Prestamista de dinero",
    "fields": [
      {
        "key": "{shop}",
        "label": null,
        "type": ""
      },
      {
        "key": "currency_multi",
        "label": "Tipos de moneda",
        "type": "multiCombo"
      }
    ]
  },
  "shop/model": {
    "name": "Tienda de modelismo",
    "fields": []
  },
  "shop/mobile_phone": {
    "name": "Tienda de telefonía móvil",
    "fields": []
  },
  "shop/military_surplus": {
    "name": "Tienda de excedentes militares",
    "fields": []
  },
  "shop/medical_supply": {
    "name": "Tienda de aparatos ortopédicos",
    "fields": []
  },
  "shop/massage": {
    "name": "Salón de masajes",
    "fields": []
  },
  "shop/mall": {
    "name": "Centro comercial",
    "fields": []
  },
  "shop/lottery": {
    "name": "Lotería",
    "fields": []
  },
  "shop/locksmith": {
    "name": "Cerrajería",
    "fields": []
  },
  "shop/lighting": {
    "name": "Tienda de iluminación",
    "fields": []
  },
  "shop/leather": {
    "name": "Talabartería",
    "fields": []
  },
  "shop/laundry": {
    "name": "Lavandería",
    "fields": [
      {
        "key": "{shop}",
        "label": null,
        "type": ""
      },
      {
        "key": "self_service",
        "label": "Autoservicio",
        "type": "check"
      }
    ]
  },
  "shop/kitchen": {
    "name": "Tienda de diseño de cocinas",
    "fields": []
  },
  "shop/kiosk": {
    "name": "Quiosco",
    "fields": []
  },
  "shop/jewelry": {
    "name": "Joyería",
    "fields": []
  },
  "shop/interior_decoration": {
    "name": "Tienda de decoración de interiores",
    "fields": []
  },
  "shop/hunting": {
    "name": "Tienda de caza",
    "fields": []
  },
  "shop/houseware": {
    "name": "Tienda de artículos del hogar",
    "fields": []
  },
  "shop/household_linen": {
    "name": "Tienda de ropa de hogar",
    "fields": []
  },
  "shop/hifi": {
    "name": "Tienda de equipos de sonido",
    "fields": []
  },
  "shop/herbalist": {
    "name": "Herbolario",
    "fields": []
  },
  "shop/hearing_aids": {
    "name": "Tienda de audífonos",
    "fields": []
  },
  "shop/health_food": {
    "name": "Tienda de alimentos saludables",
    "fields": []
  },
  "shop/hardware": {
    "name": "Ferretería",
    "fields": []
  },
  "shop/hairdresser_supply": {
    "name": "Tienda de suministros para peluquería",
    "fields": []
  },
  "shop/hairdresser": {
    "name": "Peluquería",
    "fields": [
      {
        "key": "operator",
        "label": "Operador",
        "type": "text"
      },
      {
        "key": "building_area_yes",
        "label": null,
        "type": "combo"
      },
      {
        "key": "payment_multi",
        "label": "Formas de pago",
        "type": "multiCombo"
      },
      {
        "key": "gender",
        "label": "Género",
        "type": "radio"
      }
    ]
  },
  "shop/greengrocer": {
    "name": "Verdulería / Frutería",
    "fields": [
      {
        "key": "{shop}",
        "label": null,
        "type": ""
      },
      {
        "key": "organic",
        "label": "Productos orgánicos",
        "type": "combo"
      }
    ]
  },
  "shop/gift": {
    "name": "Tienda de regalos",
    "fields": []
  },
  "shop/general": {
    "name": "Tienda general",
    "fields": []
  },
  "shop/gas": {
    "name": "Tienda de gas embotellado",
    "fields": []
  },
  "shop/garden_centre": {
    "name": "Centro de jardinería / Vivero",
    "fields": []
  },
  "shop/games": {
    "name": "Tienda de juegos de mesa",
    "fields": []
  },
  "shop/furniture": {
    "name": "Mueblería",
    "fields": []
  },
  "shop/funeral_directors": {
    "name": "Funeraria",
    "fields": [
      {
        "key": "{shop}",
        "label": null,
        "type": ""
      },
      {
        "key": "religion",
        "label": "Religión",
        "type": "combo"
      },
      {
        "key": "denomination",
        "label": "Denominación",
        "type": "combo"
      }
    ]
  },
  "shop/fuel": {
    "name": "Tienda de combustible",
    "fields": [
      {
        "key": "{shop}",
        "label": null,
        "type": ""
      },
      {
        "key": "fuel/fuel_multi",
        "label": "Tipos de combustible",
        "type": "multiCombo"
      }
    ]
  },
  "shop/frozen_food": {
    "name": "Tienda de alimentos congelados",
    "fields": []
  },
  "shop/frame": {
    "name": "Tienda de enmarcación",
    "fields": []
  },
  "shop/florist": {
    "name": "Floristería",
    "fields": []
  },
  "shop/flooring": {
    "name": "Tienda de suministros para pisos",
    "fields": []
  },
  "shop/fishing": {
    "name": "Tienda de pesca",
    "fields": []
  },
  "shop/fireplace": {
    "name": "Tienda de chimeneas",
    "fields": []
  },
  "shop/fashion_accessories": {
    "name": "Tienda de accesorios de moda",
    "fields": [
      {
        "key": "clothes",
        "label": "Ropa",
        "type": "semiCombo"
      },
      {
        "key": "{shop}",
        "label": null,
        "type": ""
      }
    ]
  },
  "shop/farm": {
    "name": "Tienda de productos agrícolas",
    "fields": [
      {
        "key": "{shop}",
        "label": null,
        "type": ""
      },
      {
        "key": "organic",
        "label": "Productos orgánicos",
        "type": "combo"
      }
    ]
  },
  "shop/fabric": {
    "name": "Tienda textil",
    "fields": []
  },
  "shop/erotic": {
    "name": "Tienda erótica",
    "fields": [
      {
        "key": "{shop}",
        "label": null,
        "type": ""
      },
      {
        "key": "min_age",
        "label": "Edad mínima",
        "type": "number"
      }
    ]
  },
  "shop/electronics": {
    "name": "Tienda de electrónica y electrodomésticos",
    "fields": []
  },
  "shop/electrical": {
    "name": "Tienda de equipos eléctricos",
    "fields": []
  },
  "shop/e-cigarette": {
    "name": "Tienda de cigarrillo electrónico",
    "fields": []
  },
  "shop/dry_cleaning": {
    "name": "Tintorería",
    "fields": []
  },
  "shop/doors": {
    "name": "Tienda de puertas (aberturas)",
    "fields": []
  },
  "shop/doityourself": {
    "name": "Tienda de bricolaje / Hágalo usted mismo",
    "fields": []
  },
  "shop/department_store": {
    "name": "Grandes almacenes / Tienda departamental",
    "fields": []
  },
  "shop/deli": {
    "name": "Delicatessen",
    "fields": []
  },
  "shop/dairy": {
    "name": "Tienda de lácteos",
    "fields": []
  },
  "shop/curtain": {
    "name": "Tienda de cortinas",
    "fields": []
  },
  "shop/craft": {
    "name": "Tienda de artesanías",
    "fields": []
  },
  "shop/country_store": {
    "name": "Tienda de suministros rurales",
    "fields": []
  },
  "shop/cosmetics": {
    "name": "Tienda de cosméticos",
    "fields": []
  },
  "shop/copyshop": {
    "name": "Centro de copiado",
    "fields": []
  },
  "shop/convenience": {
    "name": "Tienda multiservicio",
    "fields": []
  },
  "shop/confectionery": {
    "name": "Tienda de dulces",
    "fields": []
  },
  "shop/computer": {
    "name": "Tienda de informática",
    "fields": []
  },
  "shop/collector": {
    "name": "Tienda de coleccionables",
    "fields": [
      {
        "key": "collector",
        "label": "Artículos",
        "type": "semiCombo"
      },
      {
        "key": "{shop}",
        "label": null,
        "type": ""
      }
    ]
  },
  "shop/coffee": {
    "name": "Tienda de café",
    "fields": []
  },
  "shop/clothes": {
    "name": "Tienda de ropa",
    "fields": [
      {
        "key": "clothes",
        "label": "Ropa",
        "type": "semiCombo"
      },
      {
        "key": "{shop}",
        "label": null,
        "type": ""
      }
    ]
  },
  "shop/chocolate": {
    "name": "Chocolatería",
    "fields": []
  },
  "shop/chemist": {
    "name": "Tienda de artículos de limpieza y cosméticos",
    "fields": []
  },
  "shop/cheese": {
    "name": "Tienda de quesos",
    "fields": []
  },
  "shop/charity": {
    "name": "Tienda de caridad",
    "fields": [
      {
        "key": "{shop}",
        "label": null,
        "type": ""
      },
      {
        "key": "second_hand",
        "label": "Vende usados",
        "type": "combo"
      }
    ]
  },
  "shop/catalogue": {
    "name": "Tienda de catálogo",
    "fields": []
  },
  "shop/carpet": {
    "name": "Tienda de alfombras",
    "fields": []
  },
  "shop/caravan": {
    "name": "Concesionario de autocaravanas",
    "fields": [
      {
        "key": "brand",
        "label": "Marca",
        "type": "text"
      },
      {
        "key": "{shop}",
        "label": null,
        "type": ""
      },
      {
        "key": "second_hand",
        "label": "Vende usados",
        "type": "combo"
      },
      {
        "key": "service/vehicle",
        "label": "Servicios",
        "type": "multiCombo"
      }
    ]
  },
  "shop/car_repair": {
    "name": "Taller de reparación de automóviles",
    "fields": [
      {
        "key": "{shop}",
        "label": null,
        "type": ""
      },
      {
        "key": "service/vehicle",
        "label": "Servicios",
        "type": "multiCombo"
      }
    ]
  },
  "shop/car_parts": {
    "name": "Tienda de componentes de automóvil",
    "fields": []
  },
  "shop/car": {
    "name": "Concesionario de automóviles",
    "fields": [
      {
        "key": "brand",
        "label": "Marca",
        "type": "text"
      },
      {
        "key": "{shop}",
        "label": null,
        "type": ""
      },
      {
        "key": "second_hand",
        "label": "Vende usados",
        "type": "combo"
      },
      {
        "key": "service/vehicle",
        "label": "Servicios",
        "type": "multiCombo"
      }
    ]
  },
  "shop/cannabis": {
    "name": "Tienda de cannabis",
    "fields": []
  },
  "shop/candles": {
    "name": "Tienda de velas",
    "fields": []
  },
  "shop/camera": {
    "name": "Tienda de equipos de fotografía",
    "fields": []
  },
  "shop/butcher": {
    "name": "Carnicería",
    "fields": []
  },
  "shop/brewing_supplies": {
    "name": "Tienda de suministros de cerveza",
    "fields": []
  },
  "shop/books": {
    "name": "Librería",
    "fields": [
      {
        "key": "{shop}",
        "label": null,
        "type": ""
      },
      {
        "key": "internet_access",
        "label": "Conexión a Internet",
        "type": "combo"
      }
    ]
  },
  "shop/bookmaker": {
    "name": "Corredor de apuestas",
    "fields": []
  },
  "shop/boat": {
    "name": "Tienda de barcos",
    "fields": []
  },
  "shop/bicycle": {
    "name": "Tienda de bicicletas",
    "fields": [
      {
        "key": "{shop}",
        "label": null,
        "type": ""
      },
      {
        "key": "service/bicycle",
        "label": "Servicios para bicicletas",
        "type": "multiCombo"
      }
    ]
  },
  "shop/beverages": {
    "name": "Tienda de bebidas",
    "fields": []
  },
  "shop/bed": {
    "name": "Tienda de ropa de cama / Colchonería",
    "fields": []
  },
  "shop/beauty": {
    "name": "Salón de belleza",
    "fields": [
      {
        "key": "{shop}",
        "label": null,
        "type": ""
      },
      {
        "key": "beauty",
        "label": "Servicios",
        "type": "semiCombo"
      }
    ]
  },
  "shop/bathroom_furnishing": {
    "name": "Tienda de muebles de baño",
    "fields": []
  },
  "shop/bakery": {
    "name": "Panadería",
    "fields": []
  },
  "shop/bag": {
    "name": "Tienda de bolsos / equipaje",
    "fields": []
  },
  "shop/baby_goods": {
    "name": "Tienda de productos para bebé",
    "fields": []
  },
  "shop/art": {
    "name": "Tienda de arte",
    "fields": []
  },
  "shop/appliance": {
    "name": "Tienda de electrodomésticos",
    "fields": []
  },
  "shop/antiques": {
    "name": "Tienda de antigüedades",
    "fields": []
  },
  "shop/anime": {
    "name": "Tienda de anime / manga",
    "fields": []
  },
  "shop/alcohol": {
    "name": "Licorería",
    "fields": [
      {
        "key": "{shop}",
        "label": null,
        "type": ""
      },
      {
        "key": "drive_through",
        "label": "Ventanilla de autoservicio",
        "type": "check"
      }
    ]
  },
  "shop/agrarian": {
    "name": "Tienda de suministros agrícolas",
    "fields": [
      {
        "key": "{shop}",
        "label": null,
        "type": ""
      },
      {
        "key": "agrarian",
        "label": "Productos",
        "type": "semiCombo"
      }
    ]
  },
  "shop/yes": {
    "name": "Tienda (tipo no especificado)",
    "fields": [
      {
        "key": "shop",
        "label": "Tipo",
        "type": "typeCombo"
      },
      {
        "key": "{shop}",
        "label": null,
        "type": ""
      }
    ]
  },
  "shop/hobby": {
    "name": "Tienda de pasatiempos",
    "fields": []
  },
  "shop/fashion": {
    "name": "Tienda de moda",
    "fields": [
      {
        "key": "clothes",
        "label": "Ropa",
        "type": "semiCombo"
      },
      {
        "key": "{shop}",
        "label": null,
        "type": ""
      }
    ]
  },
  "shop/boutique": {
    "name": "Boutique",
    "fields": [
      {
        "key": "clothes",
        "label": "Ropa",
        "type": "semiCombo"
      },
      {
        "key": "{shop}",
        "label": null,
        "type": ""
      }
    ]
  },
  "office/water_utility": {
    "name": "Oficina de servicios públicos de agua",
    "fields": [
      {
        "key": "{office}",
        "label": null,
        "type": ""
      },
      {
        "key": "operator",
        "label": "Operador",
        "type": "text"
      }
    ]
  },
  "office/union": {
    "name": "Oficina sindical",
    "fields": []
  },
  "office/therapist": {
    "name": "Oficina de terapeuta",
    "fields": [
      {
        "key": "healthcare_therapist",
        "label": null,
        "type": "typeCombo"
      },
      {
        "key": "healthcare/speciality",
        "label": "Especialidades",
        "type": "semiCombo"
      },
      {
        "key": "{office}",
        "label": null,
        "type": ""
      }
    ]
  },
  "office/telecommunication": {
    "name": "Oficina de telecomunicaciones",
    "fields": []
  },
  "office/tax_advisor": {
    "name": "Oficina de asesor fiscal",
    "fields": []
  },
  "office/surveyor": {
    "name": "Oficina de agrimensor",
    "fields": []
  },
  "office/security": {
    "name": "Oficina de seguridad",
    "fields": []
  },
  "office/research": {
    "name": "Oficina de investigación",
    "fields": []
  },
  "office/religion": {
    "name": "Oficina religiosa",
    "fields": [
      {
        "key": "{office}",
        "label": null,
        "type": ""
      },
      {
        "key": "religion",
        "label": "Religión",
        "type": "combo"
      },
      {
        "key": "denomination",
        "label": "Denominación",
        "type": "combo"
      }
    ]
  },
  "office/quango": {
    "name": "Oficina ONG cuasiautónoma",
    "fields": []
  },
  "office/property_management": {
    "name": "Administración de propiedades / Oficina de arrendamiento",
    "fields": []
  },
  "office/private_investigator": {
    "name": "Oficina de investigador privado",
    "fields": []
  },
  "office/political_party": {
    "name": "Oficina del partido político",
    "fields": []
  },
  "office/notary": {
    "name": "Escribanía / Notaría",
    "fields": []
  },
  "office/ngo": {
    "name": "Oficina de ONG",
    "fields": []
  },
  "office/newspaper": {
    "name": "Oficina de periódicos",
    "fields": []
  },
  "office/moving_company": {
    "name": "Oficina de mudanzas",
    "fields": []
  },
  "office/lawyer": {
    "name": "Despacho de abogados",
    "fields": []
  },
  "office/it": {
    "name": "Oficina de tecnología de la información",
    "fields": []
  },
  "office/insurance": {
    "name": "Aseguradora",
    "fields": []
  },
  "office/guide": {
    "name": "Oficina de turismo",
    "fields": []
  },
  "office/graphic_design": {
    "name": "Oficina de diseño gráfico",
    "fields": []
  },
  "office/government": {
    "name": "Oficina de gobierno",
    "fields": [
      {
        "key": "government",
        "label": "Tipo",
        "type": "typeCombo"
      },
      {
        "key": "{office}",
        "label": null,
        "type": ""
      }
    ]
  },
  "office/foundation": {
    "name": "Oficina de fundación",
    "fields": []
  },
  "office/forestry": {
    "name": "Oficina forestal",
    "fields": []
  },
  "office/financial_advisor": {
    "name": "Asesor financiero",
    "fields": []
  },
  "office/financial": {
    "name": "Financiera",
    "fields": []
  },
  "office/estate_agent": {
    "name": "Inmobiliaria",
    "fields": []
  },
  "office/engineer": {
    "name": "Oficina de ingeniería",
    "fields": []
  },
  "office/energy_supplier": {
    "name": "Oficina de proveedor de energía",
    "fields": []
  },
  "office/employment_agency": {
    "name": "Agencia de empleo",
    "fields": []
  },
  "office/educational_institution": {
    "name": "Oficina de institución educativa",
    "fields": []
  },
  "office/diplomatic": {
    "name": "Oficina diplomática",
    "fields": [
      {
        "key": "diplomatic",
        "label": "Tipo",
        "type": "combo"
      },
      {
        "key": "country",
        "label": "País",
        "type": "combo"
      },
      {
        "key": "target",
        "label": "Objetivo",
        "type": "combo"
      },
      {
        "key": "diplomatic/services",
        "label": "Servicios",
        "type": "multiCombo"
      },
      {
        "key": "{office}",
        "label": null,
        "type": ""
      }
    ]
  },
  "office/consulting": {
    "name": "Oficina de consultora",
    "fields": [
      {
        "key": "consulting",
        "label": "Pericia",
        "type": "semiCombo"
      },
      {
        "key": "{office}",
        "label": null,
        "type": ""
      }
    ]
  },
  "office/charity": {
    "name": "Oficina de beneficencia",
    "fields": []
  },
  "office/bail_bond_agent-US-PH": {
    "name": "Agente de fianzas",
    "fields": []
  },
  "office/association": {
    "name": "Oficina de organización sin fines de lucro",
    "fields": []
  },
  "office/architect": {
    "name": "Oficina de arquitecto",
    "fields": []
  },
  "office/advertising_agency": {
    "name": "Agencia de publicidad",
    "fields": []
  },
  "office/adoption_agency": {
    "name": "Agencia de adopción",
    "fields": []
  },
  "office/accountant": {
    "name": "Oficina de contador",
    "fields": []
  },
  "office/yes": {
    "name": "Oficina (tipo no especificado)",
    "fields": [
      {
        "key": "office",
        "label": "Tipo",
        "type": "typeCombo"
      },
      {
        "key": "{office}",
        "label": null,
        "type": ""
      }
    ]
  },
  "office/travel_agent": {
    "name": "Agencia de viajes",
    "fields": []
  },
  "office/physician": {
    "name": "Médico",
    "fields": []
  },
  "office/administrative": {
    "name": "Oficina administrativa",
    "fields": []
  },
  "leisure/water_park": {
    "name": "Parque acuático",
    "fields": [
      {
        "key": "{tourism/theme_park}",
        "label": null,
        "type": ""
      },
      {
        "key": "sport",
        "label": "Deportes",
        "type": "semiCombo"
      }
    ]
  },
  "leisure/trampoline_park": {
    "name": "Parque de trampolín",
    "fields": [
      {
        "key": "building_area_yes",
        "label": null,
        "type": "combo"
      }
    ]
  },
  "leisure/swimming_area": {
    "name": "Área de natación natural",
    "fields": [
      {
        "key": "access_simple",
        "label": "Acceso permitido",
        "type": "combo"
      },
      {
        "key": "supervised",
        "label": "Vigilado",
        "type": "check"
      },
      {
        "key": "fee",
        "label": "Tarifado",
        "type": "check"
      },
      {
        "key": "payment_multi_fee",
        "label": null,
        "type": "multiCombo"
      },
      {
        "key": "charge_fee",
        "label": "Importe de la tarifa",
        "type": "text"
      },
      {
        "key": "lit",
        "label": "Iluminado",
        "type": "check"
      }
    ]
  },
  "leisure/stadium": {
    "name": "Estadio",
    "fields": [
      {
        "key": "operator",
        "label": "Operador",
        "type": "text"
      },
      {
        "key": "sport",
        "label": "Deportes",
        "type": "semiCombo"
      }
    ]
  },
  "leisure/sports_hall": {
    "name": "Gimnasio / Pabellón deportivo",
    "fields": [
      {
        "key": "operator",
        "label": "Operador",
        "type": "text"
      },
      {
        "key": "sport",
        "label": "Deportes",
        "type": "semiCombo"
      },
      {
        "key": "building_area_yes",
        "label": null,
        "type": "combo"
      },
      {
        "key": "access_simple",
        "label": "Acceso permitido",
        "type": "combo"
      }
    ]
  },
  "leisure/sports_centre": {
    "name": "Complejo deportivo",
    "fields": [
      {
        "key": "operator",
        "label": "Operador",
        "type": "text"
      },
      {
        "key": "operator/type",
        "label": "Tipo de operador",
        "type": "combo"
      },
      {
        "key": "sport",
        "label": "Deportes",
        "type": "semiCombo"
      },
      {
        "key": "fee",
        "label": "Tarifado",
        "type": "check"
      },
      {
        "key": "payment_multi_fee",
        "label": null,
        "type": "multiCombo"
      },
      {
        "key": "charge_fee",
        "label": "Importe de la tarifa",
        "type": "text"
      }
    ]
  },
  "leisure/slipway_drivable": {
    "name": "Grada (Manejable)",
    "fields": [
      {
        "key": "{leisure/slipway}",
        "label": null,
        "type": ""
      },
      {
        "key": "lanes",
        "label": "Carriles",
        "type": "number"
      }
    ]
  },
  "leisure/sauna": {
    "name": "Sauna",
    "fields": [
      {
        "key": "operator",
        "label": "Operador",
        "type": "text"
      },
      {
        "key": "access_simple",
        "label": "Acceso permitido",
        "type": "combo"
      },
      {
        "key": "fee",
        "label": "Tarifado",
        "type": "check"
      },
      {
        "key": "payment_multi_fee",
        "label": null,
        "type": "multiCombo"
      },
      {
        "key": "charge_fee",
        "label": "Importe de la tarifa",
        "type": "text"
      }
    ]
  },
  "leisure/resort": {
    "name": "Complejo turístico",
    "fields": [
      {
        "key": "operator",
        "label": "Operador",
        "type": "text"
      },
      {
        "key": "resort",
        "label": "Tipo",
        "type": "combo"
      }
    ]
  },
  "leisure/outdoor_seating": {
    "name": "Área de asientos al exterior",
    "fields": [
      {
        "key": "operator",
        "label": "Operador",
        "type": "text"
      },
      {
        "key": "capacity",
        "label": "Capacidad",
        "type": "number"
      },
      {
        "key": "lit",
        "label": "Iluminado",
        "type": "check"
      },
      {
        "key": "seasonal",
        "label": "Estacional",
        "type": "check"
      },
      {
        "key": "heating",
        "label": "Calefacción",
        "type": "check"
      }
    ]
  },
  "leisure/miniature_golf": {
    "name": "Mini golf",
    "fields": [
      {
        "key": "operator",
        "label": "Operador",
        "type": "text"
      },
      {
        "key": "fee",
        "label": "Tarifado",
        "type": "check"
      },
      {
        "key": "payment_multi_fee",
        "label": null,
        "type": "multiCombo"
      },
      {
        "key": "charge_fee",
        "label": "Importe de la tarifa",
        "type": "text"
      }
    ]
  },
  "leisure/marina": {
    "name": "Puerto deportivo",
    "fields": [
      {
        "key": "operator",
        "label": "Operador",
        "type": "text"
      },
      {
        "key": "capacity",
        "label": "Capacidad",
        "type": "number"
      },
      {
        "key": "fee",
        "label": "Tarifado",
        "type": "check"
      },
      {
        "key": "payment_multi_fee",
        "label": null,
        "type": "multiCombo"
      },
      {
        "key": "charge_fee",
        "label": "Importe de la tarifa",
        "type": "text"
      },
      {
        "key": "sanitary_dump_station",
        "label": "Desecho del inodoro",
        "type": "check"
      },
      {
        "key": "power_supply",
        "label": "Fuente de alimentación",
        "type": "check"
      }
    ]
  },
  "leisure/indoor_play": {
    "name": "Centro de juegos de interior",
    "fields": [
      {
        "key": "building_area_yes",
        "label": null,
        "type": "combo"
      }
    ]
  },
  "leisure/ice_rink": {
    "name": "Pista de hielo",
    "fields": [
      {
        "key": "seasonal",
        "label": "Estacional",
        "type": "check"
      },
      {
        "key": "sport_ice",
        "label": "Deportes",
        "type": "semiCombo"
      },
      {
        "key": "operator",
        "label": "Operador",
        "type": "text"
      },
      {
        "key": "building",
        "label": "Edificio",
        "type": "combo"
      }
    ]
  },
  "leisure/horse_riding": {
    "name": "Centro ecuestre",
    "fields": [
      {
        "key": "access_simple",
        "label": "Acceso permitido",
        "type": "combo"
      },
      {
        "key": "operator",
        "label": "Operador",
        "type": "text"
      }
    ]
  },
  "leisure/hackerspace": {
    "name": "Hacklab",
    "fields": [
      {
        "key": "building_area_yes",
        "label": null,
        "type": "combo"
      },
      {
        "key": "fee",
        "label": "Tarifado",
        "type": "check"
      },
      {
        "key": "payment_multi_fee",
        "label": null,
        "type": "multiCombo"
      },
      {
        "key": "charge_fee",
        "label": "Importe de la tarifa",
        "type": "text"
      },
      {
        "key": "internet_access",
        "label": "Conexión a Internet",
        "type": "combo"
      },
      {
        "key": "internet_access/fee",
        "label": "Acceso a Internet",
        "type": "combo"
      },
      {
        "key": "internet_access/ssid",
        "label": "Nombre de la red wifi",
        "type": "text"
      }
    ]
  },
  "leisure/golf_course": {
    "name": "Campo de golf",
    "fields": [
      {
        "key": "operator",
        "label": "Operador",
        "type": "text"
      }
    ]
  },
  "leisure/fitness_centre": {
    "name": "Gimnasio / Centro de fitness",
    "fields": [
      {
        "key": "sport",
        "label": "Deportes",
        "type": "semiCombo"
      },
      {
        "key": "building_area_yes",
        "label": null,
        "type": "combo"
      }
    ]
  },
  "leisure/fishing": {
    "name": "Lugar de pesca",
    "fields": [
      {
        "key": "access_simple",
        "label": "Acceso permitido",
        "type": "combo"
      },
      {
        "key": "fishing",
        "label": "Pesca",
        "type": "combo"
      }
    ]
  },
  "leisure/escape_game": {
    "name": "Sala de escape",
    "fields": [
      {
        "key": "building_area_yes",
        "label": null,
        "type": "combo"
      },
      {
        "key": "fee",
        "label": "Tarifado",
        "type": "check"
      },
      {
        "key": "payment_multi_fee",
        "label": null,
        "type": "multiCombo"
      },
      {
        "key": "charge_fee",
        "label": "Importe de la tarifa",
        "type": "text"
      },
      {
        "key": "internet_access",
        "label": "Conexión a Internet",
        "type": "combo"
      },
      {
        "key": "internet_access/fee",
        "label": "Acceso a Internet",
        "type": "combo"
      },
      {
        "key": "internet_access/ssid",
        "label": "Nombre de la red wifi",
        "type": "text"
      }
    ]
  },
  "leisure/disc_golf_course": {
    "name": "Golf de disco",
    "fields": [
      {
        "key": "operator",
        "label": "Operador",
        "type": "text"
      },
      {
        "key": "access_simple",
        "label": "Acceso permitido",
        "type": "combo"
      },
      {
        "key": "fee",
        "label": "Tarifado",
        "type": "check"
      },
      {
        "key": "payment_multi_fee",
        "label": null,
        "type": "multiCombo"
      },
      {
        "key": "charge_fee",
        "label": "Importe de la tarifa",
        "type": "text"
      }
    ]
  },
  "leisure/dancing_school": {
    "name": "Escuela de baile",
    "fields": [
      {
        "key": "operator",
        "label": "Operador",
        "type": "text"
      },
      {
        "key": "building_area_yes",
        "label": null,
        "type": "combo"
      },
      {
        "key": "dance/style",
        "label": "Estilos de baile",
        "type": "semiCombo"
      }
    ]
  },
  "leisure/dance": {
    "name": "Salón de baile",
    "fields": [
      {
        "key": "operator",
        "label": "Operador",
        "type": "text"
      },
      {
        "key": "building_area_yes",
        "label": null,
        "type": "combo"
      },
      {
        "key": "dance/style",
        "label": "Estilos de baile",
        "type": "semiCombo"
      },
      {
        "key": "dance/teaching",
        "label": "Ofrece clases de baile",
        "type": "check"
      }
    ]
  },
  "leisure/bowling_alley": {
    "name": "Bolera / Bowling",
    "fields": [
      {
        "key": "operator",
        "label": "Operador",
        "type": "text"
      },
      {
        "key": "building_area_yes",
        "label": null,
        "type": "combo"
      }
    ]
  },
  "leisure/bleachers": {
    "name": "Gradas",
    "fields": []
  },
  "leisure/beach_resort": {
    "name": "Balneario de playa",
    "fields": [
      {
        "key": "fee",
        "label": "Tarifado",
        "type": "check"
      },
      {
        "key": "payment_multi_fee",
        "label": null,
        "type": "multiCombo"
      },
      {
        "key": "charge_fee",
        "label": "Importe de la tarifa",
        "type": "text"
      }
    ]
  },
  "leisure/bandstand": {
    "name": "Quiosco de música",
    "fields": [
      {
        "key": "building_area_yes",
        "label": null,
        "type": "combo"
      },
      {
        "key": "operator",
        "label": "Operador",
        "type": "text"
      }
    ]
  },
  "leisure/amusement_arcade": {
    "name": "Sala recreativa de videojuegos",
    "fields": [
      {
        "key": "operator",
        "label": "Operador",
        "type": "text"
      },
      {
        "key": "building_area_yes",
        "label": null,
        "type": "combo"
      }
    ]
  },
  "leisure/adult_gaming_centre": {
    "name": "Centro de juegos para adultos",
    "fields": [
      {
        "key": "{amenity/casino}",
        "label": null,
        "type": ""
      }
    ]
  },
  "amenity/weighbridge": {
    "name": "Báscula de camiones",
    "fields": [
      {
        "key": "ref",
        "label": "Código de referencia",
        "type": "text"
      },
      {
        "key": "operator",
        "label": "Operador",
        "type": "text"
      },
      {
        "key": "access_simple",
        "label": "Acceso permitido",
        "type": "combo"
      },
      {
        "key": "maxweight",
        "label": "Peso máximo",
        "type": "combo"
      }
    ]
  },
  "amenity/veterinary": {
    "name": "Veterinario",
    "fields": [
      {
        "key": "operator",
        "label": "Operador",
        "type": "text"
      },
      {
        "key": "building_area_yes",
        "label": null,
        "type": "combo"
      }
    ]
  },
  "amenity/vehicle_inspection": {
    "name": "Inspección vehicular",
    "fields": [
      {
        "key": "operator",
        "label": "Operador",
        "type": "text"
      },
      {
        "key": "building_area_yes",
        "label": null,
        "type": "combo"
      }
    ]
  },
  "amenity/vacuum_cleaner": {
    "name": "Estación de limpieza con aspiradora",
    "fields": [
      {
        "key": "operator",
        "label": "Operador",
        "type": "text"
      },
      {
        "key": "access_simple",
        "label": "Acceso permitido",
        "type": "combo"
      },
      {
        "key": "fee",
        "label": "Tarifado",
        "type": "check"
      },
      {
        "key": "payment_multi_fee",
        "label": null,
        "type": "multiCombo"
      },
      {
        "key": "charge_fee",
        "label": "Importe de la tarifa",
        "type": "text"
      },
      {
        "key": "covered",
        "label": "Cubierto",
        "type": "check"
      },
      {
        "key": "lit",
        "label": "Iluminado",
        "type": "check"
      }
    ]
  },
  "amenity/university": {
    "name": "Terreno de universidad",
    "fields": [
      {
        "key": "{amenity/college}",
        "label": null,
        "type": ""
      }
    ]
  },
  "amenity/trolley_bay": {
    "name": "Corral de carritos",
    "fields": [
      {
        "key": "capacity",
        "label": "Capacidad",
        "type": "number"
      },
      {
        "key": "deposit/trolley",
        "label": "Depósito",
        "type": "check"
      },
      {
        "key": "payment_multi_fee",
        "label": null,
        "type": "multiCombo"
      }
    ]
  },
  "amenity/toy_library": {
    "name": "Biblioteca de juguetes",
    "fields": [
      {
        "key": "operator",
        "label": "Operador",
        "type": "text"
      },
      {
        "key": "building_area_yes",
        "label": null,
        "type": "combo"
      }
    ]
  },
  "amenity/townhall": {
    "name": "Ayuntamiento / Municipalidad",
    "fields": [
      {
        "key": "operator",
        "label": "Operador",
        "type": "text"
      },
      {
        "key": "townhall/type",
        "label": "Tipo",
        "type": "combo"
      },
      {
        "key": "building_area_yes",
        "label": null,
        "type": "combo"
      }
    ]
  },
  "amenity/ticket_validator": {
    "name": "Validador de boletos",
    "fields": [
      {
        "key": "ref",
        "label": "Código de referencia",
        "type": "text"
      },
      {
        "key": "operator",
        "label": "Operador",
        "type": "text"
      }
    ]
  },
  "amenity/theatre": {
    "name": "Teatro",
    "fields": [
      {
        "key": "operator",
        "label": "Operador",
        "type": "text"
      },
      {
        "key": "building_area_yes",
        "label": null,
        "type": "combo"
      }
    ]
  },
  "amenity/taxi": {
    "name": "Parada de taxi",
    "fields": [
      {
        "key": "operator",
        "label": "Operador",
        "type": "text"
      },
      {
        "key": "capacity",
        "label": "Capacidad",
        "type": "number"
      }
    ]
  },
  "amenity/studio": {
    "name": "Estudio de grabación",
    "fields": [
      {
        "key": "studio",
        "label": "Tipo",
        "type": "combo"
      },
      {
        "key": "building_area_yes",
        "label": null,
        "type": "combo"
      }
    ]
  },
  "amenity/stripclub": {
    "name": "Club de striptease",
    "fields": [
      {
        "key": "operator",
        "label": "Operador",
        "type": "text"
      },
      {
        "key": "building_area_yes",
        "label": null,
        "type": "combo"
      },
      {
        "key": "min_age",
        "label": "Edad mínima",
        "type": "number"
      },
      {
        "key": "smoking",
        "label": "Fumar",
        "type": "combo"
      }
    ]
  },
  "amenity/social_centre": {
    "name": "Centro social",
    "fields": [
      {
        "key": "brand",
        "label": "Marca",
        "type": "text"
      },
      {
        "key": "operator",
        "label": "Operador",
        "type": "text"
      },
      {
        "key": "operator/type",
        "label": "Tipo de operador",
        "type": "combo"
      },
      {
        "key": "building_area_yes",
        "label": null,
        "type": "combo"
      }
    ]
  },
  "amenity/smoking_area": {
    "name": "Área de fumadores",
    "fields": [
      {
        "key": "shelter",
        "label": "Refugio",
        "type": "check"
      },
      {
        "key": "bin",
        "label": "Papelera",
        "type": "check"
      },
      {
        "key": "bench",
        "label": "Banco / Asiento",
        "type": "check"
      }
    ]
  },
  "amenity/school": {
    "name": "Terreno de escuela / colegio",
    "fields": [
      {
        "key": "operator",
        "label": "Operador",
        "type": "text"
      },
      {
        "key": "operator/type",
        "label": "Tipo de operador",
        "type": "combo"
      },
      {
        "key": "grades",
        "label": "Niveles de grado",
        "type": "combo"
      },
      {
        "key": "religion",
        "label": "Religión",
        "type": "combo"
      },
      {
        "key": "denomination",
        "label": "Denominación",
        "type": "combo"
      }
    ]
  },
  "amenity/restaurant": {
    "name": "Restaurante",
    "fields": [
      {
        "key": "cuisine",
        "label": "Cocinas",
        "type": "semiCombo"
      },
      {
        "key": "diet_multi",
        "label": "Tipos de dieta",
        "type": "multiCombo"
      },
      {
        "key": "building_area_yes",
        "label": null,
        "type": "combo"
      }
    ]
  },
  "amenity/research_institute": {
    "name": "Terreno del Instituto de Investigación",
    "fields": [
      {
        "key": "operator",
        "label": "Operador",
        "type": "text"
      },
      {
        "key": "operator/type",
        "label": "Tipo de operador",
        "type": "combo"
      },
      {
        "key": "internet_access",
        "label": "Conexión a Internet",
        "type": "combo"
      },
      {
        "key": "internet_access/fee",
        "label": "Acceso a Internet",
        "type": "combo"
      }
    ]
  },
  "amenity/refugee_site": {
    "name": "Campamento de refugiados",
    "fields": [
      {
        "key": "operator",
        "label": "Operador",
        "type": "text"
      },
      {
        "key": "operator/type",
        "label": "Tipo de operador",
        "type": "combo"
      },
      {
        "key": "informal",
        "label": "Informal",
        "type": "check"
      },
      {
        "key": "start_date",
        "label": "Fecha de inicio",
        "type": "date"
      },
      {
        "key": "capacity",
        "label": "Capacidad",
        "type": "number"
      },
      {
        "key": "population",
        "label": "Cantidad de población",
        "type": "number"
      },
      {
        "key": "population/date",
        "label": "Fecha de la población",
        "type": "text"
      },
      {
        "key": "source/population",
        "label": "Fuente de la población",
        "type": "combo"
      }
    ]
  },
  "amenity/recycling_container": {
    "name": "Contenedor de reciclaje",
    "fields": [
      {
        "key": "operator",
        "label": "Operador",
        "type": "text"
      },
      {
        "key": "recycling_accepts",
        "label": "Acepta",
        "type": "multiCombo"
      },
      {
        "key": "collection_times",
        "label": "Horario de recolección",
        "type": "text"
      }
    ]
  },
  "amenity/recycling_centre": {
    "name": "Centro de reciclaje",
    "fields": [
      {
        "key": "operator",
        "label": "Operador",
        "type": "text"
      },
      {
        "key": "operator/type",
        "label": "Tipo de operador",
        "type": "combo"
      },
      {
        "key": "building",
        "label": "Edificio",
        "type": "combo"
      },
      {
        "key": "recycling_accepts",
        "label": "Acepta",
        "type": "multiCombo"
      }
    ]
  },
  "amenity/ranger_station": {
    "name": "Estación de guardaparques",
    "fields": [
      {
        "key": "operator",
        "label": "Operador",
        "type": "text"
      },
      {
        "key": "building_area_yes",
        "label": null,
        "type": "combo"
      }
    ]
  },
  "amenity/pub": {
    "name": "Pub (latam) / Bar (es)",
    "fields": [
      {
        "key": "building_area_yes",
        "label": null,
        "type": "combo"
      },
      {
        "key": "smoking",
        "label": "Fumar",
        "type": "combo"
      },
      {
        "key": "brewery",
        "label": "Cerveza de barril / tirada",
        "type": "semiCombo"
      }
    ]
  },
  "amenity/prison": {
    "name": "Terreno de prisión / cárcel",
    "fields": [
      {
        "key": "operator",
        "label": "Operador",
        "type": "text"
      },
      {
        "key": "operator/type",
        "label": "Tipo de operador",
        "type": "combo"
      }
    ]
  },
  "amenity/prep_school": {
    "name": "Preparación para exámenes / Escuela de tutoría",
    "fields": [
      {
        "key": "operator",
        "label": "Operador",
        "type": "text"
      },
      {
        "key": "building_area_yes",
        "label": null,
        "type": "combo"
      }
    ]
  },
  "amenity/post_office": {
    "name": "Oficina postal",
    "fields": [
      {
        "key": "operator",
        "label": "Operador",
        "type": "text"
      },
      {
        "key": "building_area_yes",
        "label": null,
        "type": "combo"
      }
    ]
  },
  "amenity/post_depot": {
    "name": "Oficina de clasificación de correos",
    "fields": [
      {
        "key": "operator",
        "label": "Operador",
        "type": "text"
      }
    ]
  },
  "amenity/polling_station": {
    "name": "Lugar de votación permanente",
    "fields": [
      {
        "key": "ref",
        "label": "Código de referencia",
        "type": "text"
      },
      {
        "key": "operator",
        "label": "Operador",
        "type": "text"
      },
      {
        "key": "building_area_yes",
        "label": null,
        "type": "combo"
      }
    ]
  },
  "amenity/police": {
    "name": "Policía",
    "fields": [
      {
        "key": "operator",
        "label": "Operador",
        "type": "text"
      },
      {
        "key": "building_area_yes",
        "label": null,
        "type": "combo"
      }
    ]
  },
  "amenity/planetarium": {
    "name": "Planetario",
    "fields": [
      {
        "key": "operator",
        "label": "Operador",
        "type": "text"
      },
      {
        "key": "building_area_yes",
        "label": null,
        "type": "combo"
      }
    ]
  },
  "amenity/photo_booth": {
    "name": "Cabina de fotos",
    "fields": [
      {
        "key": "operator",
        "label": "Operador",
        "type": "text"
      },
      {
        "key": "payment_multi",
        "label": "Formas de pago",
        "type": "multiCombo"
      }
    ]
  },
  "amenity/pharmacy": {
    "name": "Farmacia",
    "fields": [
      {
        "key": "operator",
        "label": "Operador",
        "type": "text"
      },
      {
        "key": "building_area_yes",
        "label": null,
        "type": "combo"
      },
      {
        "key": "dispensing",
        "label": "Prepara recetas",
        "type": "check"
      },
      {
        "key": "drive_through",
        "label": "Ventanilla de autoservicio",
        "type": "check"
      }
    ]
  },
  "amenity/payment_terminal": {
    "name": "Terminal de pago",
    "fields": [
      {
        "key": "brand",
        "label": "Marca",
        "type": "text"
      },
      {
        "key": "payment_multi",
        "label": "Formas de pago",
        "type": "multiCombo"
      }
    ]
  },
  "amenity/payment_centre": {
    "name": "Centro de pago",
    "fields": [
      {
        "key": "brand",
        "label": "Marca",
        "type": "text"
      },
      {
        "key": "building_area_yes",
        "label": null,
        "type": "combo"
      },
      {
        "key": "payment_multi",
        "label": "Formas de pago",
        "type": "multiCombo"
      }
    ]
  },
  "amenity/parcel_locker": {
    "name": "Casillero de paquetería",
    "fields": [
      {
        "key": "operator",
        "label": "Operador",
        "type": "text"
      },
      {
        "key": "parcel_pickup",
        "label": "Casillero para retiro de paquetería",
        "type": "check"
      },
      {
        "key": "parcel_dropoff",
        "label": "Casillero para envío de paquetería",
        "type": "check"
      },
      {
        "key": "payment_multi",
        "label": "Formas de pago",
        "type": "multiCombo"
      },
      {
        "key": "ref",
        "label": "Código de referencia",
        "type": "text"
      }
    ]
  },
  "amenity/nightclub": {
    "name": "Discoteca",
    "fields": [
      {
        "key": "operator",
        "label": "Operador",
        "type": "text"
      },
      {
        "key": "building_area_yes",
        "label": null,
        "type": "combo"
      },
      {
        "key": "min_age",
        "label": "Edad mínima",
        "type": "number"
      },
      {
        "key": "smoking",
        "label": "Fumar",
        "type": "combo"
      }
    ]
  },
  "amenity/music_school": {
    "name": "Escuela de música",
    "fields": [
      {
        "key": "operator",
        "label": "Operador",
        "type": "text"
      },
      {
        "key": "building_area_yes",
        "label": null,
        "type": "combo"
      }
    ]
  },
  "amenity/motorcycle_rental": {
    "name": "Alquiler de motos",
    "fields": [
      {
        "key": "operator",
        "label": "Operador",
        "type": "text"
      },
      {
        "key": "payment_multi",
        "label": "Formas de pago",
        "type": "multiCombo"
      }
    ]
  },
  "amenity/mortuary": {
    "name": "Morgue",
    "fields": [
      {
        "key": "operator",
        "label": "Operador",
        "type": "text"
      }
    ]
  },
  "amenity/money_transfer": {
    "name": "Estación de transferencia de dinero",
    "fields": [
      {
        "key": "brand",
        "label": "Marca",
        "type": "text"
      },
      {
        "key": "building_area_yes",
        "label": null,
        "type": "combo"
      },
      {
        "key": "payment_multi",
        "label": "Formas de pago",
        "type": "multiCombo"
      },
      {
        "key": "currency_multi",
        "label": "Tipos de moneda",
        "type": "multiCombo"
      }
    ]
  },
  "amenity/monastery": {
    "name": "Terreno del monasterio",
    "fields": [
      {
        "key": "religion",
        "label": "Religión",
        "type": "combo"
      },
      {
        "key": "denomination",
        "label": "Denominación",
        "type": "combo"
      }
    ]
  },
  "amenity/marketplace": {
    "name": "Mercado",
    "fields": [
      {
        "key": "operator",
        "label": "Operador",
        "type": "text"
      },
      {
        "key": "building",
        "label": "Edificio",
        "type": "combo"
      }
    ]
  },
  "amenity/love_hotel": {
    "name": "Hotel para parejas",
    "fields": [
      {
        "key": "operator",
        "label": "Operador",
        "type": "text"
      },
      {
        "key": "building_area_yes",
        "label": null,
        "type": "combo"
      },
      {
        "key": "rooms",
        "label": "Habitaciones",
        "type": "number"
      },
      {
        "key": "internet_access",
        "label": "Conexión a Internet",
        "type": "combo"
      },
      {
        "key": "internet_access/fee",
        "label": "Acceso a Internet",
        "type": "combo"
      },
      {
        "key": "internet_access/ssid",
        "label": "Nombre de la red wifi",
        "type": "text"
      }
    ]
  },
  "amenity/lounger": {
    "name": "Sillón de jardín / Tumbona",
    "fields": [
      {
        "key": "material",
        "label": "Material",
        "type": "combo"
      },
      {
        "key": "colour",
        "label": "Color",
        "type": "colour"
      },
      {
        "key": "access_simple",
        "label": "Acceso permitido",
        "type": "combo"
      },
      {
        "key": "lit",
        "label": "Iluminado",
        "type": "check"
      }
    ]
  },
  "amenity/loading_dock": {
    "name": "Muelle de carga",
    "fields": [
      {
        "key": "ref",
        "label": "Código de referencia",
        "type": "text"
      },
      {
        "key": "operator",
        "label": "Operador",
        "type": "text"
      },
      {
        "key": "access_simple",
        "label": "Acceso permitido",
        "type": "combo"
      },
      {
        "key": "door",
        "label": "Puerta",
        "type": "combo"
      },
      {
        "key": "width",
        "label": "Ancho (metros)",
        "type": "number"
      },
      {
        "key": "height",
        "label": "Altura (metros)",
        "type": "number"
      }
    ]
  },
  "amenity/library": {
    "name": "Biblioteca",
    "fields": [
      {
        "key": "operator",
        "label": "Operador",
        "type": "text"
      },
      {
        "key": "operator/type",
        "label": "Tipo de operador",
        "type": "combo"
      },
      {
        "key": "building_area_yes",
        "label": null,
        "type": "combo"
      },
      {
        "key": "ref/isil",
        "label": "Código ISIL",
        "type": "text"
      },
      {
        "key": "internet_access",
        "label": "Conexión a Internet",
        "type": "combo"
      },
      {
        "key": "internet_access/fee",
        "label": "Acceso a Internet",
        "type": "combo"
      },
      {
        "key": "internet_access/ssid",
        "label": "Nombre de la red wifi",
        "type": "text"
      }
    ]
  },
  "amenity/letter_box": {
    "name": "Buzón",
    "fields": [
      {
        "key": "post",
        "label": "Dirección de entrega",
        "type": "address"
      },
      {
        "key": "access_simple",
        "label": "Acceso permitido",
        "type": "combo"
      },
      {
        "key": "height",
        "label": "Altura (metros)",
        "type": "number"
      }
    ]
  },
  "amenity/lavoir": {
    "name": "Lavadero",
    "fields": [
      {
        "key": "operator",
        "label": "Operador",
        "type": "text"
      },
      {
        "key": "operator/type",
        "label": "Tipo de operador",
        "type": "combo"
      },
      {
        "key": "access_simple",
        "label": "Acceso permitido",
        "type": "combo"
      }
    ]
  },
  "amenity/language_school": {
    "name": "Escuela de idiomas",
    "fields": [
      {
        "key": "operator",
        "label": "Operador",
        "type": "text"
      },
      {
        "key": "operator/type",
        "label": "Tipo de operador",
        "type": "combo"
      },
      {
        "key": "building_area_yes",
        "label": null,
        "type": "combo"
      },
      {
        "key": "language_multi",
        "label": "Idiomas",
        "type": "multiCombo"
      }
    ]
  },
  "amenity/kneipp_water_cure": {
    "name": "Cura de agua Kneipp",
    "fields": [
      {
        "key": "kneipp_water_cure_multi",
        "label": "Tipos de cuenca",
        "type": "multiCombo"
      },
      {
        "key": "fee",
        "label": "Tarifado",
        "type": "check"
      }
    ]
  },
  "amenity/kindergarten": {
    "name": "Terreno de preescolar / jardín de infantes",
    "fields": [
      {
        "key": "operator",
        "label": "Operador",
        "type": "text"
      },
      {
        "key": "operator/type",
        "label": "Tipo de operador",
        "type": "combo"
      },
      {
        "key": "preschool",
        "label": "Preescolar",
        "type": "check"
      }
    ]
  },
  "amenity/karaoke_box": {
    "name": "Karaoke Box",
    "fields": [
      {
        "key": "operator",
        "label": "Operador",
        "type": "text"
      },
      {
        "key": "building_area_yes",
        "label": null,
        "type": "combo"
      }
    ]
  },
  "amenity/internet_cafe": {
    "name": "Cibercafé",
    "fields": [
      {
        "key": "operator",
        "label": "Operador",
        "type": "text"
      },
      {
        "key": "operator/type",
        "label": "Tipo de operador",
        "type": "combo"
      },
      {
        "key": "building_area_yes",
        "label": null,
        "type": "combo"
      },
      {
        "key": "internet_access",
        "label": "Conexión a Internet",
        "type": "combo"
      },
      {
        "key": "internet_access/fee",
        "label": "Acceso a Internet",
        "type": "combo"
      },
      {
        "key": "internet_access/ssid",
        "label": "Nombre de la red wifi",
        "type": "text"
      }
    ]
  },
  "amenity/ice_cream": {
    "name": "Heladería",
    "fields": [
      {
        "key": "building_area_yes",
        "label": null,
        "type": "combo"
      },
      {
        "key": "outdoor_seating",
        "label": "Asientos al aire libre",
        "type": "check"
      }
    ]
  },
  "amenity/hospital": {
    "name": "Terreno del hospital",
    "fields": [
      {
        "key": "operator",
        "label": "Operador",
        "type": "text"
      },
      {
        "key": "operator/type",
        "label": "Tipo de operador",
        "type": "combo"
      },
      {
        "key": "healthcare/speciality",
        "label": "Especialidades",
        "type": "semiCombo"
      },
      {
        "key": "emergency",
        "label": "Emergencia",
        "type": "check"
      }
    ]
  },
  "amenity/give_box": {
    "name": "Caja libre",
    "fields": [
      {
        "key": "operator",
        "label": "Operador",
        "type": "text"
      },
      {
        "key": "access_simple",
        "label": "Acceso permitido",
        "type": "combo"
      }
    ]
  },
  "amenity/gambling": {
    "name": "Salón de juegos de azar",
    "fields": [
      {
        "key": "{amenity/casino}",
        "label": null,
        "type": ""
      }
    ]
  },
  "amenity/fuel": {
    "name": "Estación de servicio / Gasolinera",
    "fields": [
      {
        "key": "brand",
        "label": "Marca",
        "type": "text"
      },
      {
        "key": "operator",
        "label": "Operador",
        "type": "text"
      },
      {
        "key": "fuel/fuel_multi",
        "label": "Tipos de combustible",
        "type": "multiCombo"
      },
      {
        "key": "fuel/fuel_multi-RU",
        "label": null,
        "type": "multiCombo"
      },
      {
        "key": "self_service",
        "label": "Autoservicio",
        "type": "check"
      }
    ]
  },
  "amenity/food_court": {
    "name": "Plaza de comida",
    "fields": [
      {
        "key": "operator",
        "label": "Operador",
        "type": "text"
      },
      {
        "key": "building_area_yes",
        "label": null,
        "type": "combo"
      },
      {
        "key": "internet_access",
        "label": "Conexión a Internet",
        "type": "combo"
      },
      {
        "key": "internet_access/fee",
        "label": "Acceso a Internet",
        "type": "combo"
      },
      {
        "key": "internet_access/ssid",
        "label": "Nombre de la red wifi",
        "type": "text"
      }
    ]
  },
  "amenity/fire_station": {
    "name": "Estación de bomberos",
    "fields": [
      {
        "key": "operator",
        "label": "Operador",
        "type": "text"
      }
    ]
  },
  "amenity/fast_food": {
    "name": "Comida rápida",
    "fields": [
      {
        "key": "cuisine",
        "label": "Cocinas",
        "type": "semiCombo"
      },
      {
        "key": "diet_multi",
        "label": "Tipos de dieta",
        "type": "multiCombo"
      },
      {
        "key": "operator",
        "label": "Operador",
        "type": "text"
      },
      {
        "key": "building_area_yes",
        "label": null,
        "type": "combo"
      },
      {
        "key": "drive_through",
        "label": "Ventanilla de autoservicio",
        "type": "check"
      }
    ]
  },
  "amenity/exhibition_centre": {
    "name": "Centro de exposiciones",
    "fields": [
      {
        "key": "operator",
        "label": "Operador",
        "type": "text"
      },
      {
        "key": "operator/type",
        "label": "Tipo de operador",
        "type": "combo"
      },
      {
        "key": "building_area_yes",
        "label": null,
        "type": "combo"
      },
      {
        "key": "internet_access",
        "label": "Conexión a Internet",
        "type": "combo"
      },
      {
        "key": "internet_access/fee",
        "label": "Acceso a Internet",
        "type": "combo"
      },
      {
        "key": "internet_access/ssid",
        "label": "Nombre de la red wifi",
        "type": "text"
      }
    ]
  },
  "amenity/events_venue": {
    "name": "Lugar de eventos",
    "fields": [
      {
        "key": "operator",
        "label": "Operador",
        "type": "text"
      },
      {
        "key": "building_area_yes",
        "label": null,
        "type": "combo"
      },
      {
        "key": "internet_access",
        "label": "Conexión a Internet",
        "type": "combo"
      },
      {
        "key": "internet_access/fee",
        "label": "Acceso a Internet",
        "type": "combo"
      },
      {
        "key": "internet_access/ssid",
        "label": "Nombre de la red wifi",
        "type": "text"
      }
    ]
  },
  "amenity/driving_school": {
    "name": "Escuela de conducción",
    "fields": [
      {
        "key": "operator",
        "label": "Operador",
        "type": "text"
      },
      {
        "key": "operator/type",
        "label": "Tipo de operador",
        "type": "combo"
      }
    ]
  },
  "amenity/driver_training": {
    "name": "Terreno para preparación de conductores",
    "fields": [
      {
        "key": "operator",
        "label": "Operador",
        "type": "text"
      },
      {
        "key": "operator/type",
        "label": "Tipo de operador",
        "type": "combo"
      }
    ]
  },
  "amenity/dressing_room": {
    "name": "Vestuario",
    "fields": [
      {
        "key": "operator",
        "label": "Operador",
        "type": "text"
      },
      {
        "key": "access_simple",
        "label": "Acceso permitido",
        "type": "combo"
      },
      {
        "key": "gender",
        "label": "Género",
        "type": "radio"
      }
    ]
  },
  "amenity/dojo": {
    "name": "Academia de artes marciales",
    "fields": [
      {
        "key": "sport",
        "label": "Deportes",
        "type": "semiCombo"
      },
      {
        "key": "building_area_yes",
        "label": null,
        "type": "combo"
      }
    ]
  },
  "amenity/doctors": {
    "name": "Médico",
    "fields": [
      {
        "key": "operator",
        "label": "Operador",
        "type": "text"
      },
      {
        "key": "healthcare/speciality",
        "label": "Especialidades",
        "type": "semiCombo"
      },
      {
        "key": "building_area_yes",
        "label": null,
        "type": "combo"
      }
    ]
  },
  "amenity/dive_centre": {
    "name": "Centro de buceo",
    "fields": [
      {
        "key": "operator",
        "label": "Operador",
        "type": "text"
      },
      {
        "key": "building_area_yes",
        "label": null,
        "type": "combo"
      },
      {
        "key": "scuba_diving",
        "label": "Servicios",
        "type": "multiCombo"
      }
    ]
  },
  "amenity/dentist": {
    "name": "Dentista",
    "fields": [
      {
        "key": "operator",
        "label": "Operador",
        "type": "text"
      },
      {
        "key": "healthcare/speciality",
        "label": "Especialidades",
        "type": "semiCombo"
      },
      {
        "key": "building_area_yes",
        "label": null,
        "type": "combo"
      }
    ]
  },
  "amenity/crematorium": {
    "name": "Crematorio",
    "fields": []
  },
  "amenity/courthouse": {
    "name": "Juzgado",
    "fields": [
      {
        "key": "operator",
        "label": "Operador",
        "type": "text"
      },
      {
        "key": "building_area_yes",
        "label": null,
        "type": "combo"
      }
    ]
  },
  "amenity/conference_centre": {
    "name": "Centro de convenciones",
    "fields": [
      {
        "key": "operator",
        "label": "Operador",
        "type": "text"
      },
      {
        "key": "operator/type",
        "label": "Tipo de operador",
        "type": "combo"
      },
      {
        "key": "building_area_yes",
        "label": null,
        "type": "combo"
      },
      {
        "key": "internet_access",
        "label": "Conexión a Internet",
        "type": "combo"
      },
      {
        "key": "internet_access/fee",
        "label": "Acceso a Internet",
        "type": "combo"
      },
      {
        "key": "internet_access/ssid",
        "label": "Nombre de la red wifi",
        "type": "text"
      }
    ]
  },
  "amenity/community_centre": {
    "name": "Centro Comunitario",
    "fields": [
      {
        "key": "operator",
        "label": "Operador",
        "type": "text"
      },
      {
        "key": "operator/type",
        "label": "Tipo de operador",
        "type": "combo"
      },
      {
        "key": "building_area_yes",
        "label": null,
        "type": "combo"
      }
    ]
  },
  "amenity/college": {
    "name": "Terreno de centro educativo superior no universitario",
    "fields": [
      {
        "key": "operator",
        "label": "Operador",
        "type": "text"
      },
      {
        "key": "operator/type",
        "label": "Tipo de operador",
        "type": "combo"
      },
      {
        "key": "internet_access",
        "label": "Conexión a Internet",
        "type": "combo"
      },
      {
        "key": "internet_access/fee",
        "label": "Acceso a Internet",
        "type": "combo"
      },
      {
        "key": "internet_access/ssid",
        "label": "Nombre de la red wifi",
        "type": "text"
      }
    ]
  },
  "amenity/clinic": {
    "name": "Clínica",
    "fields": [
      {
        "key": "operator",
        "label": "Operador",
        "type": "text"
      },
      {
        "key": "operator/type",
        "label": "Tipo de operador",
        "type": "combo"
      },
      {
        "key": "healthcare/speciality",
        "label": "Especialidades",
        "type": "semiCombo"
      },
      {
        "key": "building_area_yes",
        "label": null,
        "type": "combo"
      }
    ]
  },
  "amenity/cinema": {
    "name": "Cine",
    "fields": [
      {
        "key": "screen",
        "label": "Pantallas",
        "type": "number"
      },
      {
        "key": "building_area_yes",
        "label": null,
        "type": "combo"
      },
      {
        "key": "payment_multi",
        "label": "Formas de pago",
        "type": "multiCombo"
      }
    ]
  },
  "amenity/childcare": {
    "name": "Guardería/Cuidado de niños",
    "fields": [
      {
        "key": "operator",
        "label": "Operador",
        "type": "text"
      },
      {
        "key": "operator/type",
        "label": "Tipo de operador",
        "type": "combo"
      },
      {
        "key": "building_area_yes",
        "label": null,
        "type": "combo"
      }
    ]
  },
  "amenity/casino": {
    "name": "Casino",
    "fields": [
      {
        "key": "operator",
        "label": "Operador",
        "type": "text"
      },
      {
        "key": "building_area_yes",
        "label": null,
        "type": "combo"
      },
      {
        "key": "gambling",
        "label": "Juegos",
        "type": "semiCombo"
      },
      {
        "key": "smoking",
        "label": "Fumar",
        "type": "combo"
      }
    ]
  },
  "amenity/car_wash": {
    "name": "Lavado de automóviles",
    "fields": [
      {
        "key": "operator",
        "label": "Operador",
        "type": "text"
      },
      {
        "key": "building_area_yes",
        "label": null,
        "type": "combo"
      },
      {
        "key": "payment_multi",
        "label": "Formas de pago",
        "type": "multiCombo"
      },
      {
        "key": "self_service",
        "label": "Autoservicio",
        "type": "check"
      },
      {
        "key": "automated",
        "label": "Automático",
        "type": "check"
      }
    ]
  },
  "amenity/car_sharing": {
    "name": "Estación de uso temporal de vehículos (Carsharing)",
    "fields": [
      {
        "key": "operator",
        "label": "Operador",
        "type": "text"
      },
      {
        "key": "operator/type",
        "label": "Tipo de operador",
        "type": "combo"
      },
      {
        "key": "capacity",
        "label": "Capacidad",
        "type": "number"
      },
      {
        "key": "payment_multi",
        "label": "Formas de pago",
        "type": "multiCombo"
      },
      {
        "key": "supervised",
        "label": "Vigilado",
        "type": "check"
      }
    ]
  },
  "amenity/car_rental": {
    "name": "Alquiler de automóviles",
    "fields": [
      {
        "key": "operator",
        "label": "Operador",
        "type": "text"
      },
      {
        "key": "payment_multi",
        "label": "Formas de pago",
        "type": "multiCombo"
      }
    ]
  },
  "amenity/car_pooling": {
    "name": "Estación de vehículo compartido (Carpooling)",
    "fields": [
      {
        "key": "operator",
        "label": "Operador",
        "type": "text"
      },
      {
        "key": "operator/type",
        "label": "Tipo de operador",
        "type": "combo"
      },
      {
        "key": "capacity",
        "label": "Capacidad",
        "type": "number"
      },
      {
        "key": "lit",
        "label": "Iluminado",
        "type": "check"
      }
    ]
  },
  "amenity/cafe": {
    "name": "Cafetería",
    "fields": [
      {
        "key": "cuisine",
        "label": "Cocinas",
        "type": "semiCombo"
      },
      {
        "key": "building_area_yes",
        "label": null,
        "type": "combo"
      },
      {
        "key": "outdoor_seating",
        "label": "Asientos al aire libre",
        "type": "check"
      },
      {
        "key": "internet_access",
        "label": "Conexión a Internet",
        "type": "combo"
      },
      {
        "key": "internet_access/fee",
        "label": "Acceso a Internet",
        "type": "combo"
      },
      {
        "key": "internet_access/ssid",
        "label": "Nombre de la red wifi",
        "type": "text"
      }
    ]
  },
  "amenity/bureau_de_change": {
    "name": "Cambio de moneda",
    "fields": [
      {
        "key": "operator",
        "label": "Operador",
        "type": "text"
      },
      {
        "key": "payment_multi",
        "label": "Formas de pago",
        "type": "multiCombo"
      },
      {
        "key": "currency_multi",
        "label": "Tipos de moneda",
        "type": "multiCombo"
      }
    ]
  },
  "amenity/boat_storage": {
    "name": "Almacenamiento de barcos",
    "fields": [
      {
        "key": "operator",
        "label": "Operador",
        "type": "text"
      },
      {
        "key": "access_simple",
        "label": "Acceso permitido",
        "type": "combo"
      },
      {
        "key": "capacity",
        "label": "Capacidad",
        "type": "number"
      }
    ]
  },
  "amenity/boat_rental": {
    "name": "Alquiler de barcos",
    "fields": [
      {
        "key": "operator",
        "label": "Operador",
        "type": "text"
      },
      {
        "key": "operator/type",
        "label": "Tipo de operador",
        "type": "combo"
      },
      {
        "key": "fee",
        "label": "Tarifado",
        "type": "check"
      },
      {
        "key": "payment_multi_fee",
        "label": null,
        "type": "multiCombo"
      },
      {
        "key": "charge_fee",
        "label": "Importe de la tarifa",
        "type": "text"
      }
    ]
  },
  "amenity/binoculars": {
    "name": "Binoculares montados",
    "fields": [
      {
        "key": "operator",
        "label": "Operador",
        "type": "text"
      },
      {
        "key": "access_simple",
        "label": "Acceso permitido",
        "type": "combo"
      },
      {
        "key": "fee",
        "label": "Tarifado",
        "type": "check"
      },
      {
        "key": "payment_multi_fee",
        "label": null,
        "type": "multiCombo"
      },
      {
        "key": "charge_fee",
        "label": "Importe de la tarifa",
        "type": "text"
      },
      {
        "key": "direction",
        "label": "Dirección (grados en el sentido horario)",
        "type": "number"
      },
      {
        "key": "height",
        "label": "Altura (metros)",
        "type": "number"
      },
      {
        "key": "ele_node",
        "label": null,
        "type": "number"
      }
    ]
  },
  "amenity/biergarten": {
    "name": "Biergarten (Bar al aire libre)",
    "fields": [
      {
        "key": "outdoor_seating",
        "label": "Asientos al aire libre",
        "type": "check"
      },
      {
        "key": "brewery",
        "label": "Cerveza de barril / tirada",
        "type": "semiCombo"
      }
    ]
  },
  "amenity/bicycle_rental": {
    "name": "Alquiler de bicicletas",
    "fields": [
      {
        "key": "capacity",
        "label": "Capacidad",
        "type": "number"
      },
      {
        "key": "network",
        "label": "Red",
        "type": "text"
      },
      {
        "key": "operator",
        "label": "Operador",
        "type": "text"
      },
      {
        "key": "operator/type",
        "label": "Tipo de operador",
        "type": "combo"
      },
      {
        "key": "fee",
        "label": "Tarifado",
        "type": "check"
      },
      {
        "key": "payment_multi_fee",
        "label": null,
        "type": "multiCombo"
      }
    ]
  },
  "amenity/bar": {
    "name": "Bar (latam) / Bar de copas (es)",
    "fields": [
      {
        "key": "building_area_yes",
        "label": null,
        "type": "combo"
      },
      {
        "key": "min_age",
        "label": "Edad mínima",
        "type": "number"
      },
      {
        "key": "brewery",
        "label": "Cerveza de barril / tirada",
        "type": "semiCombo"
      }
    ]
  },
  "amenity/bank": {
    "name": "Banco",
    "fields": [
      {
        "key": "operator",
        "label": "Operador",
        "type": "text"
      },
      {
        "key": "building_area_yes",
        "label": null,
        "type": "combo"
      },
      {
        "key": "atm",
        "label": "Cajero automático",
        "type": "check"
      },
      {
        "key": "drive_through",
        "label": "Ventanilla de autoservicio",
        "type": "check"
      }
    ]
  },
  "amenity/arts_centre": {
    "name": "Centro de arte",
    "fields": [
      {
        "key": "building_area_yes",
        "label": null,
        "type": "combo"
      }
    ]
  },
  "amenity/animal_shelter": {
    "name": "Refugio de animales",
    "fields": [
      {
        "key": "operator",
        "label": "Operador",
        "type": "text"
      },
      {
        "key": "animal_shelter",
        "label": "Para animales",
        "type": "semiCombo"
      }
    ]
  },
  "amenity/animal_breeding": {
    "name": "Criadero de animales",
    "fields": [
      {
        "key": "operator",
        "label": "Operador",
        "type": "text"
      },
      {
        "key": "animal_breeding",
        "label": "Para animales",
        "type": "semiCombo"
      }
    ]
  },
  "amenity/animal_boarding": {
    "name": "Alojamiento de animales",
    "fields": [
      {
        "key": "operator",
        "label": "Operador",
        "type": "text"
      },
      {
        "key": "animal_boarding",
        "label": "Para animales",
        "type": "semiCombo"
      }
    ]
  },
  "amenity/nursing_home": {
    "name": "Residencia de ancianos",
    "fields": [
      {
        "key": "{amenity/social_facility}",
        "label": null,
        "type": ""
      }
    ]
  },
  "amenity/ferry_terminal": {
    "name": "Terminal de ferry",
    "fields": [
      {
        "key": "network",
        "label": "Red",
        "type": "text"
      },
      {
        "key": "operator",
        "label": "Operador",
        "type": "text"
      }
    ]
  },
  "amenity/embassy": {
    "name": "Embajada",
    "fields": [
      {
        "key": "country",
        "label": "País",
        "type": "combo"
      },
      {
        "key": "building_area_yes",
        "label": null,
        "type": "combo"
      }
    ]
  },
  "amenity/bus_station": {
    "name": "Estación / Terminal de bus",
    "fields": [
      {
        "key": "operator",
        "label": "Operador",
        "type": "text"
      },
      {
        "key": "internet_access",
        "label": "Conexión a Internet",
        "type": "combo"
      },
      {
        "key": "internet_access/fee",
        "label": "Acceso a Internet",
        "type": "combo"
      },
      {
        "key": "internet_access/ssid",
        "label": "Nombre de la red wifi",
        "type": "text"
      }
    ]
  }
}