{
  "tourism/zoo": {
    "name": "Dierentuin",
    "fields": [
      {
        "key": "operator",
        "label": "Uitbatende organisatie",
        "type": "text"
      },
      {
        "key": "fee",
        "label": "Betalend",
        "type": "check"
      },
      {
        "key": "charge_fee",
        "label": "Tarief",
        "type": "text"
      }
    ]
  },
  "tourism/wilderness_hut": {
    "name": "Onbemande hut in wildernis",
    "fields": [
      {
        "key": "operator",
        "label": "Uitbatende organisatie",
        "type": "text"
      },
      {
        "key": "building_area_yes",
        "label": null,
        "type": "combo"
      },
      {
        "key": "access_simple",
        "label": "Gebruik toegelaten voor",
        "type": "combo"
      },
      {
        "key": "fee",
        "label": "Betalend",
        "type": "check"
      },
      {
        "key": "payment_multi_fee",
        "label": null,
        "type": "multiCombo"
      },
      {
        "key": "charge_fee",
        "label": "Tarief",
        "type": "text"
      },
      {
        "key": "fireplace",
        "label": "Haard",
        "type": "check"
      }
    ]
  },
  "tourism/trail_riding_station": {
    "name": "Ruiterlogies",
    "fields": [
      {
        "key": "horse_stables",
        "label": "Rijstal",
        "type": "check"
      },
      {
        "key": "horse_riding",
        "label": "Paardrijden",
        "type": "check"
      },
      {
        "key": "horse_dressage",
        "label": "Dressuur",
        "type": "check"
      }
    ]
  },
  "tourism/theme_park": {
    "name": "Themapark",
    "fields": [
      {
        "key": "operator",
        "label": "Uitbatende organisatie",
        "type": "text"
      }
    ]
  },
  "tourism/museum": {
    "name": "Museum",
    "fields": [
      {
        "key": "operator",
        "label": "Uitbatende organisatie",
        "type": "text"
      },
      {
        "key": "operator/type",
        "label": "Type operator",
        "type": "combo"
      },
      {
        "key": "museum",
        "label": "Type",
        "type": "combo"
      },
      {
        "key": "building_area_yes",
        "label": null,
        "type": "combo"
      }
    ]
  },
  "tourism/motel": {
    "name": "Motel",
    "fields": [
      {
        "key": "brand",
        "label": "Merk",
        "type": "text"
      },
      {
        "key": "email",
        "label": "E-mail",
        "type": "email"
      },
      {
        "key": "building_area_yes",
        "label": null,
        "type": "combo"
      },
      {
        "key": "rooms",
        "label": "Aantal kamers",
        "type": "number"
      },
      {
        "key": "internet_access",
        "label": "Internetverbinding",
        "type": "combo"
      },
      {
        "key": "internet_access/fee",
        "label": "Internettoegang",
        "type": "combo"
      }
    ]
  },
  "tourism/hotel": {
    "name": "Hotel",
    "fields": [
      {
        "key": "{tourism/motel}",
        "label": null,
        "type": ""
      }
    ]
  },
  "tourism/hostel": {
    "name": "Jeugdherberg",
    "fields": [
      {
        "key": "{tourism/guest_house}",
        "label": null,
        "type": ""
      }
    ]
  },
  "tourism/guest_house": {
    "name": "Pension",
    "fields": [
      {
        "key": "operator",
        "label": "Uitbatende organisatie",
        "type": "text"
      },
      {
        "key": "guest_house",
        "label": "Type",
        "type": "combo"
      },
      {
        "key": "email",
        "label": "E-mail",
        "type": "email"
      },
      {
        "key": "building_area_yes",
        "label": null,
        "type": "combo"
      },
      {
        "key": "rooms",
        "label": "Aantal kamers",
        "type": "number"
      },
      {
        "key": "internet_access",
        "label": "Internetverbinding",
        "type": "combo"
      },
      {
        "key": "internet_access/fee",
        "label": "Internettoegang",
        "type": "combo"
      }
    ]
  },
  "tourism/gallery": {
    "name": "Kunstgalerij",
    "fields": [
      {
        "key": "operator",
        "label": "Uitbatende organisatie",
        "type": "text"
      },
      {
        "key": "building_area_yes",
        "label": null,
        "type": "combo"
      }
    ]
  },
  "tourism/chalet": {
    "name": "Vakantiehuisje",
    "fields": [
      {
        "key": "operator",
        "label": "Uitbatende organisatie",
        "type": "text"
      },
      {
        "key": "email",
        "label": "E-mail",
        "type": "email"
      },
      {
        "key": "building_area_yes",
        "label": null,
        "type": "combo"
      },
      {
        "key": "internet_access",
        "label": "Internetverbinding",
        "type": "combo"
      },
      {
        "key": "internet_access/fee",
        "label": "Internettoegang",
        "type": "combo"
      }
    ]
  },
  "tourism/caravan_site": {
    "name": "Caravan-/kampeerwagenterrein",
    "fields": [
      {
        "key": "capacity/caravans",
        "label": "Capaciteit (camper/caravan)",
        "type": "number"
      },
      {
        "key": "sanitary_dump_station",
        "label": "Toilet-afvoer",
        "type": "check"
      },
      {
        "key": "power_supply",
        "label": "Stroomvoorziening",
        "type": "check"
      },
      {
        "key": "internet_access",
        "label": "Internetverbinding",
        "type": "combo"
      },
      {
        "key": "internet_access/fee",
        "label": "Internettoegang",
        "type": "combo"
      }
    ]
  },
  "tourism/camp_site": {
    "name": "Camping",
    "fields": [
      {
        "key": "operator",
        "label": "Uitbatende organisatie",
        "type": "text"
      },
      {
        "key": "access_simple",
        "label": "Gebruik toegelaten voor",
        "type": "combo"
      },
      {
        "key": "capacity/persons",
        "label": "Capaciteit (personen)",
        "type": "number"
      },
      {
        "key": "tents",
        "label": null,
        "type": "check"
      },
      {
        "key": "capacity/tents",
        "label": "Capaciteit (tenten)",
        "type": "number"
      },
      {
        "key": "caravans",
        "label": "Camper / Caravan",
        "type": "check"
      },
      {
        "key": "capacity/caravans",
        "label": "Capaciteit (camper/caravan)",
        "type": "number"
      },
      {
        "key": "static_caravans",
        "label": "Woonwagen",
        "type": "check"
      },
      {
        "key": "fee",
        "label": "Betalend",
        "type": "check"
      },
      {
        "key": "payment_multi_fee",
        "label": null,
        "type": "multiCombo"
      },
      {
        "key": "charge_fee",
        "label": "Tarief",
        "type": "text"
      }
    ]
  },
  "tourism/camp_pitch": {
    "name": "Staplaats (camping)",
    "fields": [
      {
        "key": "ref",
        "label": "Referentiecode",
        "type": "text"
      }
    ]
  },
  "tourism/attraction": {
    "name": "Toeristische attractie",
    "fields": [
      {
        "key": "operator",
        "label": "Uitbatende organisatie",
        "type": "text"
      }
    ]
  },
  "tourism/aquarium": {
    "name": "Aquarium",
    "fields": [
      {
        "key": "operator",
        "label": "Uitbatende organisatie",
        "type": "text"
      },
      {
        "key": "building_area_yes",
        "label": null,
        "type": "combo"
      }
    ]
  },
  "tourism/apartment": {
    "name": "Vakantieappartement",
    "fields": [
      {
        "key": "operator",
        "label": "Uitbatende organisatie",
        "type": "text"
      },
      {
        "key": "email",
        "label": "E-mail",
        "type": "email"
      },
      {
        "key": "building_area_yes",
        "label": null,
        "type": "combo"
      },
      {
        "key": "rooms",
        "label": "Aantal kamers",
        "type": "number"
      },
      {
        "key": "internet_access",
        "label": "Internetverbinding",
        "type": "combo"
      },
      {
        "key": "internet_access/fee",
        "label": "Internettoegang",
        "type": "combo"
      }
    ]
  },
  "tourism/alpine_hut": {
    "name": "Berghut",
    "fields": [
      {
        "key": "operator",
        "label": "Uitbatende organisatie",
        "type": "text"
      },
      {
        "key": "building_area_yes",
        "label": null,
        "type": "combo"
      },
      {
        "key": "internet_access",
        "label": "Internetverbinding",
        "type": "combo"
      },
      {
        "key": "internet_access/fee",
        "label": "Internettoegang",
        "type": "combo"
      },
      {
        "key": "fee",
        "label": "Betalend",
        "type": "check"
      },
      {
        "key": "payment_multi_fee",
        "label": null,
        "type": "multiCombo"
      },
      {
        "key": "charge_fee",
        "label": "Tarief",
        "type": "text"
      }
    ]
  },
  "shop/wine": {
    "name": "Wijnhandel",
    "fields": []
  },
  "shop/window_blind": {
    "name": "Jaloeziewinkel",
    "fields": []
  },
  "shop/wigs": {
    "name": "Pruikenwinkel",
    "fields": []
  },
  "shop/wholesale": {
    "name": "Groothandel",
    "fields": [
      {
        "key": "{shop}",
        "label": null,
        "type": ""
      },
      {
        "key": "wholesale",
        "label": "Groothandel",
        "type": "typeCombo"
      }
    ]
  },
  "shop/weapons": {
    "name": "Wapenwinkel",
    "fields": []
  },
  "shop/water_sports": {
    "name": "Watersport-/Zwemwinkel",
    "fields": []
  },
  "shop/water": {
    "name": "Drinkwaterwinkel",
    "fields": []
  },
  "shop/watches": {
    "name": "Horlogewinkel",
    "fields": []
  },
  "shop/video_games": {
    "name": "Computerspelwinkel",
    "fields": []
  },
  "shop/video": {
    "name": "Videotheek",
    "fields": []
  },
  "shop/variety_store": {
    "name": "Discountwinkel",
    "fields": []
  },
  "shop/vacuum_cleaner": {
    "name": "Stofzuigerwinkel",
    "fields": []
  },
  "shop/tyres": {
    "name": "Bandenwinkel",
    "fields": []
  },
  "shop/trophy": {
    "name": "Trofeewinkel",
    "fields": []
  },
  "shop/travel_agency": {
    "name": "Reisbureau",
    "fields": []
  },
  "shop/trade": {
    "name": "Bouwmaterialenhandel",
    "fields": [
      {
        "key": "trade",
        "label": "Type",
        "type": "typeCombo"
      },
      {
        "key": "{shop}",
        "label": null,
        "type": ""
      }
    ]
  },
  "shop/toys": {
    "name": "Speelgoedwinkel",
    "fields": []
  },
  "shop/tool_hire": {
    "name": "Gereedschapsverhuur",
    "fields": []
  },
  "shop/tobacco": {
    "name": "Tabakswinkel",
    "fields": []
  },
  "shop/tiles": {
    "name": "Tegelwinkel",
    "fields": []
  },
  "shop/ticket": {
    "name": "Ticketverkoop",
    "fields": []
  },
  "shop/telecommunication": {
    "name": "Telecomwinkel",
    "fields": []
  },
  "shop/tea": {
    "name": "Theewinkel",
    "fields": []
  },
  "shop/tattoo": {
    "name": "Tattoozetter",
    "fields": []
  },
  "shop/tailor": {
    "name": "Kleermaker",
    "fields": []
  },
  "shop/swimming_pool": {
    "name": "Winkel voor zwembadbenodigdheden",
    "fields": []
  },
  "shop/supermarket": {
    "name": "Supermarkt",
    "fields": []
  },
  "shop/storage_rental": {
    "name": "Zelfopslag",
    "fields": []
  },
  "shop/stationery": {
    "name": "Kantoorboekhandel",
    "fields": []
  },
  "shop/sports": {
    "name": "Sportzaak",
    "fields": [
      {
        "key": "operator",
        "label": "Uitbatende organisatie",
        "type": "text"
      },
      {
        "key": "sport",
        "label": "Sporten",
        "type": "semiCombo"
      },
      {
        "key": "{shop}",
        "label": null,
        "type": ""
      }
    ]
  },
  "shop/spices": {
    "name": "Kruidenwinkel",
    "fields": []
  },
  "shop/shoes": {
    "name": "Schoenenwinkel",
    "fields": [
      {
        "key": "shoes",
        "label": null,
        "type": "semiCombo"
      },
      {
        "key": "{shop}",
        "label": null,
        "type": ""
      }
    ]
  },
  "shop/shoe_repair": {
    "name": "Schoenenreparatiewinkel",
    "fields": []
  },
  "shop/sewing": {
    "name": "Naaiwinkel",
    "fields": []
  },
  "shop/second_hand": {
    "name": "Tweedehandswinkel",
    "fields": [
      {
        "key": "{shop}",
        "label": null,
        "type": ""
      },
      {
        "key": "second_hand",
        "label": "Verkoopt tweedehands",
        "type": "combo"
      }
    ]
  },
  "shop/seafood": {
    "name": "Viswinkel",
    "fields": []
  },
  "shop/scuba_diving": {
    "name": "Duikwinkel",
    "fields": [
      {
        "key": "{shop}",
        "label": null,
        "type": ""
      },
      {
        "key": "scuba_diving",
        "label": "Diensten",
        "type": "multiCombo"
      }
    ]
  },
  "shop/repair": {
    "name": "Reparatiewinkel",
    "fields": []
  },
  "shop/rental": {
    "name": "Verhuurwinkel",
    "fields": []
  },
  "shop/religion": {
    "name": "Religieuze winkel",
    "fields": [
      {
        "key": "{shop}",
        "label": null,
        "type": ""
      },
      {
        "key": "religion",
        "label": "Religie",
        "type": "combo"
      },
      {
        "key": "denomination",
        "label": "Geloofsrichting",
        "type": "combo"
      }
    ]
  },
  "shop/radiotechnics": {
    "name": "Winkel voor radio- en elektronische componenten",
    "fields": []
  },
  "shop/pyrotechnics": {
    "name": "Vuurwerkwinkel",
    "fields": []
  },
  "shop/psychic": {
    "name": "Medium (esoterie)",
    "fields": []
  },
  "shop/printer_ink": {
    "name": "Winkel voor printerinkt",
    "fields": []
  },
  "shop/pottery": {
    "name": "Winkel voor aardewerk",
    "fields": []
  },
  "shop/photo": {
    "name": "Fotowinkel",
    "fields": []
  },
  "shop/pet": {
    "name": "Dierenwinkel",
    "fields": []
  },
  "shop/perfumery": {
    "name": "Parfumwinkel",
    "fields": []
  },
  "shop/pawnbroker": {
    "name": "Pandjeshuis",
    "fields": []
  },
  "shop/pastry": {
    "name": "Patisserie",
    "fields": []
  },
  "shop/party": {
    "name": "Feestwinkel",
    "fields": []
  },
  "shop/paint": {
    "name": "Verfwinkel",
    "fields": []
  },
  "shop/outpost": {
    "name": "Voorpost van een online retailer",
    "fields": []
  },
  "shop/outdoor": {
    "name": "Buitensportwinkel",
    "fields": [
      {
        "key": "{shop}",
        "label": null,
        "type": ""
      }
    ]
  },
  "shop/optician": {
    "name": "Opticien",
    "fields": []
  },
  "shop/nutrition_supplements": {
    "name": "Voedingssupplementenwinkel",
    "fields": []
  },
  "shop/newsagent": {
    "name": "Krantenkiosk",
    "fields": []
  },
  "shop/musical_instrument": {
    "name": "Muziekinstrumentenwinkel",
    "fields": []
  },
  "shop/music": {
    "name": "Muziekwinkel",
    "fields": []
  },
  "shop/motorcycle_repair": {
    "name": "Motorreparatie",
    "fields": [
      {
        "key": "{shop}",
        "label": null,
        "type": ""
      },
      {
        "key": "service/vehicle",
        "label": "Diensten",
        "type": "multiCombo"
      }
    ]
  },
  "shop/motorcycle": {
    "name": "Motorwinkel",
    "fields": [
      {
        "key": "brand",
        "label": "Merk",
        "type": "text"
      },
      {
        "key": "{shop}",
        "label": null,
        "type": ""
      }
    ]
  },
  "shop/money_lender": {
    "name": "Particuliere Gelduitleendienst",
    "fields": [
      {
        "key": "{shop}",
        "label": null,
        "type": ""
      },
      {
        "key": "currency_multi",
        "label": "Valuta",
        "type": "multiCombo"
      }
    ]
  },
  "shop/model": {
    "name": "Modelwinkel",
    "fields": []
  },
  "shop/mobile_phone": {
    "name": "Mobieletelefoonwinkel",
    "fields": []
  },
  "shop/military_surplus": {
    "name": "Legerdump",
    "fields": []
  },
  "shop/medical_supply": {
    "name": "Winkel voor medische hulpmiddelen",
    "fields": []
  },
  "shop/massage": {
    "name": "Massagewinkel",
    "fields": []
  },
  "shop/mall": {
    "name": "Winkelcentrum",
    "fields": []
  },
  "shop/lottery": {
    "name": "Loterij",
    "fields": []
  },
  "shop/locksmith": {
    "name": "Slotenmaker",
    "fields": []
  },
  "shop/lighting": {
    "name": "Verlichtingswinkel",
    "fields": []
  },
  "shop/leather": {
    "name": "Lederwinkel",
    "fields": []
  },
  "shop/laundry": {
    "name": "Wasserette",
    "fields": [
      {
        "key": "{shop}",
        "label": null,
        "type": ""
      },
      {
        "key": "self_service",
        "label": "Zelfbediening",
        "type": "check"
      }
    ]
  },
  "shop/kitchen": {
    "name": "Keukenontwerpwinkel",
    "fields": []
  },
  "shop/kiosk": {
    "name": "Winkelkiosk",
    "fields": []
  },
  "shop/jewelry": {
    "name": "Juwelierszaak",
    "fields": []
  },
  "shop/interior_decoration": {
    "name": "Binnenhuisdecoratiewinkel",
    "fields": []
  },
  "shop/hunting": {
    "name": "Jachtwinkel",
    "fields": []
  },
  "shop/houseware": {
    "name": "Huisraadwinkel",
    "fields": []
  },
  "shop/household_linen": {
    "name": "Winkel voor huishoudelijk linnen",
    "fields": []
  },
  "shop/hifi": {
    "name": "Hifi-/Bruingoedwinkel",
    "fields": []
  },
  "shop/herbalist": {
    "name": "Herbalist",
    "fields": []
  },
  "shop/hearing_aids": {
    "name": "Hoorapparatenwinkel",
    "fields": []
  },
  "shop/health_food": {
    "name": "Natuurvoedingswinkel",
    "fields": []
  },
  "shop/hardware": {
    "name": "Bouwmarkt",
    "fields": []
  },
  "shop/hairdresser_supply": {
    "name": "Haarbenodigdhedenwinkel",
    "fields": []
  },
  "shop/hairdresser": {
    "name": "Kapper",
    "fields": [
      {
        "key": "operator",
        "label": "Uitbatende organisatie",
        "type": "text"
      },
      {
        "key": "building_area_yes",
        "label": null,
        "type": "combo"
      },
      {
        "key": "payment_multi",
        "label": "Betalingsmiddelen",
        "type": "multiCombo"
      },
      {
        "key": "gender",
        "label": "Geslacht",
        "type": "radio"
      }
    ]
  },
  "shop/greengrocer": {
    "name": "Groenteboer",
    "fields": [
      {
        "key": "{shop}",
        "label": null,
        "type": ""
      },
      {
        "key": "organic",
        "label": "Biologische producten",
        "type": "combo"
      }
    ]
  },
  "shop/gift": {
    "name": "Cadeauwinkel",
    "fields": []
  },
  "shop/general": {
    "name": "Algemene winkel",
    "fields": []
  },
  "shop/gas": {
    "name": "Gasflessenwinkel",
    "fields": []
  },
  "shop/garden_centre": {
    "name": "Tuincentrum",
    "fields": []
  },
  "shop/games": {
    "name": "Bordspellenwinkel",
    "fields": []
  },
  "shop/furniture": {
    "name": "Meubelzaak",
    "fields": []
  },
  "shop/funeral_directors": {
    "name": "Begrafenisondernemer",
    "fields": [
      {
        "key": "{shop}",
        "label": null,
        "type": ""
      },
      {
        "key": "religion",
        "label": "Religie",
        "type": "combo"
      },
      {
        "key": "denomination",
        "label": "Geloofsrichting",
        "type": "combo"
      }
    ]
  },
  "shop/fuel": {
    "name": "Brandstofwinkel",
    "fields": [
      {
        "key": "{shop}",
        "label": null,
        "type": ""
      },
      {
        "key": "fuel/fuel_multi",
        "label": "Brandstofsoorten",
        "type": "multiCombo"
      }
    ]
  },
  "shop/frozen_food": {
    "name": "Winkel voor bevroren voedsel",
    "fields": []
  },
  "shop/frame": {
    "name": "Kaderwinkel",
    "fields": []
  },
  "shop/florist": {
    "name": "Bloemenwinkel",
    "fields": []
  },
  "shop/flooring": {
    "name": "Vloerwinkel",
    "fields": []
  },
  "shop/fishing": {
    "name": "Hengelsportwinkel",
    "fields": []
  },
  "shop/fireplace": {
    "name": "Haardwinkel",
    "fields": []
  },
  "shop/fashion_accessories": {
    "name": "Modeaccessoirewinkel",
    "fields": [
      {
        "key": "clothes",
        "label": "Kleding",
        "type": "semiCombo"
      },
      {
        "key": "{shop}",
        "label": null,
        "type": ""
      }
    ]
  },
  "shop/farm": {
    "name": "Boerderijwinkel voor groente en fruit",
    "fields": [
      {
        "key": "{shop}",
        "label": null,
        "type": ""
      },
      {
        "key": "organic",
        "label": "Biologische producten",
        "type": "combo"
      }
    ]
  },
  "shop/fabric": {
    "name": "Stofwinkel",
    "fields": []
  },
  "shop/erotic": {
    "name": "Seksshop",
    "fields": [
      {
        "key": "{shop}",
        "label": null,
        "type": ""
      },
      {
        "key": "min_age",
        "label": "Minimum leeftijd",
        "type": "number"
      }
    ]
  },
  "shop/electronics": {
    "name": "Huishoudtoestellen-/Witgoedwinkel",
    "fields": []
  },
  "shop/electrical": {
    "name": "Winkel voor elektriciteitsbenodigdheden",
    "fields": []
  },
  "shop/e-cigarette": {
    "name": "E-sigarettenwinkel",
    "fields": []
  },
  "shop/dry_cleaning": {
    "name": "Stomerij",
    "fields": []
  },
  "shop/doors": {
    "name": "Deurenwinkel",
    "fields": []
  },
  "shop/doityourself": {
    "name": "Bouwmarkt, doe-het-zelfwinkel",
    "fields": []
  },
  "shop/department_store": {
    "name": "Warenhuis",
    "fields": []
  },
  "shop/deli": {
    "name": "Delicatessen",
    "fields": []
  },
  "shop/dairy": {
    "name": "Zuivelhandel",
    "fields": []
  },
  "shop/curtain": {
    "name": "Gordijnenwinkel",
    "fields": []
  },
  "shop/craft": {
    "name": "Winkel voor schilder- en tekengereedschap",
    "fields": []
  },
  "shop/country_store": {
    "name": "Plattelandswinkel",
    "fields": []
  },
  "shop/cosmetics": {
    "name": "Cosmeticawinkel",
    "fields": []
  },
  "shop/copyshop": {
    "name": "Copyshop",
    "fields": []
  },
  "shop/convenience": {
    "name": "Gemakswinkel",
    "fields": []
  },
  "shop/confectionery": {
    "name": "Snoepwinkel",
    "fields": []
  },
  "shop/computer": {
    "name": "Computerwinkel",
    "fields": []
  },
  "shop/collector": {
    "name": "Winkel voor verzamelobjecten",
    "fields": [
      {
        "key": "collector",
        "label": "Voorwerpen",
        "type": "semiCombo"
      },
      {
        "key": "{shop}",
        "label": null,
        "type": ""
      }
    ]
  },
  "shop/coffee": {
    "name": "Koffiewinkel",
    "fields": []
  },
  "shop/clothes": {
    "name": "Kledingzaak",
    "fields": [
      {
        "key": "clothes",
        "label": "Kleding",
        "type": "semiCombo"
      },
      {
        "key": "{shop}",
        "label": null,
        "type": ""
      }
    ]
  },
  "shop/chocolate": {
    "name": "Chocoladewinkel",
    "fields": []
  },
  "shop/chemist": {
    "name": "Drogisterij",
    "fields": []
  },
  "shop/cheese": {
    "name": "Kaaswinkel",
    "fields": []
  },
  "shop/charity": {
    "name": "Winkel van goed doel",
    "fields": [
      {
        "key": "{shop}",
        "label": null,
        "type": ""
      },
      {
        "key": "second_hand",
        "label": "Verkoopt tweedehands",
        "type": "combo"
      }
    ]
  },
  "shop/catalogue": {
    "name": "Cataloguswinkel",
    "fields": []
  },
  "shop/carpet": {
    "name": "Tapijtwinkel",
    "fields": []
  },
  "shop/caravan": {
    "name": "Caravan-dealer",
    "fields": [
      {
        "key": "brand",
        "label": "Merk",
        "type": "text"
      },
      {
        "key": "{shop}",
        "label": null,
        "type": ""
      },
      {
        "key": "second_hand",
        "label": "Verkoopt tweedehands",
        "type": "combo"
      },
      {
        "key": "service/vehicle",
        "label": "Diensten",
        "type": "multiCombo"
      }
    ]
  },
  "shop/car_repair": {
    "name": "Autogarage",
    "fields": [
      {
        "key": "{shop}",
        "label": null,
        "type": ""
      },
      {
        "key": "service/vehicle",
        "label": "Diensten",
        "type": "multiCombo"
      }
    ]
  },
  "shop/car_parts": {
    "name": "Auto-onderdelenwinkel",
    "fields": []
  },
  "shop/car": {
    "name": "Autoshowroom",
    "fields": [
      {
        "key": "brand",
        "label": "Merk",
        "type": "text"
      },
      {
        "key": "{shop}",
        "label": null,
        "type": ""
      },
      {
        "key": "second_hand",
        "label": "Verkoopt tweedehands",
        "type": "combo"
      },
      {
        "key": "service/vehicle",
        "label": "Diensten",
        "type": "multiCombo"
      }
    ]
  },
  "shop/cannabis": {
    "name": "Cannabiswinkel",
    "fields": []
  },
  "shop/candles": {
    "name": "Kaarsenwinkel",
    "fields": []
  },
  "shop/camera": {
    "name": "Winkel voor camerabenodigdheden",
    "fields": []
  },
  "shop/butcher": {
    "name": "Slagerij",
    "fields": []
  },
  "shop/brewing_supplies": {
    "name": "Winkel voor brouwbenodigdheden",
    "fields": []
  },
  "shop/books": {
    "name": "Boekenwinkel",
    "fields": [
      {
        "key": "{shop}",
        "label": null,
        "type": ""
      },
      {
        "key": "internet_access",
        "label": "Internetverbinding",
        "type": "combo"
      }
    ]
  },
  "shop/bookmaker": {
    "name": "Bookmaker (gokkantoor)",
    "fields": []
  },
  "shop/boat": {
    "name": "Bootwinkel",
    "fields": []
  },
  "shop/bicycle": {
    "name": "Fietswinkel",
    "fields": [
      {
        "key": "{shop}",
        "label": null,
        "type": ""
      },
      {
        "key": "service/bicycle",
        "label": "Diensten voor fietsen",
        "type": "multiCombo"
      }
    ]
  },
  "shop/beverages": {
    "name": "Drankenwinkel",
    "fields": []
  },
  "shop/bed": {
    "name": "Bed-/Matrassenwinkel",
    "fields": []
  },
  "shop/beauty": {
    "name": "Schoonheidssalon",
    "fields": [
      {
        "key": "{shop}",
        "label": null,
        "type": ""
      },
      {
        "key": "beauty",
        "label": "Diensten",
        "type": "semiCombo"
      }
    ]
  },
  "shop/bathroom_furnishing": {
    "name": "Badkamermeubelwinkel",
    "fields": []
  },
  "shop/bakery": {
    "name": "Bakkerij",
    "fields": []
  },
  "shop/bag": {
    "name": "Zak-/Reiskofferwinkel",
    "fields": []
  },
  "shop/baby_goods": {
    "name": "Babyartikelenwinkel",
    "fields": []
  },
  "shop/art": {
    "name": "Kunstwinkel",
    "fields": []
  },
  "shop/appliance": {
    "name": "Huishoudelijkeapparatuurwinkel",
    "fields": []
  },
  "shop/antiques": {
    "name": "Antiekwinkel",
    "fields": []
  },
  "shop/anime": {
    "name": "Anime-/Mangawinkel",
    "fields": []
  },
  "shop/alcohol": {
    "name": "Slijterij",
    "fields": [
      {
        "key": "{shop}",
        "label": null,
        "type": ""
      },
      {
        "key": "drive_through",
        "label": "Drive-Through",
        "type": "check"
      }
    ]
  },
  "shop/agrarian": {
    "name": "Landbouwbenodigdhedenwinkel",
    "fields": [
      {
        "key": "{shop}",
        "label": null,
        "type": ""
      },
      {
        "key": "agrarian",
        "label": "Producten",
        "type": "semiCombo"
      }
    ]
  },
  "shop/yes": {
    "name": "Winkel (ongespecificeerd)",
    "fields": [
      {
        "key": "shop",
        "label": "Type",
        "type": "typeCombo"
      },
      {
        "key": "{shop}",
        "label": null,
        "type": ""
      }
    ]
  },
  "shop/hobby": {
    "name": "Hobbywinkel",
    "fields": []
  },
  "shop/fashion": {
    "name": "Modewinkel",
    "fields": [
      {
        "key": "clothes",
        "label": "Kleding",
        "type": "semiCombo"
      },
      {
        "key": "{shop}",
        "label": null,
        "type": ""
      }
    ]
  },
  "shop/boutique": {
    "name": "Boetiek",
    "fields": [
      {
        "key": "clothes",
        "label": "Kleding",
        "type": "semiCombo"
      },
      {
        "key": "{shop}",
        "label": null,
        "type": ""
      }
    ]
  },
  "office/water_utility": {
    "name": "Kantoor van watermaatschappij",
    "fields": [
      {
        "key": "{office}",
        "label": null,
        "type": ""
      },
      {
        "key": "operator",
        "label": "Uitbatende organisatie",
        "type": "text"
      }
    ]
  },
  "office/therapist": {
    "name": "Kantoor van therapeut",
    "fields": [
      {
        "key": "healthcare_therapist",
        "label": null,
        "type": "typeCombo"
      },
      {
        "key": "healthcare/speciality",
        "label": "Specialisaties",
        "type": "semiCombo"
      },
      {
        "key": "{office}",
        "label": null,
        "type": ""
      }
    ]
  },
  "office/telecommunication": {
    "name": "Telecomkantoor",
    "fields": []
  },
  "office/tax_advisor": {
    "name": "Kantoor van belastingsadviseur",
    "fields": []
  },
  "office/surveyor": {
    "name": "Kantoor van landmeter/expert/risicoschatter/schademeter/opiniepeilers/statisticus",
    "fields": []
  },
  "office/security": {
    "name": "Kantoor van de beveiliging",
    "fields": []
  },
  "office/research": {
    "name": "Onderzoekskantoor",
    "fields": []
  },
  "office/religion": {
    "name": "Religieus kantoor",
    "fields": [
      {
        "key": "{office}",
        "label": null,
        "type": ""
      },
      {
        "key": "religion",
        "label": "Religie",
        "type": "combo"
      },
      {
        "key": "denomination",
        "label": "Geloofsrichting",
        "type": "combo"
      }
    ]
  },
  "office/quango": {
    "name": "Kantoor van quango",
    "fields": []
  },
  "office/private_investigator": {
    "name": "Kantoor van privédetective",
    "fields": []
  },
  "office/political_party": {
    "name": "Kantoor van een politieke partij",
    "fields": []
  },
  "office/notary": {
    "name": "Notariskantoor",
    "fields": []
  },
  "office/ngo": {
    "name": "Kantoor van NGO",
    "fields": []
  },
  "office/newspaper": {
    "name": "Krantredactie",
    "fields": []
  },
  "office/moving_company": {
    "name": "Kantoor van verhuisbedrijf",
    "fields": []
  },
  "office/lawyer": {
    "name": "Advocatenkantoor",
    "fields": []
  },
  "office/it": {
    "name": "IT-kantoor",
    "fields": []
  },
  "office/insurance": {
    "name": "Verzekeringskantoor",
    "fields": []
  },
  "office/guide": {
    "name": "Gidsenkantoor",
    "fields": []
  },
  "office/government": {
    "name": "Overheidskantoor",
    "fields": [
      {
        "key": "government",
        "label": "Type",
        "type": "typeCombo"
      },
      {
        "key": "{office}",
        "label": null,
        "type": ""
      }
    ]
  },
  "office/foundation": {
    "name": "Kantoor van stichting",
    "fields": []
  },
  "office/forestry": {
    "name": "Bosbeheerkantoor",
    "fields": []
  },
  "office/financial_advisor": {
    "name": "Financieel adviseur",
    "fields": []
  },
  "office/financial": {
    "name": "Kantoor van financiële instelling",
    "fields": []
  },
  "office/estate_agent": {
    "name": "Makelaarskantoor",
    "fields": []
  },
  "office/energy_supplier": {
    "name": "Kantoor van energiemaatschappij",
    "fields": []
  },
  "office/employment_agency": {
    "name": "Uitzendbureau",
    "fields": []
  },
  "office/educational_institution": {
    "name": "Kantoor van onderwijsinstelling",
    "fields": []
  },
  "office/diplomatic": {
    "name": "Diplomatisch kantoor",
    "fields": [
      {
        "key": "diplomatic",
        "label": "Diplomatietype",
        "type": "combo"
      },
      {
        "key": "country",
        "label": "Land",
        "type": "combo"
      },
      {
        "key": "target",
        "label": "Doelwit",
        "type": "combo"
      },
      {
        "key": "diplomatic/services",
        "label": "Diplomatieke diensten",
        "type": "multiCombo"
      },
      {
        "key": "{office}",
        "label": null,
        "type": ""
      }
    ]
  },
  "office/consulting": {
    "name": "Adviesbureau",
    "fields": [
      {
        "key": "consulting",
        "label": "Expertise",
        "type": "semiCombo"
      },
      {
        "key": "{office}",
        "label": null,
        "type": ""
      }
    ]
  },
  "office/charity": {
    "name": "Kantoor van liefdadigheidsinstelling",
    "fields": []
  },
  "office/bail_bond_agent-US-PH": {
    "name": "Borgtochtgeldschieter",
    "fields": []
  },
  "office/association": {
    "name": "Kantoor van non-profitorganisatie",
    "fields": []
  },
  "office/architect": {
    "name": "Architectenbureau",
    "fields": []
  },
  "office/advertising_agency": {
    "name": "Reclamebureau",
    "fields": []
  },
  "office/adoption_agency": {
    "name": "Adoptiebureau",
    "fields": []
  },
  "office/accountant": {
    "name": "Boekhouder",
    "fields": []
  },
  "office/yes": {
    "name": "Kantoor (ongespecificeerd)",
    "fields": [
      {
        "key": "office",
        "label": "Type",
        "type": "typeCombo"
      },
      {
        "key": "{office}",
        "label": null,
        "type": ""
      }
    ]
  },
  "office/travel_agent": {
    "name": "Reisbureau",
    "fields": []
  },
  "office/physician": {
    "name": "Arts",
    "fields": []
  },
  "office/administrative": {
    "name": "Bestuurlijke instantie",
    "fields": []
  },
  "leisure/water_park": {
    "name": "Waterpretpark",
    "fields": [
      {
        "key": "{tourism/theme_park}",
        "label": null,
        "type": ""
      },
      {
        "key": "sport",
        "label": "Sporten",
        "type": "semiCombo"
      }
    ]
  },
  "leisure/trampoline_park": {
    "name": "Trampolinepark",
    "fields": [
      {
        "key": "building_area_yes",
        "label": null,
        "type": "combo"
      }
    ]
  },
  "leisure/swimming_area": {
    "name": "Natuurlijk zwemgebied",
    "fields": [
      {
        "key": "access_simple",
        "label": "Gebruik toegelaten voor",
        "type": "combo"
      },
      {
        "key": "supervised",
        "label": "Onder toezicht",
        "type": "check"
      },
      {
        "key": "fee",
        "label": "Betalend",
        "type": "check"
      },
      {
        "key": "payment_multi_fee",
        "label": null,
        "type": "multiCombo"
      },
      {
        "key": "charge_fee",
        "label": "Tarief",
        "type": "text"
      },
      {
        "key": "lit",
        "label": "Verlicht",
        "type": "check"
      }
    ]
  },
  "leisure/stadium": {
    "name": "Stadion",
    "fields": [
      {
        "key": "operator",
        "label": "Uitbatende organisatie",
        "type": "text"
      },
      {
        "key": "sport",
        "label": "Sporten",
        "type": "semiCombo"
      }
    ]
  },
  "leisure/sports_hall": {
    "name": "Sporthal",
    "fields": [
      {
        "key": "operator",
        "label": "Uitbatende organisatie",
        "type": "text"
      },
      {
        "key": "sport",
        "label": "Sporten",
        "type": "semiCombo"
      },
      {
        "key": "building_area_yes",
        "label": null,
        "type": "combo"
      },
      {
        "key": "access_simple",
        "label": "Gebruik toegelaten voor",
        "type": "combo"
      }
    ]
  },
  "leisure/sports_centre": {
    "name": "Sportcentrum of -complex",
    "fields": [
      {
        "key": "operator",
        "label": "Uitbatende organisatie",
        "type": "text"
      },
      {
        "key": "operator/type",
        "label": "Type operator",
        "type": "combo"
      },
      {
        "key": "sport",
        "label": "Sporten",
        "type": "semiCombo"
      },
      {
        "key": "fee",
        "label": "Betalend",
        "type": "check"
      },
      {
        "key": "payment_multi_fee",
        "label": null,
        "type": "multiCombo"
      },
      {
        "key": "charge_fee",
        "label": "Tarief",
        "type": "text"
      }
    ]
  },
  "leisure/slipway_drivable": {
    "name": "Botenhelling (berijdbaar)",
    "fields": [
      {
        "key": "{leisure/slipway}",
        "label": null,
        "type": ""
      },
      {
        "key": "lanes",
        "label": "Rijstroken",
        "type": "number"
      }
    ]
  },
  "leisure/sauna": {
    "name": "Sauna",
    "fields": [
      {
        "key": "operator",
        "label": "Uitbatende organisatie",
        "type": "text"
      },
      {
        "key": "access_simple",
        "label": "Gebruik toegelaten voor",
        "type": "combo"
      },
      {
        "key": "fee",
        "label": "Betalend",
        "type": "check"
      },
      {
        "key": "payment_multi_fee",
        "label": null,
        "type": "multiCombo"
      },
      {
        "key": "charge_fee",
        "label": "Tarief",
        "type": "text"
      }
    ]
  },
  "leisure/resort": {
    "name": "Resort",
    "fields": [
      {
        "key": "operator",
        "label": "Uitbatende organisatie",
        "type": "text"
      },
      {
        "key": "resort",
        "label": "Type",
        "type": "combo"
      }
    ]
  },
  "leisure/outdoor_seating": {
    "name": "Terras",
    "fields": [
      {
        "key": "operator",
        "label": "Uitbatende organisatie",
        "type": "text"
      },
      {
        "key": "capacity",
        "label": "Capaciteit",
        "type": "number"
      },
      {
        "key": "lit",
        "label": "Verlicht",
        "type": "check"
      },
      {
        "key": "seasonal",
        "label": "Seizoensgebonden",
        "type": "check"
      },
      {
        "key": "heating",
        "label": "Verwarming",
        "type": "check"
      }
    ]
  },
  "leisure/miniature_golf": {
    "name": "Minigolf",
    "fields": [
      {
        "key": "operator",
        "label": "Uitbatende organisatie",
        "type": "text"
      },
      {
        "key": "fee",
        "label": "Betalend",
        "type": "check"
      },
      {
        "key": "payment_multi_fee",
        "label": null,
        "type": "multiCombo"
      },
      {
        "key": "charge_fee",
        "label": "Tarief",
        "type": "text"
      }
    ]
  },
  "leisure/marina": {
    "name": "Jachthaven",
    "fields": [
      {
        "key": "operator",
        "label": "Uitbatende organisatie",
        "type": "text"
      },
      {
        "key": "capacity",
        "label": "Capaciteit",
        "type": "number"
      },
      {
        "key": "fee",
        "label": "Betalend",
        "type": "check"
      },
      {
        "key": "payment_multi_fee",
        "label": null,
        "type": "multiCombo"
      },
      {
        "key": "charge_fee",
        "label": "Tarief",
        "type": "text"
      },
      {
        "key": "sanitary_dump_station",
        "label": "Toilet-afvoer",
        "type": "check"
      },
      {
        "key": "power_supply",
        "label": "Stroomvoorziening",
        "type": "check"
      }
    ]
  },
  "leisure/indoor_play": {
    "name": "Binnenspeeltuin",
    "fields": [
      {
        "key": "building_area_yes",
        "label": null,
        "type": "combo"
      }
    ]
  },
  "leisure/ice_rink": {
    "name": "Schaatsbaan",
    "fields": [
      {
        "key": "seasonal",
        "label": "Seizoensgebonden",
        "type": "check"
      },
      {
        "key": "sport_ice",
        "label": "Sporten",
        "type": "semiCombo"
      },
      {
        "key": "operator",
        "label": "Uitbatende organisatie",
        "type": "text"
      },
      {
        "key": "building",
        "label": "Gebouw",
        "type": "combo"
      }
    ]
  },
  "leisure/horse_riding": {
    "name": "Paardrijcentrum",
    "fields": [
      {
        "key": "access_simple",
        "label": "Gebruik toegelaten voor",
        "type": "combo"
      },
      {
        "key": "operator",
        "label": "Uitbatende organisatie",
        "type": "text"
      }
    ]
  },
  "leisure/hackerspace": {
    "name": "Hackerspace",
    "fields": [
      {
        "key": "building_area_yes",
        "label": null,
        "type": "combo"
      },
      {
        "key": "fee",
        "label": "Betalend",
        "type": "check"
      },
      {
        "key": "payment_multi_fee",
        "label": null,
        "type": "multiCombo"
      },
      {
        "key": "charge_fee",
        "label": "Tarief",
        "type": "text"
      },
      {
        "key": "internet_access",
        "label": "Internetverbinding",
        "type": "combo"
      },
      {
        "key": "internet_access/fee",
        "label": "Internettoegang",
        "type": "combo"
      },
      {
        "key": "internet_access/ssid",
        "label": "WiFi-netwerknaam",
        "type": "text"
      }
    ]
  },
  "leisure/golf_course": {
    "name": "Golfbaan",
    "fields": [
      {
        "key": "operator",
        "label": "Uitbatende organisatie",
        "type": "text"
      }
    ]
  },
  "leisure/fitness_centre": {
    "name": "Fitnesscentrum",
    "fields": [
      {
        "key": "sport",
        "label": "Sporten",
        "type": "semiCombo"
      },
      {
        "key": "building_area_yes",
        "label": null,
        "type": "combo"
      }
    ]
  },
  "leisure/fishing": {
    "name": "Visstek",
    "fields": [
      {
        "key": "access_simple",
        "label": "Gebruik toegelaten voor",
        "type": "combo"
      },
      {
        "key": "fishing",
        "label": "Vissen",
        "type": "combo"
      }
    ]
  },
  "leisure/escape_game": {
    "name": "Escaperoom",
    "fields": [
      {
        "key": "building_area_yes",
        "label": null,
        "type": "combo"
      },
      {
        "key": "fee",
        "label": "Betalend",
        "type": "check"
      },
      {
        "key": "payment_multi_fee",
        "label": null,
        "type": "multiCombo"
      },
      {
        "key": "charge_fee",
        "label": "Tarief",
        "type": "text"
      },
      {
        "key": "internet_access",
        "label": "Internetverbinding",
        "type": "combo"
      },
      {
        "key": "internet_access/fee",
        "label": "Internettoegang",
        "type": "combo"
      },
      {
        "key": "internet_access/ssid",
        "label": "WiFi-netwerknaam",
        "type": "text"
      }
    ]
  },
  "leisure/disc_golf_course": {
    "name": "Discgolfparcours",
    "fields": [
      {
        "key": "operator",
        "label": "Uitbatende organisatie",
        "type": "text"
      },
      {
        "key": "access_simple",
        "label": "Gebruik toegelaten voor",
        "type": "combo"
      },
      {
        "key": "fee",
        "label": "Betalend",
        "type": "check"
      },
      {
        "key": "payment_multi_fee",
        "label": null,
        "type": "multiCombo"
      },
      {
        "key": "charge_fee",
        "label": "Tarief",
        "type": "text"
      }
    ]
  },
  "leisure/dancing_school": {
    "name": "Dansschool",
    "fields": [
      {
        "key": "operator",
        "label": "Uitbatende organisatie",
        "type": "text"
      },
      {
        "key": "building_area_yes",
        "label": null,
        "type": "combo"
      },
      {
        "key": "dance/style",
        "label": "Dansstijlen",
        "type": "semiCombo"
      }
    ]
  },
  "leisure/dance": {
    "name": "Danszaal",
    "fields": [
      {
        "key": "operator",
        "label": "Uitbatende organisatie",
        "type": "text"
      },
      {
        "key": "building_area_yes",
        "label": null,
        "type": "combo"
      },
      {
        "key": "dance/style",
        "label": "Dansstijlen",
        "type": "semiCombo"
      },
      {
        "key": "dance/teaching",
        "label": "Biedt danslessen aan",
        "type": "check"
      }
    ]
  },
  "leisure/bowling_alley": {
    "name": "Bowlingbaan",
    "fields": [
      {
        "key": "operator",
        "label": "Uitbatende organisatie",
        "type": "text"
      },
      {
        "key": "building_area_yes",
        "label": null,
        "type": "combo"
      }
    ]
  },
  "leisure/bleachers": {
    "name": "Niet-overdekte tribune",
    "fields": []
  },
  "leisure/beach_resort": {
    "name": "Strandoord",
    "fields": [
      {
        "key": "fee",
        "label": "Betalend",
        "type": "check"
      },
      {
        "key": "payment_multi_fee",
        "label": null,
        "type": "multiCombo"
      },
      {
        "key": "charge_fee",
        "label": "Tarief",
        "type": "text"
      }
    ]
  },
  "leisure/bandstand": {
    "name": "Podium",
    "fields": [
      {
        "key": "building_area_yes",
        "label": null,
        "type": "combo"
      },
      {
        "key": "operator",
        "label": "Uitbatende organisatie",
        "type": "text"
      }
    ]
  },
  "leisure/amusement_arcade": {
    "name": "Speelhal",
    "fields": [
      {
        "key": "operator",
        "label": "Uitbatende organisatie",
        "type": "text"
      },
      {
        "key": "building_area_yes",
        "label": null,
        "type": "combo"
      }
    ]
  },
  "leisure/adult_gaming_centre": {
    "name": "Speelzaal (met kansspelmachines)",
    "fields": [
      {
        "key": "{amenity/casino}",
        "label": null,
        "type": ""
      }
    ]
  },
  "amenity/weighbridge": {
    "name": "Weegbrug",
    "fields": [
      {
        "key": "ref",
        "label": "Referentiecode",
        "type": "text"
      },
      {
        "key": "operator",
        "label": "Uitbatende organisatie",
        "type": "text"
      },
      {
        "key": "access_simple",
        "label": "Gebruik toegelaten voor",
        "type": "combo"
      },
      {
        "key": "maxweight",
        "label": "Maximaal gewicht",
        "type": "combo"
      }
    ]
  },
  "amenity/veterinary": {
    "name": "Dierenarts",
    "fields": [
      {
        "key": "operator",
        "label": "Uitbatende organisatie",
        "type": "text"
      },
      {
        "key": "building_area_yes",
        "label": null,
        "type": "combo"
      }
    ]
  },
  "amenity/vehicle_inspection": {
    "name": "Voertuigkeuring",
    "fields": [
      {
        "key": "operator",
        "label": "Uitbatende organisatie",
        "type": "text"
      },
      {
        "key": "building_area_yes",
        "label": null,
        "type": "combo"
      }
    ]
  },
  "amenity/vacuum_cleaner": {
    "name": "Stofzuiger",
    "fields": [
      {
        "key": "operator",
        "label": "Uitbatende organisatie",
        "type": "text"
      },
      {
        "key": "access_simple",
        "label": "Gebruik toegelaten voor",
        "type": "combo"
      },
      {
        "key": "fee",
        "label": "Betalend",
        "type": "check"
      },
      {
        "key": "payment_multi_fee",
        "label": null,
        "type": "multiCombo"
      },
      {
        "key": "charge_fee",
        "label": "Tarief",
        "type": "text"
      },
      {
        "key": "covered",
        "label": "Overdekt",
        "type": "check"
      },
      {
        "key": "lit",
        "label": "Verlicht",
        "type": "check"
      }
    ]
  },
  "amenity/university": {
    "name": "Campus van universiteit of hogeschool",
    "fields": [
      {
        "key": "{amenity/college}",
        "label": null,
        "type": ""
      }
    ]
  },
  "amenity/trolley_bay": {
    "name": "Winkelwagenstalling",
    "fields": [
      {
        "key": "capacity",
        "label": "Capaciteit",
        "type": "number"
      },
      {
        "key": "deposit/trolley",
        "label": "Borg",
        "type": "check"
      },
      {
        "key": "payment_multi_fee",
        "label": null,
        "type": "multiCombo"
      }
    ]
  },
  "amenity/toy_library": {
    "name": "Spelotheek",
    "fields": [
      {
        "key": "operator",
        "label": "Uitbatende organisatie",
        "type": "text"
      },
      {
        "key": "building_area_yes",
        "label": null,
        "type": "combo"
      }
    ]
  },
  "amenity/townhall": {
    "name": "Gemeentehuis",
    "fields": [
      {
        "key": "operator",
        "label": "Uitbatende organisatie",
        "type": "text"
      },
      {
        "key": "townhall/type",
        "label": "Type",
        "type": "combo"
      },
      {
        "key": "building_area_yes",
        "label": null,
        "type": "combo"
      }
    ]
  },
  "amenity/ticket_validator": {
    "name": "Stempelautomaat",
    "fields": [
      {
        "key": "ref",
        "label": "Referentiecode",
        "type": "text"
      },
      {
        "key": "operator",
        "label": "Uitbatende organisatie",
        "type": "text"
      }
    ]
  },
  "amenity/theatre": {
    "name": "Theater",
    "fields": [
      {
        "key": "operator",
        "label": "Uitbatende organisatie",
        "type": "text"
      },
      {
        "key": "building_area_yes",
        "label": null,
        "type": "combo"
      }
    ]
  },
  "amenity/taxi": {
    "name": "Taxistandplaats",
    "fields": [
      {
        "key": "operator",
        "label": "Uitbatende organisatie",
        "type": "text"
      },
      {
        "key": "capacity",
        "label": "Capaciteit",
        "type": "number"
      }
    ]
  },
  "amenity/studio": {
    "name": "Studio",
    "fields": [
      {
        "key": "studio",
        "label": "Type",
        "type": "combo"
      },
      {
        "key": "building_area_yes",
        "label": null,
        "type": "combo"
      }
    ]
  },
  "amenity/stripclub": {
    "name": "Stripclub",
    "fields": [
      {
        "key": "operator",
        "label": "Uitbatende organisatie",
        "type": "text"
      },
      {
        "key": "building_area_yes",
        "label": null,
        "type": "combo"
      },
      {
        "key": "min_age",
        "label": "Minimum leeftijd",
        "type": "number"
      },
      {
        "key": "smoking",
        "label": "Roken",
        "type": "combo"
      }
    ]
  },
  "amenity/social_centre": {
    "name": "Sociaal ontmoetingscentrum",
    "fields": [
      {
        "key": "brand",
        "label": "Merk",
        "type": "text"
      },
      {
        "key": "operator",
        "label": "Uitbatende organisatie",
        "type": "text"
      },
      {
        "key": "operator/type",
        "label": "Type operator",
        "type": "combo"
      },
      {
        "key": "building_area_yes",
        "label": null,
        "type": "combo"
      }
    ]
  },
  "amenity/smoking_area": {
    "name": "Rookgebied",
    "fields": [
      {
        "key": "shelter",
        "label": "Beschutting",
        "type": "check"
      },
      {
        "key": "bin",
        "label": "Afvalbak",
        "type": "check"
      },
      {
        "key": "bench",
        "label": "Zitbank",
        "type": "check"
      }
    ]
  },
  "amenity/school": {
    "name": "Schoolgebied",
    "fields": [
      {
        "key": "operator",
        "label": "Uitbatende organisatie",
        "type": "text"
      },
      {
        "key": "operator/type",
        "label": "Type operator",
        "type": "combo"
      },
      {
        "key": "grades",
        "label": "Gradatieniveaus",
        "type": "combo"
      },
      {
        "key": "religion",
        "label": "Religie",
        "type": "combo"
      },
      {
        "key": "denomination",
        "label": "Geloofsrichting",
        "type": "combo"
      }
    ]
  },
  "amenity/restaurant": {
    "name": "Restaurant",
    "fields": [
      {
        "key": "cuisine",
        "label": "Keukens",
        "type": "semiCombo"
      },
      {
        "key": "diet_multi",
        "label": "Soorten diëten",
        "type": "multiCombo"
      },
      {
        "key": "building_area_yes",
        "label": null,
        "type": "combo"
      }
    ]
  },
  "amenity/research_institute": {
    "name": "Gebied van een onderzoekscentrum",
    "fields": [
      {
        "key": "operator",
        "label": "Uitbatende organisatie",
        "type": "text"
      },
      {
        "key": "operator/type",
        "label": "Type operator",
        "type": "combo"
      },
      {
        "key": "internet_access",
        "label": "Internetverbinding",
        "type": "combo"
      },
      {
        "key": "internet_access/fee",
        "label": "Internettoegang",
        "type": "combo"
      }
    ]
  },
  "amenity/refugee_site": {
    "name": "Vluchtelingenkamp",
    "fields": [
      {
        "key": "operator",
        "label": "Uitbatende organisatie",
        "type": "text"
      },
      {
        "key": "operator/type",
        "label": "Type operator",
        "type": "combo"
      },
      {
        "key": "informal",
        "label": "Informeel",
        "type": "check"
      },
      {
        "key": "start_date",
        "label": "Bouwjaar",
        "type": "date"
      },
      {
        "key": "capacity",
        "label": "Capaciteit",
        "type": "number"
      },
      {
        "key": "population",
        "label": "Bevolkingsaantal",
        "type": "number"
      },
      {
        "key": "population/date",
        "label": null,
        "type": "text"
      },
      {
        "key": "source/population",
        "label": null,
        "type": "combo"
      }
    ]
  },
  "amenity/recycling_container": {
    "name": "Recyclingcontainer",
    "fields": [
      {
        "key": "operator",
        "label": "Uitbatende organisatie",
        "type": "text"
      },
      {
        "key": "recycling_accepts",
        "label": "Aanvaardt",
        "type": "multiCombo"
      },
      {
        "key": "collection_times",
        "label": "Lichtingstijden",
        "type": "text"
      }
    ]
  },
  "amenity/recycling_centre": {
    "name": "Milieupark/Containerpark",
    "fields": [
      {
        "key": "operator",
        "label": "Uitbatende organisatie",
        "type": "text"
      },
      {
        "key": "operator/type",
        "label": "Type operator",
        "type": "combo"
      },
      {
        "key": "building",
        "label": "Gebouw",
        "type": "combo"
      },
      {
        "key": "recycling_accepts",
        "label": "Aanvaardt",
        "type": "multiCombo"
      }
    ]
  },
  "amenity/ranger_station": {
    "name": "Boswachtershut",
    "fields": [
      {
        "key": "operator",
        "label": "Uitbatende organisatie",
        "type": "text"
      },
      {
        "key": "building_area_yes",
        "label": null,
        "type": "combo"
      }
    ]
  },
  "amenity/pub": {
    "name": "Café",
    "fields": [
      {
        "key": "building_area_yes",
        "label": null,
        "type": "combo"
      },
      {
        "key": "smoking",
        "label": "Roken",
        "type": "combo"
      },
      {
        "key": "brewery",
        "label": "Brouwerijen waarvan bier beschikbaar",
        "type": "semiCombo"
      }
    ]
  },
  "amenity/prison": {
    "name": "Gevangenisgebied",
    "fields": [
      {
        "key": "operator",
        "label": "Uitbatende organisatie",
        "type": "text"
      },
      {
        "key": "operator/type",
        "label": "Type operator",
        "type": "combo"
      }
    ]
  },
  "amenity/prep_school": {
    "name": "Studiebegeleiding",
    "fields": [
      {
        "key": "operator",
        "label": "Uitbatende organisatie",
        "type": "text"
      },
      {
        "key": "building_area_yes",
        "label": null,
        "type": "combo"
      }
    ]
  },
  "amenity/post_office": {
    "name": "Postkantoor",
    "fields": [
      {
        "key": "operator",
        "label": "Uitbatende organisatie",
        "type": "text"
      },
      {
        "key": "building_area_yes",
        "label": null,
        "type": "combo"
      }
    ]
  },
  "amenity/post_depot": {
    "name": "Postsorteerkantoor",
    "fields": [
      {
        "key": "operator",
        "label": "Uitbatende organisatie",
        "type": "text"
      }
    ]
  },
  "amenity/polling_station": {
    "name": "Permanent stembureau",
    "fields": [
      {
        "key": "ref",
        "label": "Referentiecode",
        "type": "text"
      },
      {
        "key": "operator",
        "label": "Uitbatende organisatie",
        "type": "text"
      },
      {
        "key": "building_area_yes",
        "label": null,
        "type": "combo"
      }
    ]
  },
  "amenity/police": {
    "name": "Politiekantoor",
    "fields": [
      {
        "key": "operator",
        "label": "Uitbatende organisatie",
        "type": "text"
      },
      {
        "key": "building_area_yes",
        "label": null,
        "type": "combo"
      }
    ]
  },
  "amenity/planetarium": {
    "name": "Planetarium",
    "fields": [
      {
        "key": "operator",
        "label": "Uitbatende organisatie",
        "type": "text"
      },
      {
        "key": "building_area_yes",
        "label": null,
        "type": "combo"
      }
    ]
  },
  "amenity/photo_booth": {
    "name": "Pasfotohokje",
    "fields": [
      {
        "key": "operator",
        "label": "Uitbatende organisatie",
        "type": "text"
      },
      {
        "key": "payment_multi",
        "label": "Betalingsmiddelen",
        "type": "multiCombo"
      }
    ]
  },
  "amenity/pharmacy": {
    "name": "Apotheek",
    "fields": [
      {
        "key": "operator",
        "label": "Uitbatende organisatie",
        "type": "text"
      },
      {
        "key": "building_area_yes",
        "label": null,
        "type": "combo"
      },
      {
        "key": "dispensing",
        "label": "Verkoopt geneesmiddelen op voorschrift",
        "type": "check"
      },
      {
        "key": "drive_through",
        "label": "Drive-Through",
        "type": "check"
      }
    ]
  },
  "amenity/payment_terminal": {
    "name": "Betalingsterminal",
    "fields": [
      {
        "key": "brand",
        "label": "Merk",
        "type": "text"
      },
      {
        "key": "payment_multi",
        "label": "Betalingsmiddelen",
        "type": "multiCombo"
      }
    ]
  },
  "amenity/payment_centre": {
    "name": "Betalingscentrum",
    "fields": [
      {
        "key": "brand",
        "label": "Merk",
        "type": "text"
      },
      {
        "key": "building_area_yes",
        "label": null,
        "type": "combo"
      },
      {
        "key": "payment_multi",
        "label": "Betalingsmiddelen",
        "type": "multiCombo"
      }
    ]
  },
  "amenity/parcel_locker": {
    "name": "Pakketkluis",
    "fields": [
      {
        "key": "operator",
        "label": "Uitbatende organisatie",
        "type": "text"
      },
      {
        "key": "parcel_pickup",
        "label": "Pakket afhalen",
        "type": "check"
      },
      {
        "key": "parcel_dropoff",
        "label": "Pakket verzenden",
        "type": "check"
      },
      {
        "key": "payment_multi",
        "label": "Betalingsmiddelen",
        "type": "multiCombo"
      },
      {
        "key": "ref",
        "label": "Referentiecode",
        "type": "text"
      }
    ]
  },
  "amenity/nightclub": {
    "name": "Nachtclub",
    "fields": [
      {
        "key": "operator",
        "label": "Uitbatende organisatie",
        "type": "text"
      },
      {
        "key": "building_area_yes",
        "label": null,
        "type": "combo"
      },
      {
        "key": "min_age",
        "label": "Minimum leeftijd",
        "type": "number"
      },
      {
        "key": "smoking",
        "label": "Roken",
        "type": "combo"
      }
    ]
  },
  "amenity/music_school": {
    "name": "Muziekschool",
    "fields": [
      {
        "key": "operator",
        "label": "Uitbatende organisatie",
        "type": "text"
      },
      {
        "key": "building_area_yes",
        "label": null,
        "type": "combo"
      }
    ]
  },
  "amenity/motorcycle_rental": {
    "name": "Motorfietsverhuur",
    "fields": [
      {
        "key": "operator",
        "label": "Uitbatende organisatie",
        "type": "text"
      },
      {
        "key": "payment_multi",
        "label": "Betalingsmiddelen",
        "type": "multiCombo"
      }
    ]
  },
  "amenity/mortuary": {
    "name": "Mortuarium",
    "fields": [
      {
        "key": "operator",
        "label": "Uitbatende organisatie",
        "type": "text"
      }
    ]
  },
  "amenity/money_transfer": {
    "name": "Wisselkantoor",
    "fields": [
      {
        "key": "brand",
        "label": "Merk",
        "type": "text"
      },
      {
        "key": "building_area_yes",
        "label": null,
        "type": "combo"
      },
      {
        "key": "payment_multi",
        "label": "Betalingsmiddelen",
        "type": "multiCombo"
      },
      {
        "key": "currency_multi",
        "label": "Valuta",
        "type": "multiCombo"
      }
    ]
  },
  "amenity/monastery": {
    "name": "Kloostergebied",
    "fields": [
      {
        "key": "religion",
        "label": "Religie",
        "type": "combo"
      },
      {
        "key": "denomination",
        "label": "Geloofsrichting",
        "type": "combo"
      }
    ]
  },
  "amenity/marketplace": {
    "name": "Marktplaats",
    "fields": [
      {
        "key": "operator",
        "label": "Uitbatende organisatie",
        "type": "text"
      },
      {
        "key": "building",
        "label": "Gebouw",
        "type": "combo"
      }
    ]
  },
  "amenity/love_hotel": {
    "name": "Love hotel",
    "fields": [
      {
        "key": "operator",
        "label": "Uitbatende organisatie",
        "type": "text"
      },
      {
        "key": "building_area_yes",
        "label": null,
        "type": "combo"
      },
      {
        "key": "rooms",
        "label": "Aantal kamers",
        "type": "number"
      },
      {
        "key": "internet_access",
        "label": "Internetverbinding",
        "type": "combo"
      },
      {
        "key": "internet_access/fee",
        "label": "Internettoegang",
        "type": "combo"
      },
      {
        "key": "internet_access/ssid",
        "label": "WiFi-netwerknaam",
        "type": "text"
      }
    ]
  },
  "amenity/lounger": {
    "name": "Ligstoel",
    "fields": [
      {
        "key": "material",
        "label": "Materiaal",
        "type": "combo"
      },
      {
        "key": "colour",
        "label": "Kleur",
        "type": "colour"
      },
      {
        "key": "access_simple",
        "label": "Gebruik toegelaten voor",
        "type": "combo"
      },
      {
        "key": "lit",
        "label": "Verlicht",
        "type": "check"
      }
    ]
  },
  "amenity/loading_dock": {
    "name": "Laadkaai",
    "fields": [
      {
        "key": "ref",
        "label": "Referentiecode",
        "type": "text"
      },
      {
        "key": "operator",
        "label": "Uitbatende organisatie",
        "type": "text"
      },
      {
        "key": "access_simple",
        "label": "Gebruik toegelaten voor",
        "type": "combo"
      },
      {
        "key": "door",
        "label": "Deur",
        "type": "combo"
      },
      {
        "key": "width",
        "label": "Breedte (in meter)",
        "type": "number"
      },
      {
        "key": "height",
        "label": "Hoogte (in meter)",
        "type": "number"
      }
    ]
  },
  "amenity/library": {
    "name": "Bibliotheek",
    "fields": [
      {
        "key": "operator",
        "label": "Uitbatende organisatie",
        "type": "text"
      },
      {
        "key": "operator/type",
        "label": "Type operator",
        "type": "combo"
      },
      {
        "key": "building_area_yes",
        "label": null,
        "type": "combo"
      },
      {
        "key": "ref/isil",
        "label": "ISIL-referentiecode",
        "type": "text"
      },
      {
        "key": "internet_access",
        "label": "Internetverbinding",
        "type": "combo"
      },
      {
        "key": "internet_access/fee",
        "label": "Internettoegang",
        "type": "combo"
      },
      {
        "key": "internet_access/ssid",
        "label": "WiFi-netwerknaam",
        "type": "text"
      }
    ]
  },
  "amenity/letter_box": {
    "name": "Brievenbus",
    "fields": [
      {
        "key": "post",
        "label": "Bezorgadres",
        "type": "address"
      },
      {
        "key": "access_simple",
        "label": "Gebruik toegelaten voor",
        "type": "combo"
      },
      {
        "key": "height",
        "label": "Hoogte (in meter)",
        "type": "number"
      }
    ]
  },
  "amenity/lavoir": {
    "name": "Openbare wasplaats",
    "fields": [
      {
        "key": "operator",
        "label": "Uitbatende organisatie",
        "type": "text"
      },
      {
        "key": "operator/type",
        "label": "Type operator",
        "type": "combo"
      },
      {
        "key": "access_simple",
        "label": "Gebruik toegelaten voor",
        "type": "combo"
      }
    ]
  },
  "amenity/language_school": {
    "name": "Taalschool",
    "fields": [
      {
        "key": "operator",
        "label": "Uitbatende organisatie",
        "type": "text"
      },
      {
        "key": "operator/type",
        "label": "Type operator",
        "type": "combo"
      },
      {
        "key": "building_area_yes",
        "label": null,
        "type": "combo"
      },
      {
        "key": "language_multi",
        "label": "Talen",
        "type": "multiCombo"
      }
    ]
  },
  "amenity/kneipp_water_cure": {
    "name": "Kneipp Waterbad",
    "fields": [
      {
        "key": "kneipp_water_cure_multi",
        "label": "Types opvangbekken",
        "type": "multiCombo"
      },
      {
        "key": "fee",
        "label": "Betalend",
        "type": "check"
      }
    ]
  },
  "amenity/kindergarten": {
    "name": "Gebied van Crèche/Kleuterschool",
    "fields": [
      {
        "key": "operator",
        "label": "Uitbatende organisatie",
        "type": "text"
      },
      {
        "key": "operator/type",
        "label": "Type operator",
        "type": "combo"
      },
      {
        "key": "preschool",
        "label": "Kleuterschool",
        "type": "check"
      }
    ]
  },
  "amenity/karaoke_box": {
    "name": "Karaokehokje",
    "fields": [
      {
        "key": "operator",
        "label": "Uitbatende organisatie",
        "type": "text"
      },
      {
        "key": "building_area_yes",
        "label": null,
        "type": "combo"
      }
    ]
  },
  "amenity/internet_cafe": {
    "name": "Internetcafé",
    "fields": [
      {
        "key": "operator",
        "label": "Uitbatende organisatie",
        "type": "text"
      },
      {
        "key": "operator/type",
        "label": "Type operator",
        "type": "combo"
      },
      {
        "key": "building_area_yes",
        "label": null,
        "type": "combo"
      },
      {
        "key": "internet_access",
        "label": "Internetverbinding",
        "type": "combo"
      },
      {
        "key": "internet_access/fee",
        "label": "Internettoegang",
        "type": "combo"
      },
      {
        "key": "internet_access/ssid",
        "label": "WiFi-netwerknaam",
        "type": "text"
      }
    ]
  },
  "amenity/ice_cream": {
    "name": "Ĳskraam",
    "fields": [
      {
        "key": "building_area_yes",
        "label": null,
        "type": "combo"
      },
      {
        "key": "outdoor_seating",
        "label": "Terras",
        "type": "check"
      }
    ]
  },
  "amenity/hospital": {
    "name": "Ziekenhuisgebied",
    "fields": [
      {
        "key": "operator",
        "label": "Uitbatende organisatie",
        "type": "text"
      },
      {
        "key": "operator/type",
        "label": "Type operator",
        "type": "combo"
      },
      {
        "key": "healthcare/speciality",
        "label": "Specialisaties",
        "type": "semiCombo"
      },
      {
        "key": "emergency",
        "label": "Noodgeval",
        "type": "check"
      }
    ]
  },
  "amenity/give_box": {
    "name": "Ruilkast",
    "fields": [
      {
        "key": "operator",
        "label": "Uitbatende organisatie",
        "type": "text"
      },
      {
        "key": "access_simple",
        "label": "Gebruik toegelaten voor",
        "type": "combo"
      }
    ]
  },
  "amenity/gambling": {
    "name": "Gokhal",
    "fields": [
      {
        "key": "{amenity/casino}",
        "label": null,
        "type": ""
      }
    ]
  },
  "amenity/fuel": {
    "name": "Tankstation",
    "fields": [
      {
        "key": "brand",
        "label": "Merk",
        "type": "text"
      },
      {
        "key": "operator",
        "label": "Uitbatende organisatie",
        "type": "text"
      },
      {
        "key": "fuel/fuel_multi",
        "label": "Brandstofsoorten",
        "type": "multiCombo"
      },
      {
        "key": "fuel/fuel_multi-RU",
        "label": null,
        "type": "multiCombo"
      },
      {
        "key": "self_service",
        "label": "Zelfbediening",
        "type": "check"
      }
    ]
  },
  "amenity/food_court": {
    "name": "Foodcourt",
    "fields": [
      {
        "key": "operator",
        "label": "Uitbatende organisatie",
        "type": "text"
      },
      {
        "key": "building_area_yes",
        "label": null,
        "type": "combo"
      },
      {
        "key": "internet_access",
        "label": "Internetverbinding",
        "type": "combo"
      },
      {
        "key": "internet_access/fee",
        "label": "Internettoegang",
        "type": "combo"
      },
      {
        "key": "internet_access/ssid",
        "label": "WiFi-netwerknaam",
        "type": "text"
      }
    ]
  },
  "amenity/fire_station": {
    "name": "Brandweerkazerne",
    "fields": [
      {
        "key": "operator",
        "label": "Uitbatende organisatie",
        "type": "text"
      }
    ]
  },
  "amenity/fast_food": {
    "name": "Fastfoodrestaurant",
    "fields": [
      {
        "key": "cuisine",
        "label": "Keukens",
        "type": "semiCombo"
      },
      {
        "key": "diet_multi",
        "label": "Soorten diëten",
        "type": "multiCombo"
      },
      {
        "key": "operator",
        "label": "Uitbatende organisatie",
        "type": "text"
      },
      {
        "key": "building_area_yes",
        "label": null,
        "type": "combo"
      },
      {
        "key": "drive_through",
        "label": "Drive-Through",
        "type": "check"
      }
    ]
  },
  "amenity/exhibition_centre": {
    "name": "Expo center",
    "fields": [
      {
        "key": "operator",
        "label": "Uitbatende organisatie",
        "type": "text"
      },
      {
        "key": "operator/type",
        "label": "Type operator",
        "type": "combo"
      },
      {
        "key": "building_area_yes",
        "label": null,
        "type": "combo"
      },
      {
        "key": "internet_access",
        "label": "Internetverbinding",
        "type": "combo"
      },
      {
        "key": "internet_access/fee",
        "label": "Internettoegang",
        "type": "combo"
      },
      {
        "key": "internet_access/ssid",
        "label": "WiFi-netwerknaam",
        "type": "text"
      }
    ]
  },
  "amenity/events_venue": {
    "name": "Evenementenlocatie",
    "fields": [
      {
        "key": "operator",
        "label": "Uitbatende organisatie",
        "type": "text"
      },
      {
        "key": "building_area_yes",
        "label": null,
        "type": "combo"
      },
      {
        "key": "internet_access",
        "label": "Internetverbinding",
        "type": "combo"
      },
      {
        "key": "internet_access/fee",
        "label": "Internettoegang",
        "type": "combo"
      },
      {
        "key": "internet_access/ssid",
        "label": "WiFi-netwerknaam",
        "type": "text"
      }
    ]
  },
  "amenity/driving_school": {
    "name": "Rijschool",
    "fields": [
      {
        "key": "operator",
        "label": "Uitbatende organisatie",
        "type": "text"
      },
      {
        "key": "operator/type",
        "label": "Type operator",
        "type": "combo"
      }
    ]
  },
  "amenity/driver_training": {
    "name": "Rijvaardigheidscentrum",
    "fields": [
      {
        "key": "operator",
        "label": "Uitbatende organisatie",
        "type": "text"
      },
      {
        "key": "operator/type",
        "label": "Type operator",
        "type": "combo"
      }
    ]
  },
  "amenity/dressing_room": {
    "name": "Kleedkamer",
    "fields": [
      {
        "key": "operator",
        "label": "Uitbatende organisatie",
        "type": "text"
      },
      {
        "key": "access_simple",
        "label": "Gebruik toegelaten voor",
        "type": "combo"
      },
      {
        "key": "gender",
        "label": "Geslacht",
        "type": "radio"
      }
    ]
  },
  "amenity/dojo": {
    "name": "Dojo / School voor Japanse krijgskunsten",
    "fields": [
      {
        "key": "sport",
        "label": "Sporten",
        "type": "semiCombo"
      },
      {
        "key": "building_area_yes",
        "label": null,
        "type": "combo"
      }
    ]
  },
  "amenity/doctors": {
    "name": "Dokter",
    "fields": [
      {
        "key": "operator",
        "label": "Uitbatende organisatie",
        "type": "text"
      },
      {
        "key": "healthcare/speciality",
        "label": "Specialisaties",
        "type": "semiCombo"
      },
      {
        "key": "building_area_yes",
        "label": null,
        "type": "combo"
      }
    ]
  },
  "amenity/dive_centre": {
    "name": "Duikcentrum",
    "fields": [
      {
        "key": "operator",
        "label": "Uitbatende organisatie",
        "type": "text"
      },
      {
        "key": "building_area_yes",
        "label": null,
        "type": "combo"
      },
      {
        "key": "scuba_diving",
        "label": "Diensten",
        "type": "multiCombo"
      }
    ]
  },
  "amenity/dentist": {
    "name": "Tandarts",
    "fields": [
      {
        "key": "operator",
        "label": "Uitbatende organisatie",
        "type": "text"
      },
      {
        "key": "healthcare/speciality",
        "label": "Specialisaties",
        "type": "semiCombo"
      },
      {
        "key": "building_area_yes",
        "label": null,
        "type": "combo"
      }
    ]
  },
  "amenity/crematorium": {
    "name": "Crematorium",
    "fields": []
  },
  "amenity/courthouse": {
    "name": "Gerechtsgebouw",
    "fields": [
      {
        "key": "operator",
        "label": "Uitbatende organisatie",
        "type": "text"
      },
      {
        "key": "building_area_yes",
        "label": null,
        "type": "combo"
      }
    ]
  },
  "amenity/conference_centre": {
    "name": "Congrescentrum",
    "fields": [
      {
        "key": "operator",
        "label": "Uitbatende organisatie",
        "type": "text"
      },
      {
        "key": "operator/type",
        "label": "Type operator",
        "type": "combo"
      },
      {
        "key": "building_area_yes",
        "label": null,
        "type": "combo"
      },
      {
        "key": "internet_access",
        "label": "Internetverbinding",
        "type": "combo"
      },
      {
        "key": "internet_access/fee",
        "label": "Internettoegang",
        "type": "combo"
      },
      {
        "key": "internet_access/ssid",
        "label": "WiFi-netwerknaam",
        "type": "text"
      }
    ]
  },
  "amenity/community_centre": {
    "name": "Buurthuis",
    "fields": [
      {
        "key": "operator",
        "label": "Uitbatende organisatie",
        "type": "text"
      },
      {
        "key": "operator/type",
        "label": "Type operator",
        "type": "combo"
      },
      {
        "key": "building_area_yes",
        "label": null,
        "type": "combo"
      }
    ]
  },
  "amenity/college": {
    "name": "Campus van beroepsschool",
    "fields": [
      {
        "key": "operator",
        "label": "Uitbatende organisatie",
        "type": "text"
      },
      {
        "key": "operator/type",
        "label": "Type operator",
        "type": "combo"
      },
      {
        "key": "internet_access",
        "label": "Internetverbinding",
        "type": "combo"
      },
      {
        "key": "internet_access/fee",
        "label": "Internettoegang",
        "type": "combo"
      },
      {
        "key": "internet_access/ssid",
        "label": "WiFi-netwerknaam",
        "type": "text"
      }
    ]
  },
  "amenity/clinic": {
    "name": "Dagkliniek",
    "fields": [
      {
        "key": "operator",
        "label": "Uitbatende organisatie",
        "type": "text"
      },
      {
        "key": "operator/type",
        "label": "Type operator",
        "type": "combo"
      },
      {
        "key": "healthcare/speciality",
        "label": "Specialisaties",
        "type": "semiCombo"
      },
      {
        "key": "building_area_yes",
        "label": null,
        "type": "combo"
      }
    ]
  },
  "amenity/cinema": {
    "name": "Bioscoop",
    "fields": [
      {
        "key": "screen",
        "label": "Schermen",
        "type": "number"
      },
      {
        "key": "building_area_yes",
        "label": null,
        "type": "combo"
      },
      {
        "key": "payment_multi",
        "label": "Betalingsmiddelen",
        "type": "multiCombo"
      }
    ]
  },
  "amenity/childcare": {
    "name": "Kinderdagverblijf",
    "fields": [
      {
        "key": "operator",
        "label": "Uitbatende organisatie",
        "type": "text"
      },
      {
        "key": "operator/type",
        "label": "Type operator",
        "type": "combo"
      },
      {
        "key": "building_area_yes",
        "label": null,
        "type": "combo"
      }
    ]
  },
  "amenity/casino": {
    "name": "Casino",
    "fields": [
      {
        "key": "operator",
        "label": "Uitbatende organisatie",
        "type": "text"
      },
      {
        "key": "building_area_yes",
        "label": null,
        "type": "combo"
      },
      {
        "key": "gambling",
        "label": "Spelletjes",
        "type": "semiCombo"
      },
      {
        "key": "smoking",
        "label": "Roken",
        "type": "combo"
      }
    ]
  },
  "amenity/car_wash": {
    "name": "Autowasstraat",
    "fields": [
      {
        "key": "operator",
        "label": "Uitbatende organisatie",
        "type": "text"
      },
      {
        "key": "building_area_yes",
        "label": null,
        "type": "combo"
      },
      {
        "key": "payment_multi",
        "label": "Betalingsmiddelen",
        "type": "multiCombo"
      },
      {
        "key": "self_service",
        "label": "Zelfbediening",
        "type": "check"
      },
      {
        "key": "automated",
        "label": "Geautomatiseerd",
        "type": "check"
      }
    ]
  },
  "amenity/car_sharing": {
    "name": "Autodelen",
    "fields": [
      {
        "key": "operator",
        "label": "Uitbatende organisatie",
        "type": "text"
      },
      {
        "key": "operator/type",
        "label": "Type operator",
        "type": "combo"
      },
      {
        "key": "capacity",
        "label": "Capaciteit",
        "type": "number"
      },
      {
        "key": "payment_multi",
        "label": "Betalingsmiddelen",
        "type": "multiCombo"
      },
      {
        "key": "supervised",
        "label": "Onder toezicht",
        "type": "check"
      }
    ]
  },
  "amenity/car_rental": {
    "name": "Autoverhuur",
    "fields": [
      {
        "key": "operator",
        "label": "Uitbatende organisatie",
        "type": "text"
      },
      {
        "key": "payment_multi",
        "label": "Betalingsmiddelen",
        "type": "multiCombo"
      }
    ]
  },
  "amenity/car_pooling": {
    "name": "Carpoolparking",
    "fields": [
      {
        "key": "operator",
        "label": "Uitbatende organisatie",
        "type": "text"
      },
      {
        "key": "operator/type",
        "label": "Type operator",
        "type": "combo"
      },
      {
        "key": "capacity",
        "label": "Capaciteit",
        "type": "number"
      },
      {
        "key": "lit",
        "label": "Verlicht",
        "type": "check"
      }
    ]
  },
  "amenity/cafe": {
    "name": "Brasserie",
    "fields": [
      {
        "key": "cuisine",
        "label": "Keukens",
        "type": "semiCombo"
      },
      {
        "key": "building_area_yes",
        "label": null,
        "type": "combo"
      },
      {
        "key": "outdoor_seating",
        "label": "Terras",
        "type": "check"
      },
      {
        "key": "internet_access",
        "label": "Internetverbinding",
        "type": "combo"
      },
      {
        "key": "internet_access/fee",
        "label": "Internettoegang",
        "type": "combo"
      },
      {
        "key": "internet_access/ssid",
        "label": "WiFi-netwerknaam",
        "type": "text"
      }
    ]
  },
  "amenity/bureau_de_change": {
    "name": "Wisselkantoor",
    "fields": [
      {
        "key": "operator",
        "label": "Uitbatende organisatie",
        "type": "text"
      },
      {
        "key": "payment_multi",
        "label": "Betalingsmiddelen",
        "type": "multiCombo"
      },
      {
        "key": "currency_multi",
        "label": "Valuta",
        "type": "multiCombo"
      }
    ]
  },
  "amenity/boat_storage": {
    "name": "Botenopslag",
    "fields": [
      {
        "key": "operator",
        "label": "Uitbatende organisatie",
        "type": "text"
      },
      {
        "key": "access_simple",
        "label": "Gebruik toegelaten voor",
        "type": "combo"
      },
      {
        "key": "capacity",
        "label": "Capaciteit",
        "type": "number"
      }
    ]
  },
  "amenity/boat_rental": {
    "name": "Bootverhuur",
    "fields": [
      {
        "key": "operator",
        "label": "Uitbatende organisatie",
        "type": "text"
      },
      {
        "key": "operator/type",
        "label": "Type operator",
        "type": "combo"
      },
      {
        "key": "fee",
        "label": "Betalend",
        "type": "check"
      },
      {
        "key": "payment_multi_fee",
        "label": null,
        "type": "multiCombo"
      },
      {
        "key": "charge_fee",
        "label": "Tarief",
        "type": "text"
      }
    ]
  },
  "amenity/binoculars": {
    "name": "Vaste verrekijkers",
    "fields": [
      {
        "key": "operator",
        "label": "Uitbatende organisatie",
        "type": "text"
      },
      {
        "key": "access_simple",
        "label": "Gebruik toegelaten voor",
        "type": "combo"
      },
      {
        "key": "fee",
        "label": "Betalend",
        "type": "check"
      },
      {
        "key": "payment_multi_fee",
        "label": null,
        "type": "multiCombo"
      },
      {
        "key": "charge_fee",
        "label": "Tarief",
        "type": "text"
      },
      {
        "key": "direction",
        "label": "Richting (graden met de klok mee)",
        "type": "number"
      },
      {
        "key": "height",
        "label": "Hoogte (in meter)",
        "type": "number"
      },
      {
        "key": "ele_node",
        "label": null,
        "type": "number"
      }
    ]
  },
  "amenity/biergarten": {
    "name": "Biergarten",
    "fields": [
      {
        "key": "outdoor_seating",
        "label": "Terras",
        "type": "check"
      },
      {
        "key": "brewery",
        "label": "Brouwerijen waarvan bier beschikbaar",
        "type": "semiCombo"
      }
    ]
  },
  "amenity/bicycle_rental": {
    "name": "Fietsverhuur",
    "fields": [
      {
        "key": "capacity",
        "label": "Capaciteit",
        "type": "number"
      },
      {
        "key": "network",
        "label": "Netwerk",
        "type": "text"
      },
      {
        "key": "operator",
        "label": "Uitbatende organisatie",
        "type": "text"
      },
      {
        "key": "operator/type",
        "label": "Type operator",
        "type": "combo"
      },
      {
        "key": "fee",
        "label": "Betalend",
        "type": "check"
      },
      {
        "key": "payment_multi_fee",
        "label": null,
        "type": "multiCombo"
      }
    ]
  },
  "amenity/bar": {
    "name": "Bar",
    "fields": [
      {
        "key": "building_area_yes",
        "label": null,
        "type": "combo"
      },
      {
        "key": "min_age",
        "label": "Minimum leeftijd",
        "type": "number"
      },
      {
        "key": "brewery",
        "label": "Brouwerijen waarvan bier beschikbaar",
        "type": "semiCombo"
      }
    ]
  },
  "amenity/bank": {
    "name": "Bank (financieel)",
    "fields": [
      {
        "key": "operator",
        "label": "Uitbatende organisatie",
        "type": "text"
      },
      {
        "key": "building_area_yes",
        "label": null,
        "type": "combo"
      },
      {
        "key": "atm",
        "label": "Geldautomaat",
        "type": "check"
      },
      {
        "key": "drive_through",
        "label": "Drive-Through",
        "type": "check"
      }
    ]
  },
  "amenity/arts_centre": {
    "name": "Cultureel centrum",
    "fields": [
      {
        "key": "building_area_yes",
        "label": null,
        "type": "combo"
      }
    ]
  },
  "amenity/animal_shelter": {
    "name": "Dierenasiel",
    "fields": [
      {
        "key": "operator",
        "label": "Uitbatende organisatie",
        "type": "text"
      },
      {
        "key": "animal_shelter",
        "label": "Voor dieren",
        "type": "semiCombo"
      }
    ]
  },
  "amenity/animal_breeding": {
    "name": "Fokkerij",
    "fields": [
      {
        "key": "operator",
        "label": "Uitbatende organisatie",
        "type": "text"
      },
      {
        "key": "animal_breeding",
        "label": "Voor dieren",
        "type": "semiCombo"
      }
    ]
  },
  "amenity/animal_boarding": {
    "name": "Dierenpension",
    "fields": [
      {
        "key": "operator",
        "label": "Uitbatende organisatie",
        "type": "text"
      },
      {
        "key": "animal_boarding",
        "label": "Voor dieren",
        "type": "semiCombo"
      }
    ]
  },
  "amenity/nursing_home": {
    "name": "Verpleeghuis",
    "fields": [
      {
        "key": "{amenity/social_facility}",
        "label": null,
        "type": ""
      }
    ]
  },
  "amenity/ferry_terminal": {
    "name": "Veerbootterminal",
    "fields": [
      {
        "key": "network",
        "label": "Netwerk",
        "type": "text"
      },
      {
        "key": "operator",
        "label": "Uitbatende organisatie",
        "type": "text"
      }
    ]
  },
  "amenity/embassy": {
    "name": "Ambassade",
    "fields": [
      {
        "key": "country",
        "label": "Land",
        "type": "combo"
      },
      {
        "key": "building_area_yes",
        "label": null,
        "type": "combo"
      }
    ]
  },
  "amenity/bus_station": {
    "name": "Busstation",
    "fields": [
      {
        "key": "operator",
        "label": "Uitbatende organisatie",
        "type": "text"
      },
      {
        "key": "internet_access",
        "label": "Internetverbinding",
        "type": "combo"
      },
      {
        "key": "internet_access/fee",
        "label": "Internettoegang",
        "type": "combo"
      },
      {
        "key": "internet_access/ssid",
        "label": "WiFi-netwerknaam",
        "type": "text"
      }
    ]
  }
}